EESchema Schematic File Version 4
EELAYER 30 0
EELAYER END
$Descr A3 16535 11693
encoding utf-8
Sheet 6 6
Title "DRIPPLES - DUAL FILTER"
Date ""
Rev "1"
Comp "phonemes"
Comment1 "CC-BY-SA"
Comment2 "based on MI's Ripples filter"
Comment3 ""
Comment4 ""
$EndDescr
Text HLabel 1550 3950 0    50   Input ~ 0
INPUTX_1
Text HLabel 7250 5150 2    50   Output ~ 0
OUTPUT_A
Text HLabel 9450 3950 0    50   Input ~ 0
INPUTX_2
Text HLabel 10300 4950 0    50   Input ~ 0
INPUTY_2
Text HLabel 11150 5950 0    50   Input ~ 0
INPUTZ_2
Text HLabel 15150 5150 2    50   Output ~ 0
OUTPUT_B
$Comp
L Device:R R?
U 1 1 60407E83
P 4250 2650
F 0 "R?" V 4150 2650 50  0000 C CNN
F 1 "2K" V 4250 2650 50  0000 C CNN
F 2 "" V 4180 2650 50  0001 C CNN
F 3 "~" H 4250 2650 50  0001 C CNN
	1    4250 2650
	0    1    1    0   
$EndComp
$Comp
L power:GND #PWR?
U 1 1 60409739
P 6250 2750
F 0 "#PWR?" H 6250 2500 50  0001 C CNN
F 1 "GND" H 6255 2577 50  0000 C CNN
F 2 "" H 6250 2750 50  0001 C CNN
F 3 "" H 6250 2750 50  0001 C CNN
	1    6250 2750
	1    0    0    -1  
$EndComp
$Comp
L Amplifier_Operational:LM13700 U?
U 1 1 5FC836C9
P 3000 4050
F 0 "U?" H 3000 4417 50  0000 C CNN
F 1 "LM13700" H 3000 4326 50  0000 C CNN
F 2 "" H 2700 4075 50  0001 C CNN
F 3 "http://www.ti.com/lit/ds/symlink/lm13700.pdf" H 2700 4075 50  0001 C CNN
	1    3000 4050
	1    0    0    1   
$EndComp
$Comp
L Amplifier_Operational:LM13700 U?
U 2 1 5FC8457C
P 7550 10550
F 0 "U?" H 7450 10898 50  0000 C CNN
F 1 "LM13700" H 7450 10807 50  0000 C CNN
F 2 "" H 7250 10575 50  0001 C CNN
F 3 "http://www.ti.com/lit/ds/symlink/lm13700.pdf" H 7250 10575 50  0001 C CNN
	2    7550 10550
	1    0    0    -1  
$EndComp
$Comp
L Amplifier_Operational:LM13700 U?
U 4 1 5FC86439
P 8150 10550
F 0 "U?" H 8050 10898 50  0000 C CNN
F 1 "LM13700" H 8050 10807 50  0000 C CNN
F 2 "" H 7850 10575 50  0001 C CNN
F 3 "http://www.ti.com/lit/ds/symlink/lm13700.pdf" H 7850 10575 50  0001 C CNN
	4    8150 10550
	1    0    0    -1  
$EndComp
$Comp
L Amplifier_Operational:LM13700 U?
U 2 1 5FC98CDE
P 5700 10550
F 0 "U?" H 5600 10898 50  0000 C CNN
F 1 "LM13700" H 5600 10807 50  0000 C CNN
F 2 "" H 5400 10575 50  0001 C CNN
F 3 "http://www.ti.com/lit/ds/symlink/lm13700.pdf" H 5400 10575 50  0001 C CNN
	2    5700 10550
	1    0    0    -1  
$EndComp
$Comp
L Amplifier_Operational:LM13700 U?
U 4 1 5FC98CEA
P 5050 10550
F 0 "U?" H 4950 10898 50  0000 C CNN
F 1 "LM13700" H 4950 10807 50  0000 C CNN
F 2 "" H 4750 10575 50  0001 C CNN
F 3 "http://www.ti.com/lit/ds/symlink/lm13700.pdf" H 4750 10575 50  0001 C CNN
	4    5050 10550
	1    0    0    -1  
$EndComp
$Comp
L Amplifier_Operational:LM13700 U?
U 5 1 5FC98CF0
P 1550 10450
F 0 "U?" H 1508 10496 50  0000 L CNN
F 1 "LM13700" H 1508 10405 50  0000 L CNN
F 2 "" H 1250 10475 50  0001 C CNN
F 3 "http://www.ti.com/lit/ds/symlink/lm13700.pdf" H 1250 10475 50  0001 C CNN
	5    1550 10450
	1    0    0    -1  
$EndComp
$Comp
L Amplifier_Operational:LM13700 U?
U 2 1 5FCA0979
P 6950 10550
F 0 "U?" H 6850 10898 50  0000 C CNN
F 1 "LM13700" H 6850 10807 50  0000 C CNN
F 2 "" H 6650 10575 50  0001 C CNN
F 3 "http://www.ti.com/lit/ds/symlink/lm13700.pdf" H 6650 10575 50  0001 C CNN
	2    6950 10550
	1    0    0    -1  
$EndComp
$Comp
L Amplifier_Operational:LM13700 U?
U 4 1 5FCA0985
P 6350 10550
F 0 "U?" H 6250 10898 50  0000 C CNN
F 1 "LM13700" H 6250 10807 50  0000 C CNN
F 2 "" H 6050 10575 50  0001 C CNN
F 3 "http://www.ti.com/lit/ds/symlink/lm13700.pdf" H 6050 10575 50  0001 C CNN
	4    6350 10550
	1    0    0    -1  
$EndComp
$Comp
L Transistor_BJT:MMBT3906 Q?
U 1 1 5FC845ED
P 4750 2950
F 0 "Q?" V 4700 2750 50  0000 L CNN
F 1 "MMBT3906" V 4700 3050 50  0000 L CNN
F 2 "Package_TO_SOT_SMD:SOT-23" H 4950 2875 50  0001 L CIN
F 3 "https://www.onsemi.com/pub/Collateral/2N3906-D.PDF" H 4750 2950 50  0001 L CNN
	1    4750 2950
	0    -1   1    0   
$EndComp
Text Notes 2200 2350 0    100  ~ 20
MORPHING CONTROLLER 1
$Comp
L Transistor_BJT:MMBT3906 Q?
U 1 1 5FE690FC
P 3750 2950
F 0 "Q?" V 3700 2750 50  0000 L CNN
F 1 "MMBT3906" V 3700 3050 50  0000 L CNN
F 2 "Package_TO_SOT_SMD:SOT-23" H 3950 2875 50  0001 L CIN
F 3 "https://www.onsemi.com/pub/Collateral/2N3906-D.PDF" H 3750 2950 50  0001 L CNN
	1    3750 2950
	0    -1   1    0   
$EndComp
$Comp
L Transistor_BJT:MMBT3906 Q?
U 1 1 5FE6AEEE
P 5750 2950
F 0 "Q?" V 5700 2750 50  0000 L CNN
F 1 "MMBT3906" V 5700 3050 50  0000 L CNN
F 2 "Package_TO_SOT_SMD:SOT-23" H 5950 2875 50  0001 L CIN
F 3 "https://www.onsemi.com/pub/Collateral/2N3906-D.PDF" H 5750 2950 50  0001 L CNN
	1    5750 2950
	0    -1   1    0   
$EndComp
NoConn ~ 2700 4050
Text Notes 1300 5200 0    100  ~ 20
VCAs
Text Notes 6200 5950 0    100  ~ 20
MIXING AMP
$Comp
L Amplifier_Operational:OPA1679 U?
U 4 1 5FF24E0C
P 6500 5150
F 0 "U?" H 6400 5500 50  0000 C CNN
F 1 "OPA1679" H 6500 5400 50  0000 C CNN
F 2 "" H 6450 5250 50  0001 C CNN
F 3 "http://www.ti.com/lit/ds/symlink/opa1678.pdf" H 6550 5350 50  0001 C CNN
	4    6500 5150
	1    0    0    1   
$EndComp
Connection ~ 5950 5050
Wire Wire Line
	5950 5050 6100 5050
Wire Wire Line
	6200 5250 6100 5250
Wire Wire Line
	6100 5250 6100 5350
$Comp
L power:GND #PWR?
U 1 1 5FD01F89
P 6100 5350
F 0 "#PWR?" H 6100 5100 50  0001 C CNN
F 1 "GND" H 6105 5177 50  0000 C CNN
F 2 "" H 6100 5350 50  0001 C CNN
F 3 "" H 6100 5350 50  0001 C CNN
	1    6100 5350
	1    0    0    -1  
$EndComp
Wire Wire Line
	6100 5050 6100 4650
Wire Wire Line
	6100 4650 6400 4650
Connection ~ 6100 5050
Wire Wire Line
	6100 5050 6200 5050
Wire Wire Line
	7000 4650 7000 5150
Wire Wire Line
	7000 5150 6800 5150
Wire Wire Line
	7000 5150 7250 5150
Connection ~ 7000 5150
$Comp
L Device:R R?
U 1 1 5FD0F2C1
P 6550 4650
F 0 "R?" V 6450 4650 50  0000 C CNN
F 1 "68K" V 6550 4650 50  0000 C CNN
F 2 "" V 6480 4650 50  0001 C CNN
F 3 "~" H 6550 4650 50  0001 C CNN
	1    6550 4650
	0    1    1    0   
$EndComp
Wire Wire Line
	6700 4650 7000 4650
Wire Wire Line
	3250 2650 3750 2650
Wire Wire Line
	3750 2650 3750 2750
Wire Wire Line
	3750 2650 4100 2650
Wire Wire Line
	4750 2650 4750 2750
Connection ~ 3750 2650
Wire Wire Line
	5750 2650 5750 2750
Connection ~ 4750 2650
Wire Wire Line
	5750 2650 6250 2650
Wire Wire Line
	6250 2650 6250 2750
Connection ~ 5750 2650
Wire Wire Line
	4400 2650 4750 2650
$Comp
L Device:R R?
U 1 1 5FCFE172
P 5250 2650
F 0 "R?" V 5150 2650 50  0000 C CNN
F 1 "2K" V 5250 2650 50  0000 C CNN
F 2 "" V 5180 2650 50  0001 C CNN
F 3 "~" H 5250 2650 50  0001 C CNN
	1    5250 2650
	0    1    1    0   
$EndComp
Wire Wire Line
	5400 2650 5750 2650
Wire Wire Line
	3550 3050 3550 3300
Wire Wire Line
	3950 3050 3950 3250
Wire Wire Line
	4950 3050 4950 3250
Wire Wire Line
	5950 3050 5950 3250
Wire Wire Line
	3950 3250 4950 3250
Wire Wire Line
	4950 3250 5950 3250
Connection ~ 4950 3250
Connection ~ 5950 3250
Wire Wire Line
	6750 3250 6750 3050
Wire Wire Line
	5950 3250 6750 3250
$Comp
L Device:R R?
U 1 1 5FD14963
P 6750 2900
F 0 "R?" V 6650 2900 50  0000 C CNN
F 1 "18K" V 6750 2900 50  0000 C CNN
F 2 "" V 6680 2900 50  0001 C CNN
F 3 "~" H 6750 2900 50  0001 C CNN
	1    6750 2900
	-1   0    0    1   
$EndComp
$Comp
L Device:R R?
U 1 1 5FD1A754
P 4750 2400
F 0 "R?" V 4650 2400 50  0000 C CNN
F 1 "82K" V 4750 2400 50  0000 C CNN
F 2 "" V 4680 2400 50  0001 C CNN
F 3 "~" H 4750 2400 50  0001 C CNN
	1    4750 2400
	-1   0    0    1   
$EndComp
Wire Wire Line
	4750 2550 4750 2650
Wire Wire Line
	4750 2650 5100 2650
Wire Wire Line
	4500 2150 4750 2150
Wire Wire Line
	4750 2150 4750 2250
Text Notes 2900 2800 0    50   ~ 0
+/-0.5V
$Comp
L Device:R_POT_TRIM RV?
U 1 1 5FD42750
P 6750 2450
F 0 "RV?" H 6681 2496 50  0000 R CNN
F 1 "20K" H 6681 2405 50  0000 R CNN
F 2 "" H 6750 2450 50  0001 C CNN
F 3 "~" H 6750 2450 50  0001 C CNN
	1    6750 2450
	1    0    0    -1  
$EndComp
Wire Wire Line
	6750 2600 6750 2750
Wire Wire Line
	6750 2300 6750 2200
Wire Wire Line
	6950 2450 6950 2200
Wire Wire Line
	6950 2200 6750 2200
Connection ~ 6750 2200
Wire Wire Line
	6750 2200 6750 2150
Wire Wire Line
	6900 2450 6950 2450
Text Notes 6850 2700 0    50   ~ 0
OTA current trimmer\n(output volume)
$Comp
L Device:R R?
U 1 1 5FD7EB2C
P 3550 3450
F 0 "R?" V 3450 3450 50  0000 C CNN
F 1 "510R" V 3550 3450 50  0000 C CNN
F 2 "" V 3480 3450 50  0001 C CNN
F 3 "~" H 3550 3450 50  0001 C CNN
	1    3550 3450
	-1   0    0    1   
$EndComp
$Comp
L Device:R R?
U 1 1 5FD82A76
P 4550 3450
F 0 "R?" V 4450 3450 50  0000 C CNN
F 1 "510R" V 4550 3450 50  0000 C CNN
F 2 "" V 4480 3450 50  0001 C CNN
F 3 "~" H 4550 3450 50  0001 C CNN
	1    4550 3450
	-1   0    0    1   
$EndComp
Wire Wire Line
	4550 3050 4550 3300
$Comp
L Device:R R?
U 1 1 5FD95552
P 5550 3450
F 0 "R?" V 5450 3450 50  0000 C CNN
F 1 "510R" V 5550 3450 50  0000 C CNN
F 2 "" V 5480 3450 50  0001 C CNN
F 3 "~" H 5550 3450 50  0001 C CNN
	1    5550 3450
	-1   0    0    1   
$EndComp
Wire Wire Line
	5550 3300 5550 3050
Text Notes 2000 3900 0    50   ~ 0
approx. 10mV\n
Text Notes 3250 3500 0    50   ~ 0
CCW
Text Notes 4150 3500 0    50   ~ 0
MIDDLE\n
Text Notes 5300 3500 0    50   ~ 0
CW
Wire Wire Line
	3550 3950 3550 3600
Wire Wire Line
	3300 3950 3550 3950
$Comp
L Device:R R?
U 1 1 5FD61A53
P 2350 4350
F 0 "R?" V 2250 4350 50  0000 C CNN
F 1 "1.5K" V 2350 4350 50  0000 C CNN
F 2 "" V 2280 4350 50  0001 C CNN
F 3 "~" H 2350 4350 50  0001 C CNN
	1    2350 4350
	-1   0    0    1   
$EndComp
$Comp
L Device:R R?
U 1 1 5FD61A5D
P 1950 4350
F 0 "R?" V 1850 4350 50  0000 C CNN
F 1 "1.5K" V 1950 4350 50  0000 C CNN
F 2 "" V 1880 4350 50  0001 C CNN
F 3 "~" H 1950 4350 50  0001 C CNN
	1    1950 4350
	-1   0    0    1   
$EndComp
Wire Wire Line
	1950 4500 1950 4550
Wire Wire Line
	2350 4550 2150 4550
Wire Wire Line
	2150 4550 2150 4600
Connection ~ 2150 4550
Wire Wire Line
	2150 4550 1950 4550
$Comp
L power:GND #PWR?
U 1 1 5FD61A6C
P 2150 4600
F 0 "#PWR?" H 2150 4350 50  0001 C CNN
F 1 "GND" H 2155 4427 50  0000 C CNN
F 2 "" H 2150 4600 50  0001 C CNN
F 3 "" H 2150 4600 50  0001 C CNN
	1    2150 4600
	1    0    0    -1  
$EndComp
Wire Wire Line
	2350 4500 2350 4550
Wire Wire Line
	1550 3950 1950 3950
Wire Wire Line
	2350 4200 2350 4150
Wire Wire Line
	2350 4150 2700 4150
Wire Wire Line
	1950 3950 1950 4200
Connection ~ 1950 3950
Wire Wire Line
	1950 3950 2700 3950
Wire Wire Line
	3650 5950 4400 5950
Connection ~ 3650 5950
Wire Wire Line
	3650 5950 3650 6200
Wire Wire Line
	4050 6150 4400 6150
Wire Wire Line
	4050 6200 4050 6150
Wire Wire Line
	3250 5950 3650 5950
Wire Wire Line
	4050 6500 4050 6550
$Comp
L power:GND #PWR?
U 1 1 5FD6ACB8
P 3850 6600
F 0 "#PWR?" H 3850 6350 50  0001 C CNN
F 1 "GND" H 3855 6427 50  0000 C CNN
F 2 "" H 3850 6600 50  0001 C CNN
F 3 "" H 3850 6600 50  0001 C CNN
	1    3850 6600
	1    0    0    -1  
$EndComp
Wire Wire Line
	3850 6550 3650 6550
Connection ~ 3850 6550
Wire Wire Line
	3850 6550 3850 6600
Wire Wire Line
	4050 6550 3850 6550
Wire Wire Line
	3650 6500 3650 6550
$Comp
L Device:R R?
U 1 1 5FD6ACA9
P 3650 6350
F 0 "R?" V 3550 6350 50  0000 C CNN
F 1 "1.5K" V 3650 6350 50  0000 C CNN
F 2 "" V 3580 6350 50  0001 C CNN
F 3 "~" H 3650 6350 50  0001 C CNN
	1    3650 6350
	-1   0    0    1   
$EndComp
$Comp
L Device:R R?
U 1 1 5FD6A539
P 4050 6350
F 0 "R?" V 3950 6350 50  0000 C CNN
F 1 "1.5K" V 4050 6350 50  0000 C CNN
F 2 "" V 3980 6350 50  0001 C CNN
F 3 "~" H 4050 6350 50  0001 C CNN
	1    4050 6350
	-1   0    0    1   
$EndComp
NoConn ~ 3550 5050
Wire Wire Line
	2800 4950 3550 4950
Connection ~ 2800 4950
Wire Wire Line
	2800 4950 2800 5200
Wire Wire Line
	3200 5150 3550 5150
Wire Wire Line
	3200 5200 3200 5150
Wire Wire Line
	2400 4950 2800 4950
Wire Wire Line
	3200 5500 3200 5550
$Comp
L power:GND #PWR?
U 1 1 5FCD3651
P 3000 5600
F 0 "#PWR?" H 3000 5350 50  0001 C CNN
F 1 "GND" H 3005 5427 50  0000 C CNN
F 2 "" H 3000 5600 50  0001 C CNN
F 3 "" H 3000 5600 50  0001 C CNN
	1    3000 5600
	1    0    0    -1  
$EndComp
Wire Wire Line
	3000 5550 2800 5550
Connection ~ 3000 5550
Wire Wire Line
	3000 5550 3000 5600
Wire Wire Line
	3200 5550 3000 5550
Wire Wire Line
	2800 5500 2800 5550
$Comp
L Device:R R?
U 1 1 5FCD3640
P 2800 5350
F 0 "R?" V 2700 5350 50  0000 C CNN
F 1 "1.5K" V 2800 5350 50  0000 C CNN
F 2 "" V 2730 5350 50  0001 C CNN
F 3 "~" H 2800 5350 50  0001 C CNN
	1    2800 5350
	-1   0    0    1   
$EndComp
$Comp
L Device:R R?
U 1 1 5FCD363A
P 3200 5350
F 0 "R?" V 3100 5350 50  0000 C CNN
F 1 "1.5K" V 3200 5350 50  0000 C CNN
F 2 "" V 3130 5350 50  0001 C CNN
F 3 "~" H 3200 5350 50  0001 C CNN
	1    3200 5350
	-1   0    0    1   
$EndComp
$Comp
L Amplifier_Operational:LM13700 U?
U 1 1 5FC98CD8
P 4700 6050
F 0 "U?" H 4700 6417 50  0000 C CNN
F 1 "LM13700" H 4700 6326 50  0000 C CNN
F 2 "" H 4400 6075 50  0001 C CNN
F 3 "http://www.ti.com/lit/ds/symlink/lm13700.pdf" H 4400 6075 50  0001 C CNN
	1    4700 6050
	1    0    0    1   
$EndComp
$Comp
L Amplifier_Operational:LM13700 U?
U 3 1 5FC8541A
P 3850 5050
F 0 "U?" H 3850 5417 50  0000 C CNN
F 1 "LM13700" H 3850 5326 50  0000 C CNN
F 2 "" H 3550 5075 50  0001 C CNN
F 3 "http://www.ti.com/lit/ds/symlink/lm13700.pdf" H 3550 5075 50  0001 C CNN
	3    3850 5050
	1    0    0    1   
$EndComp
Text HLabel 3250 5950 0    50   Input ~ 0
INPUTZ_1
Text HLabel 2400 4950 0    50   Input ~ 0
INPUTY_1
Wire Wire Line
	4550 3600 4550 4950
Wire Wire Line
	4150 4950 4550 4950
Wire Wire Line
	5550 3600 5550 5950
Wire Wire Line
	5550 5950 5000 5950
Wire Wire Line
	5000 6050 5950 6050
Wire Wire Line
	3300 4050 5950 4050
Wire Wire Line
	5950 4050 5950 5050
Wire Notes Line
	2650 5950 950  3950
Text Notes 3700 3700 0    50   ~ 0
max. 0.5mA\n
Wire Notes Line
	3650 3850 3650 3600
Wire Notes Line
	3650 3850 3700 3800
Wire Notes Line
	3650 3850 3600 3800
Text Notes 7150 5050 0    50   ~ 0
approx. +/-5V\n
NoConn ~ 4400 6050
$Comp
L Device:R R?
U 1 1 5FE3510F
P 12150 2650
F 0 "R?" V 12050 2650 50  0000 C CNN
F 1 "2K" V 12150 2650 50  0000 C CNN
F 2 "" V 12080 2650 50  0001 C CNN
F 3 "~" H 12150 2650 50  0001 C CNN
	1    12150 2650
	0    1    1    0   
$EndComp
$Comp
L power:GND #PWR?
U 1 1 5FE35115
P 14150 2750
F 0 "#PWR?" H 14150 2500 50  0001 C CNN
F 1 "GND" H 14155 2577 50  0000 C CNN
F 2 "" H 14150 2750 50  0001 C CNN
F 3 "" H 14150 2750 50  0001 C CNN
	1    14150 2750
	1    0    0    -1  
$EndComp
$Comp
L Amplifier_Operational:LM13700 U?
U 1 1 5FE3511B
P 11750 5050
F 0 "U?" H 11750 5417 50  0000 C CNN
F 1 "LM13700" H 11750 5326 50  0000 C CNN
F 2 "" H 11450 5075 50  0001 C CNN
F 3 "http://www.ti.com/lit/ds/symlink/lm13700.pdf" H 11450 5075 50  0001 C CNN
	1    11750 5050
	1    0    0    1   
$EndComp
$Comp
L Transistor_BJT:MMBT3906 Q?
U 1 1 5FE35121
P 12650 2950
F 0 "Q?" V 12600 2750 50  0000 L CNN
F 1 "MMBT3906" V 12600 3050 50  0000 L CNN
F 2 "Package_TO_SOT_SMD:SOT-23" H 12850 2875 50  0001 L CIN
F 3 "https://www.onsemi.com/pub/Collateral/2N3906-D.PDF" H 12650 2950 50  0001 L CNN
	1    12650 2950
	0    -1   1    0   
$EndComp
Text Notes 10100 2350 0    100  ~ 20
MORPHING CONTROLLER 2
$Comp
L Transistor_BJT:MMBT3906 Q?
U 1 1 5FE35128
P 11650 2950
F 0 "Q?" V 11600 2750 50  0000 L CNN
F 1 "MMBT3906" V 11600 3050 50  0000 L CNN
F 2 "Package_TO_SOT_SMD:SOT-23" H 11850 2875 50  0001 L CIN
F 3 "https://www.onsemi.com/pub/Collateral/2N3906-D.PDF" H 11650 2950 50  0001 L CNN
	1    11650 2950
	0    -1   1    0   
$EndComp
$Comp
L Transistor_BJT:MMBT3906 Q?
U 1 1 5FE3512E
P 13650 2950
F 0 "Q?" V 13600 2750 50  0000 L CNN
F 1 "MMBT3906" V 13600 3050 50  0000 L CNN
F 2 "Package_TO_SOT_SMD:SOT-23" H 13850 2875 50  0001 L CIN
F 3 "https://www.onsemi.com/pub/Collateral/2N3906-D.PDF" H 13650 2950 50  0001 L CNN
	1    13650 2950
	0    -1   1    0   
$EndComp
NoConn ~ 10600 4050
Text Notes 9200 5200 0    100  ~ 20
VCAs
Text Notes 14100 5950 0    100  ~ 20
MIXING AMP
$Comp
L Amplifier_Operational:OPA1679 U?
U 4 1 5FE35137
P 14400 5150
F 0 "U?" H 14300 5500 50  0000 C CNN
F 1 "OPA1679" H 14400 5400 50  0000 C CNN
F 2 "" H 14350 5250 50  0001 C CNN
F 3 "http://www.ti.com/lit/ds/symlink/opa1678.pdf" H 14450 5350 50  0001 C CNN
	4    14400 5150
	1    0    0    1   
$EndComp
Connection ~ 13850 5050
Wire Wire Line
	13850 5050 14000 5050
Wire Wire Line
	14100 5250 14000 5250
Wire Wire Line
	14000 5250 14000 5350
$Comp
L power:GND #PWR?
U 1 1 5FE35142
P 14000 5350
F 0 "#PWR?" H 14000 5100 50  0001 C CNN
F 1 "GND" H 14005 5177 50  0000 C CNN
F 2 "" H 14000 5350 50  0001 C CNN
F 3 "" H 14000 5350 50  0001 C CNN
	1    14000 5350
	1    0    0    -1  
$EndComp
Wire Wire Line
	14000 5050 14000 4650
Wire Wire Line
	14000 4650 14300 4650
Connection ~ 14000 5050
Wire Wire Line
	14000 5050 14100 5050
Wire Wire Line
	14900 4650 14900 5150
Wire Wire Line
	14900 5150 14700 5150
Wire Wire Line
	14900 5150 15150 5150
Connection ~ 14900 5150
$Comp
L Device:R R?
U 1 1 5FE35150
P 14450 4650
F 0 "R?" V 14350 4650 50  0000 C CNN
F 1 "68K" V 14450 4650 50  0000 C CNN
F 2 "" V 14380 4650 50  0001 C CNN
F 3 "~" H 14450 4650 50  0001 C CNN
	1    14450 4650
	0    1    1    0   
$EndComp
Wire Wire Line
	14600 4650 14900 4650
Wire Wire Line
	11150 2650 11650 2650
Wire Wire Line
	11650 2650 11650 2750
Wire Wire Line
	11650 2650 12000 2650
Wire Wire Line
	12650 2650 12650 2750
Connection ~ 11650 2650
Wire Wire Line
	13650 2650 13650 2750
Connection ~ 12650 2650
Wire Wire Line
	13650 2650 14150 2650
Wire Wire Line
	14150 2650 14150 2750
Connection ~ 13650 2650
Wire Wire Line
	12300 2650 12650 2650
$Comp
L Device:R R?
U 1 1 5FE35162
P 13150 2650
F 0 "R?" V 13050 2650 50  0000 C CNN
F 1 "2K" V 13150 2650 50  0000 C CNN
F 2 "" V 13080 2650 50  0001 C CNN
F 3 "~" H 13150 2650 50  0001 C CNN
	1    13150 2650
	0    1    1    0   
$EndComp
Wire Wire Line
	13300 2650 13650 2650
Wire Wire Line
	11450 3050 11450 3300
Wire Wire Line
	11850 3050 11850 3250
Wire Wire Line
	12850 3050 12850 3250
Wire Wire Line
	13850 3050 13850 3250
Wire Wire Line
	11850 3250 12850 3250
Wire Wire Line
	12850 3250 13850 3250
Connection ~ 12850 3250
Connection ~ 13850 3250
Wire Wire Line
	14650 3250 14650 3050
Wire Wire Line
	13850 3250 14650 3250
$Comp
L Device:R R?
U 1 1 5FE35173
P 14650 2900
F 0 "R?" V 14550 2900 50  0000 C CNN
F 1 "18K" V 14650 2900 50  0000 C CNN
F 2 "" V 14580 2900 50  0001 C CNN
F 3 "~" H 14650 2900 50  0001 C CNN
	1    14650 2900
	-1   0    0    1   
$EndComp
$Comp
L Device:R R?
U 1 1 5FE3517F
P 12650 2400
F 0 "R?" V 12550 2400 50  0000 C CNN
F 1 "82K" V 12650 2400 50  0000 C CNN
F 2 "" V 12580 2400 50  0001 C CNN
F 3 "~" H 12650 2400 50  0001 C CNN
	1    12650 2400
	-1   0    0    1   
$EndComp
Wire Wire Line
	12650 2550 12650 2650
Wire Wire Line
	12650 2650 13000 2650
Wire Wire Line
	12400 2150 12650 2150
Wire Wire Line
	12650 2150 12650 2250
Text Notes 10800 2800 0    50   ~ 0
+/-0.5V
$Comp
L Device:R_POT_TRIM RV?
U 1 1 5FE35191
P 14650 2450
F 0 "RV?" H 14581 2496 50  0000 R CNN
F 1 "20K" H 14581 2405 50  0000 R CNN
F 2 "" H 14650 2450 50  0001 C CNN
F 3 "~" H 14650 2450 50  0001 C CNN
	1    14650 2450
	1    0    0    -1  
$EndComp
Wire Wire Line
	14650 2600 14650 2750
Wire Wire Line
	14650 2300 14650 2200
Wire Wire Line
	14850 2450 14850 2200
Wire Wire Line
	14850 2200 14650 2200
Connection ~ 14650 2200
Wire Wire Line
	14650 2200 14650 2150
Wire Wire Line
	14800 2450 14850 2450
Text Notes 14750 2700 0    50   ~ 0
OTA current trimmer\n(output volume)
$Comp
L Device:R R?
U 1 1 5FE3519F
P 11450 3450
F 0 "R?" V 11350 3450 50  0000 C CNN
F 1 "510R" V 11450 3450 50  0000 C CNN
F 2 "" V 11380 3450 50  0001 C CNN
F 3 "~" H 11450 3450 50  0001 C CNN
	1    11450 3450
	-1   0    0    1   
$EndComp
$Comp
L Device:R R?
U 1 1 5FE351A5
P 12450 3450
F 0 "R?" V 12350 3450 50  0000 C CNN
F 1 "510R" V 12450 3450 50  0000 C CNN
F 2 "" V 12380 3450 50  0001 C CNN
F 3 "~" H 12450 3450 50  0001 C CNN
	1    12450 3450
	-1   0    0    1   
$EndComp
Wire Wire Line
	12450 3050 12450 3300
$Comp
L Device:R R?
U 1 1 5FE351AC
P 13450 3450
F 0 "R?" V 13350 3450 50  0000 C CNN
F 1 "510R" V 13450 3450 50  0000 C CNN
F 2 "" V 13380 3450 50  0001 C CNN
F 3 "~" H 13450 3450 50  0001 C CNN
	1    13450 3450
	-1   0    0    1   
$EndComp
Wire Wire Line
	13450 3300 13450 3050
Text Notes 9900 3900 0    50   ~ 0
approx. 10mV\n
Text Notes 11150 3500 0    50   ~ 0
CCW
Text Notes 12050 3500 0    50   ~ 0
MIDDLE\n
Text Notes 13200 3500 0    50   ~ 0
CW
Wire Wire Line
	11450 3950 11450 3600
Wire Wire Line
	11200 3950 11450 3950
$Comp
L Device:R R?
U 1 1 5FE351B9
P 10250 4350
F 0 "R?" V 10150 4350 50  0000 C CNN
F 1 "1.5K" V 10250 4350 50  0000 C CNN
F 2 "" V 10180 4350 50  0001 C CNN
F 3 "~" H 10250 4350 50  0001 C CNN
	1    10250 4350
	-1   0    0    1   
$EndComp
$Comp
L Device:R R?
U 1 1 5FE351BF
P 9850 4350
F 0 "R?" V 9750 4350 50  0000 C CNN
F 1 "1.5K" V 9850 4350 50  0000 C CNN
F 2 "" V 9780 4350 50  0001 C CNN
F 3 "~" H 9850 4350 50  0001 C CNN
	1    9850 4350
	-1   0    0    1   
$EndComp
Wire Wire Line
	9850 4500 9850 4550
Wire Wire Line
	10250 4550 10050 4550
Wire Wire Line
	10050 4550 10050 4600
Connection ~ 10050 4550
Wire Wire Line
	10050 4550 9850 4550
$Comp
L power:GND #PWR?
U 1 1 5FE351CA
P 10050 4600
F 0 "#PWR?" H 10050 4350 50  0001 C CNN
F 1 "GND" H 10055 4427 50  0000 C CNN
F 2 "" H 10050 4600 50  0001 C CNN
F 3 "" H 10050 4600 50  0001 C CNN
	1    10050 4600
	1    0    0    -1  
$EndComp
Wire Wire Line
	10250 4500 10250 4550
Wire Wire Line
	9450 3950 9850 3950
Wire Wire Line
	10250 4200 10250 4150
Wire Wire Line
	10250 4150 10600 4150
Wire Wire Line
	9850 3950 9850 4200
Connection ~ 9850 3950
Wire Wire Line
	9850 3950 10600 3950
Wire Wire Line
	11550 5950 12300 5950
Connection ~ 11550 5950
Wire Wire Line
	11550 5950 11550 6200
Wire Wire Line
	11950 6150 12300 6150
Wire Wire Line
	11950 6200 11950 6150
Wire Wire Line
	11150 5950 11550 5950
Wire Wire Line
	11950 6500 11950 6550
$Comp
L power:GND #PWR?
U 1 1 5FE351DE
P 11750 6600
F 0 "#PWR?" H 11750 6350 50  0001 C CNN
F 1 "GND" H 11755 6427 50  0000 C CNN
F 2 "" H 11750 6600 50  0001 C CNN
F 3 "" H 11750 6600 50  0001 C CNN
	1    11750 6600
	1    0    0    -1  
$EndComp
Wire Wire Line
	11750 6550 11550 6550
Connection ~ 11750 6550
Wire Wire Line
	11750 6550 11750 6600
Wire Wire Line
	11950 6550 11750 6550
Wire Wire Line
	11550 6500 11550 6550
$Comp
L Device:R R?
U 1 1 5FE351E9
P 11550 6350
F 0 "R?" V 11450 6350 50  0000 C CNN
F 1 "1.5K" V 11550 6350 50  0000 C CNN
F 2 "" V 11480 6350 50  0001 C CNN
F 3 "~" H 11550 6350 50  0001 C CNN
	1    11550 6350
	-1   0    0    1   
$EndComp
$Comp
L Device:R R?
U 1 1 5FE351EF
P 11950 6350
F 0 "R?" V 11850 6350 50  0000 C CNN
F 1 "1.5K" V 11950 6350 50  0000 C CNN
F 2 "" V 11880 6350 50  0001 C CNN
F 3 "~" H 11950 6350 50  0001 C CNN
	1    11950 6350
	-1   0    0    1   
$EndComp
NoConn ~ 11450 5050
Wire Wire Line
	10700 4950 11450 4950
Connection ~ 10700 4950
Wire Wire Line
	10700 4950 10700 5200
Wire Wire Line
	11100 5150 11450 5150
Wire Wire Line
	11100 5200 11100 5150
Wire Wire Line
	10300 4950 10700 4950
Wire Wire Line
	11100 5500 11100 5550
$Comp
L power:GND #PWR?
U 1 1 5FE351FD
P 10900 5600
F 0 "#PWR?" H 10900 5350 50  0001 C CNN
F 1 "GND" H 10905 5427 50  0000 C CNN
F 2 "" H 10900 5600 50  0001 C CNN
F 3 "" H 10900 5600 50  0001 C CNN
	1    10900 5600
	1    0    0    -1  
$EndComp
Wire Wire Line
	10900 5550 10700 5550
Connection ~ 10900 5550
Wire Wire Line
	10900 5550 10900 5600
Wire Wire Line
	11100 5550 10900 5550
Wire Wire Line
	10700 5500 10700 5550
$Comp
L Device:R R?
U 1 1 5FE35208
P 10700 5350
F 0 "R?" V 10600 5350 50  0000 C CNN
F 1 "1.5K" V 10700 5350 50  0000 C CNN
F 2 "" V 10630 5350 50  0001 C CNN
F 3 "~" H 10700 5350 50  0001 C CNN
	1    10700 5350
	-1   0    0    1   
$EndComp
$Comp
L Device:R R?
U 1 1 5FE3520E
P 11100 5350
F 0 "R?" V 11000 5350 50  0000 C CNN
F 1 "1.5K" V 11100 5350 50  0000 C CNN
F 2 "" V 11030 5350 50  0001 C CNN
F 3 "~" H 11100 5350 50  0001 C CNN
	1    11100 5350
	-1   0    0    1   
$EndComp
$Comp
L Amplifier_Operational:LM13700 U?
U 3 1 5FE3521A
P 10900 4050
F 0 "U?" H 10900 4417 50  0000 C CNN
F 1 "LM13700" H 10900 4326 50  0000 C CNN
F 2 "" H 10600 4075 50  0001 C CNN
F 3 "http://www.ti.com/lit/ds/symlink/lm13700.pdf" H 10600 4075 50  0001 C CNN
	3    10900 4050
	1    0    0    1   
$EndComp
Wire Wire Line
	12450 3600 12450 4950
Wire Wire Line
	12050 4950 12450 4950
Wire Wire Line
	13450 3600 13450 5950
Wire Wire Line
	13450 5950 12900 5950
Wire Wire Line
	12900 6050 13850 6050
Wire Wire Line
	11200 4050 13850 4050
Wire Wire Line
	13850 4050 13850 5050
Wire Notes Line
	10550 5950 8850 3950
Text Notes 11600 3700 0    50   ~ 0
max. 0.5mA\n
Wire Notes Line
	11550 3850 11550 3600
Wire Notes Line
	11550 3850 11600 3800
Wire Notes Line
	11550 3850 11500 3800
Text Notes 15050 5050 0    50   ~ 0
approx. +/-5V\n
NoConn ~ 12300 6050
$Comp
L Amplifier_Operational:LM13700 U?
U 3 1 5FE57999
P 12600 6050
F 0 "U?" H 12600 6417 50  0000 C CNN
F 1 "LM13700" H 12600 6326 50  0000 C CNN
F 2 "" H 12300 6075 50  0001 C CNN
F 3 "http://www.ti.com/lit/ds/symlink/lm13700.pdf" H 12300 6075 50  0001 C CNN
	3    12600 6050
	1    0    0    1   
$EndComp
Wire Wire Line
	4150 5050 5950 5050
Wire Wire Line
	5950 5050 5950 6050
Wire Wire Line
	12050 5050 13850 5050
Wire Wire Line
	13850 5050 13850 6050
$Comp
L Amplifier_Operational:TL074 U?
U 1 1 6008B3A9
P 3900 8400
AR Path="/5FCB84B8/6008B3A9" Ref="U?"  Part="1" 
AR Path="/5FC156F1/6008B3A9" Ref="U?"  Part="1" 
F 0 "U?" H 3900 8767 50  0000 C CNN
F 1 "TL074" H 3900 8676 50  0000 C CNN
F 2 "" H 3850 8500 50  0001 C CNN
F 3 "http://www.ti.com/lit/ds/symlink/tl071.pdf" H 3950 8600 50  0001 C CNN
	1    3900 8400
	1    0    0    1   
$EndComp
$Comp
L Amplifier_Operational:TL074 U?
U 2 1 6008B3AF
P 5100 8500
AR Path="/5FCB84B8/6008B3AF" Ref="U?"  Part="2" 
AR Path="/5FC156F1/6008B3AF" Ref="U?"  Part="2" 
F 0 "U?" H 5100 8867 50  0000 C CNN
F 1 "TL074" H 5100 8776 50  0000 C CNN
F 2 "" H 5050 8600 50  0001 C CNN
F 3 "http://www.ti.com/lit/ds/symlink/tl071.pdf" H 5150 8700 50  0001 C CNN
	2    5100 8500
	1    0    0    1   
$EndComp
$Comp
L Amplifier_Operational:TL074 U?
U 3 1 6008B3B5
P 13100 8500
AR Path="/5FCB84B8/6008B3B5" Ref="U?"  Part="3" 
AR Path="/5FC156F1/6008B3B5" Ref="U?"  Part="3" 
F 0 "U?" H 13100 8867 50  0000 C CNN
F 1 "TL074" H 13100 8776 50  0000 C CNN
F 2 "" H 13050 8600 50  0001 C CNN
F 3 "http://www.ti.com/lit/ds/symlink/tl071.pdf" H 13150 8700 50  0001 C CNN
	3    13100 8500
	1    0    0    1   
$EndComp
$Comp
L Amplifier_Operational:TL074 U?
U 4 1 6008B3BB
P 11900 8400
AR Path="/5FCB84B8/6008B3BB" Ref="U?"  Part="4" 
AR Path="/5FC156F1/6008B3BB" Ref="U?"  Part="4" 
F 0 "U?" H 11900 8767 50  0000 C CNN
F 1 "TL074" H 11900 8676 50  0000 C CNN
F 2 "" H 11850 8500 50  0001 C CNN
F 3 "http://www.ti.com/lit/ds/symlink/tl071.pdf" H 11950 8600 50  0001 C CNN
	4    11900 8400
	1    0    0    1   
$EndComp
$Comp
L Amplifier_Operational:TL074 U?
U 5 1 6008B3C1
P 10700 10250
AR Path="/5FCB84B8/6008B3C1" Ref="U?"  Part="5" 
AR Path="/5FC156F1/6008B3C1" Ref="U?"  Part="5" 
F 0 "U?" H 10658 10296 50  0000 L CNN
F 1 "TL074" H 10658 10205 50  0000 L CNN
F 2 "" H 10650 10350 50  0001 C CNN
F 3 "http://www.ti.com/lit/ds/symlink/tl071.pdf" H 10750 10450 50  0001 C CNN
	5    10700 10250
	1    0    0    -1  
$EndComp
Wire Wire Line
	3600 8300 3550 8300
$Comp
L Device:R R?
U 1 1 6008B3C8
P 3050 7750
AR Path="/5FCB84B8/6008B3C8" Ref="R?"  Part="1" 
AR Path="/5FC156F1/6008B3C8" Ref="R?"  Part="1" 
F 0 "R?" V 2950 7750 50  0000 C CNN
F 1 "100K" V 3050 7750 50  0000 C CNN
F 2 "" V 2980 7750 50  0001 C CNN
F 3 "~" H 3050 7750 50  0001 C CNN
	1    3050 7750
	0    1    1    0   
$EndComp
Wire Wire Line
	3600 8500 3500 8500
Wire Wire Line
	3500 8500 3500 8600
$Comp
L power:GND #PWR?
U 1 1 6008B3D0
P 3500 8600
AR Path="/5FCB84B8/6008B3D0" Ref="#PWR?"  Part="1" 
AR Path="/5FC156F1/6008B3D0" Ref="#PWR?"  Part="1" 
F 0 "#PWR?" H 3500 8350 50  0001 C CNN
F 1 "GND" H 3505 8427 50  0000 C CNN
F 2 "" H 3500 8600 50  0001 C CNN
F 3 "" H 3500 8600 50  0001 C CNN
	1    3500 8600
	1    0    0    -1  
$EndComp
Wire Wire Line
	3550 8300 3550 8000
Wire Wire Line
	3550 8000 3750 8000
Connection ~ 3550 8300
$Comp
L Device:R R?
U 1 1 6008B3D9
P 3900 8000
AR Path="/5FCB84B8/6008B3D9" Ref="R?"  Part="1" 
AR Path="/5FC156F1/6008B3D9" Ref="R?"  Part="1" 
F 0 "R?" V 3800 8000 50  0000 C CNN
F 1 "12K" V 3900 8000 50  0000 C CNN
F 2 "" V 3830 8000 50  0001 C CNN
F 3 "~" H 3900 8000 50  0001 C CNN
	1    3900 8000
	0    1    1    0   
$EndComp
Wire Wire Line
	4050 8000 4300 8000
Wire Wire Line
	4300 8000 4300 8400
Wire Wire Line
	4300 8400 4200 8400
Wire Wire Line
	2900 7750 2750 7750
$Comp
L Device:R R?
U 1 1 6008B3E3
P 4550 8400
AR Path="/5FCB84B8/6008B3E3" Ref="R?"  Part="1" 
AR Path="/5FC156F1/6008B3E3" Ref="R?"  Part="1" 
F 0 "R?" V 4450 8400 50  0000 C CNN
F 1 "1K" V 4550 8400 50  0000 C CNN
F 2 "" V 4480 8400 50  0001 C CNN
F 3 "~" H 4550 8400 50  0001 C CNN
	1    4550 8400
	0    1    1    0   
$EndComp
Wire Wire Line
	4400 8400 4300 8400
Connection ~ 4300 8400
Wire Wire Line
	4700 8400 4750 8400
Wire Wire Line
	4750 8400 4750 8100
Wire Wire Line
	4750 8100 4950 8100
Connection ~ 4750 8400
Wire Wire Line
	4750 8400 4800 8400
$Comp
L Device:R R?
U 1 1 6008B3F0
P 5100 8100
AR Path="/5FCB84B8/6008B3F0" Ref="R?"  Part="1" 
AR Path="/5FC156F1/6008B3F0" Ref="R?"  Part="1" 
F 0 "R?" V 5000 8100 50  0000 C CNN
F 1 "1K" V 5100 8100 50  0000 C CNN
F 2 "" V 5030 8100 50  0001 C CNN
F 3 "~" H 5100 8100 50  0001 C CNN
	1    5100 8100
	0    1    1    0   
$EndComp
Wire Wire Line
	5250 8100 5500 8100
Wire Wire Line
	5500 8100 5500 8500
Wire Wire Line
	5500 8500 5400 8500
Wire Wire Line
	5500 8500 5600 8500
Connection ~ 5500 8500
Wire Wire Line
	4800 8600 4700 8600
Wire Wire Line
	4700 8600 4700 8700
$Comp
L power:GND #PWR?
U 1 1 6008B3FD
P 4700 8700
AR Path="/5FCB84B8/6008B3FD" Ref="#PWR?"  Part="1" 
AR Path="/5FC156F1/6008B3FD" Ref="#PWR?"  Part="1" 
F 0 "#PWR?" H 4700 8450 50  0001 C CNN
F 1 "GND" H 4705 8527 50  0000 C CNN
F 2 "" H 4700 8700 50  0001 C CNN
F 3 "" H 4700 8700 50  0001 C CNN
	1    4700 8700
	1    0    0    -1  
$EndComp
$Comp
L Connector_Generic:Conn_01x01 J?
U 1 1 6008B403
P 2550 7750
AR Path="/5FCB84B8/6008B403" Ref="J?"  Part="1" 
AR Path="/5FC156F1/6008B403" Ref="J?"  Part="1" 
F 0 "J?" H 2468 7525 50  0000 C CNN
F 1 "MORPH_CV1" H 2468 7616 50  0000 C CNN
F 2 "" H 2550 7750 50  0001 C CNN
F 3 "~" H 2550 7750 50  0001 C CNN
	1    2550 7750
	-1   0    0    1   
$EndComp
Wire Wire Line
	3300 8300 3300 7750
Wire Wire Line
	3300 8300 3550 8300
Wire Wire Line
	3200 7750 3300 7750
$Comp
L Device:R R?
U 1 1 6008B40C
P 3050 8300
AR Path="/5FCB84B8/6008B40C" Ref="R?"  Part="1" 
AR Path="/5FC156F1/6008B40C" Ref="R?"  Part="1" 
F 0 "R?" V 2950 8300 50  0000 C CNN
F 1 "82K" V 3050 8300 50  0000 C CNN
F 2 "" V 2980 8300 50  0001 C CNN
F 3 "~" H 3050 8300 50  0001 C CNN
	1    3050 8300
	0    1    1    0   
$EndComp
Wire Wire Line
	3200 8300 3300 8300
Connection ~ 3300 8300
$Comp
L Device:R_POT RV?
U 1 1 6008B414
P 2650 8300
AR Path="/5FCB84B8/6008B414" Ref="RV?"  Part="1" 
AR Path="/5FC156F1/6008B414" Ref="RV?"  Part="1" 
F 0 "RV?" H 2581 8254 50  0000 R CNN
F 1 "10k" H 2581 8345 50  0000 R CNN
F 2 "" H 2650 8300 50  0001 C CNN
F 3 "~" H 2650 8300 50  0001 C CNN
	1    2650 8300
	1    0    0    1   
$EndComp
$Comp
L Device:R R?
U 1 1 6008B41A
P 2400 8050
AR Path="/5FCB84B8/6008B41A" Ref="R?"  Part="1" 
AR Path="/5FC156F1/6008B41A" Ref="R?"  Part="1" 
F 0 "R?" V 2300 8050 50  0000 C CNN
F 1 "10K" V 2400 8050 50  0000 C CNN
F 2 "" V 2330 8050 50  0001 C CNN
F 3 "~" H 2400 8050 50  0001 C CNN
	1    2400 8050
	0    1    1    0   
$EndComp
$Comp
L Device:R R?
U 1 1 6008B420
P 2400 8550
AR Path="/5FCB84B8/6008B420" Ref="R?"  Part="1" 
AR Path="/5FC156F1/6008B420" Ref="R?"  Part="1" 
F 0 "R?" V 2300 8550 50  0000 C CNN
F 1 "10K" V 2400 8550 50  0000 C CNN
F 2 "" V 2330 8550 50  0001 C CNN
F 3 "~" H 2400 8550 50  0001 C CNN
	1    2400 8550
	0    1    1    0   
$EndComp
Wire Wire Line
	2250 8050 2150 8050
Wire Wire Line
	2150 8050 2150 7950
Wire Wire Line
	2250 8550 2150 8550
Wire Wire Line
	2150 8550 2150 8650
Wire Wire Line
	2650 8550 2650 8450
Wire Wire Line
	2650 8150 2650 8050
Wire Wire Line
	2650 8050 2550 8050
Wire Wire Line
	2800 8300 2900 8300
Wire Wire Line
	2550 8550 2650 8550
Text Notes 1900 8300 0    50   ~ 0
MORPH 1
Text Label 3250 2650 2    50   ~ 0
MORPH_1
Text Label 11150 2650 2    50   ~ 0
MORPH_2
Text Notes 5600 8650 0    50   ~ 0
+/-0.5V
Text Notes 3300 7700 0    50   ~ 0
+/-5V
Text Label 5600 8500 0    50   ~ 0
MORPH_1
Wire Wire Line
	11600 8300 11550 8300
$Comp
L Device:R R?
U 1 1 601367C5
P 11050 7750
AR Path="/5FCB84B8/601367C5" Ref="R?"  Part="1" 
AR Path="/5FC156F1/601367C5" Ref="R?"  Part="1" 
F 0 "R?" V 10950 7750 50  0000 C CNN
F 1 "100K" V 11050 7750 50  0000 C CNN
F 2 "" V 10980 7750 50  0001 C CNN
F 3 "~" H 11050 7750 50  0001 C CNN
	1    11050 7750
	0    1    1    0   
$EndComp
Wire Wire Line
	11600 8500 11500 8500
Wire Wire Line
	11500 8500 11500 8600
$Comp
L power:GND #PWR?
U 1 1 601367D1
P 11500 8600
AR Path="/5FCB84B8/601367D1" Ref="#PWR?"  Part="1" 
AR Path="/5FC156F1/601367D1" Ref="#PWR?"  Part="1" 
F 0 "#PWR?" H 11500 8350 50  0001 C CNN
F 1 "GND" H 11505 8427 50  0000 C CNN
F 2 "" H 11500 8600 50  0001 C CNN
F 3 "" H 11500 8600 50  0001 C CNN
	1    11500 8600
	1    0    0    -1  
$EndComp
Wire Wire Line
	11550 8300 11550 8000
Wire Wire Line
	11550 8000 11750 8000
Connection ~ 11550 8300
$Comp
L Device:R R?
U 1 1 601367DE
P 11900 8000
AR Path="/5FCB84B8/601367DE" Ref="R?"  Part="1" 
AR Path="/5FC156F1/601367DE" Ref="R?"  Part="1" 
F 0 "R?" V 11800 8000 50  0000 C CNN
F 1 "12K" V 11900 8000 50  0000 C CNN
F 2 "" V 11830 8000 50  0001 C CNN
F 3 "~" H 11900 8000 50  0001 C CNN
	1    11900 8000
	0    1    1    0   
$EndComp
Wire Wire Line
	12050 8000 12300 8000
Wire Wire Line
	12300 8000 12300 8400
Wire Wire Line
	12300 8400 12200 8400
Wire Wire Line
	10900 7750 10750 7750
$Comp
L Device:R R?
U 1 1 601367EC
P 12550 8400
AR Path="/5FCB84B8/601367EC" Ref="R?"  Part="1" 
AR Path="/5FC156F1/601367EC" Ref="R?"  Part="1" 
F 0 "R?" V 12450 8400 50  0000 C CNN
F 1 "1K" V 12550 8400 50  0000 C CNN
F 2 "" V 12480 8400 50  0001 C CNN
F 3 "~" H 12550 8400 50  0001 C CNN
	1    12550 8400
	0    1    1    0   
$EndComp
Wire Wire Line
	12400 8400 12300 8400
Connection ~ 12300 8400
Wire Wire Line
	12700 8400 12750 8400
Wire Wire Line
	12750 8400 12750 8100
Wire Wire Line
	12750 8100 12950 8100
Connection ~ 12750 8400
Wire Wire Line
	12750 8400 12800 8400
$Comp
L Device:R R?
U 1 1 601367FD
P 13100 8100
AR Path="/5FCB84B8/601367FD" Ref="R?"  Part="1" 
AR Path="/5FC156F1/601367FD" Ref="R?"  Part="1" 
F 0 "R?" V 13000 8100 50  0000 C CNN
F 1 "1K" V 13100 8100 50  0000 C CNN
F 2 "" V 13030 8100 50  0001 C CNN
F 3 "~" H 13100 8100 50  0001 C CNN
	1    13100 8100
	0    1    1    0   
$EndComp
Wire Wire Line
	13250 8100 13500 8100
Wire Wire Line
	13500 8100 13500 8500
Wire Wire Line
	13500 8500 13400 8500
Wire Wire Line
	13500 8500 13600 8500
Connection ~ 13500 8500
Wire Wire Line
	12800 8600 12700 8600
Wire Wire Line
	12700 8600 12700 8700
$Comp
L power:GND #PWR?
U 1 1 6013680E
P 12700 8700
AR Path="/5FCB84B8/6013680E" Ref="#PWR?"  Part="1" 
AR Path="/5FC156F1/6013680E" Ref="#PWR?"  Part="1" 
F 0 "#PWR?" H 12700 8450 50  0001 C CNN
F 1 "GND" H 12705 8527 50  0000 C CNN
F 2 "" H 12700 8700 50  0001 C CNN
F 3 "" H 12700 8700 50  0001 C CNN
	1    12700 8700
	1    0    0    -1  
$EndComp
$Comp
L Connector_Generic:Conn_01x01 J?
U 1 1 60136818
P 10550 7750
AR Path="/5FCB84B8/60136818" Ref="J?"  Part="1" 
AR Path="/5FC156F1/60136818" Ref="J?"  Part="1" 
F 0 "J?" H 10468 7525 50  0000 C CNN
F 1 "MORPH_CV2" H 10468 7616 50  0000 C CNN
F 2 "" H 10550 7750 50  0001 C CNN
F 3 "~" H 10550 7750 50  0001 C CNN
	1    10550 7750
	-1   0    0    1   
$EndComp
Wire Wire Line
	11300 8300 11300 7750
Wire Wire Line
	11300 8300 11550 8300
Wire Wire Line
	11200 7750 11300 7750
$Comp
L Device:R R?
U 1 1 60136825
P 11050 8300
AR Path="/5FCB84B8/60136825" Ref="R?"  Part="1" 
AR Path="/5FC156F1/60136825" Ref="R?"  Part="1" 
F 0 "R?" V 10950 8300 50  0000 C CNN
F 1 "82K" V 11050 8300 50  0000 C CNN
F 2 "" V 10980 8300 50  0001 C CNN
F 3 "~" H 11050 8300 50  0001 C CNN
	1    11050 8300
	0    1    1    0   
$EndComp
Wire Wire Line
	11200 8300 11300 8300
Connection ~ 11300 8300
$Comp
L Device:R_POT RV?
U 1 1 60136831
P 10650 8300
AR Path="/5FCB84B8/60136831" Ref="RV?"  Part="1" 
AR Path="/5FC156F1/60136831" Ref="RV?"  Part="1" 
F 0 "RV?" H 10581 8254 50  0000 R CNN
F 1 "10K" H 10581 8345 50  0000 R CNN
F 2 "" H 10650 8300 50  0001 C CNN
F 3 "~" H 10650 8300 50  0001 C CNN
	1    10650 8300
	1    0    0    1   
$EndComp
$Comp
L Device:R R?
U 1 1 6013683B
P 10400 8050
AR Path="/5FCB84B8/6013683B" Ref="R?"  Part="1" 
AR Path="/5FC156F1/6013683B" Ref="R?"  Part="1" 
F 0 "R?" V 10300 8050 50  0000 C CNN
F 1 "10K" V 10400 8050 50  0000 C CNN
F 2 "" V 10330 8050 50  0001 C CNN
F 3 "~" H 10400 8050 50  0001 C CNN
	1    10400 8050
	0    1    1    0   
$EndComp
$Comp
L Device:R R?
U 1 1 60136845
P 10400 8550
AR Path="/5FCB84B8/60136845" Ref="R?"  Part="1" 
AR Path="/5FC156F1/60136845" Ref="R?"  Part="1" 
F 0 "R?" V 10300 8550 50  0000 C CNN
F 1 "10K" V 10400 8550 50  0000 C CNN
F 2 "" V 10330 8550 50  0001 C CNN
F 3 "~" H 10400 8550 50  0001 C CNN
	1    10400 8550
	0    1    1    0   
$EndComp
Wire Wire Line
	10250 8050 10150 8050
Wire Wire Line
	10150 8050 10150 7950
Wire Wire Line
	10250 8550 10150 8550
Wire Wire Line
	10150 8550 10150 8650
Wire Wire Line
	10650 8550 10650 8450
Wire Wire Line
	10650 8150 10650 8050
Wire Wire Line
	10650 8050 10550 8050
Wire Wire Line
	10800 8300 10900 8300
Wire Wire Line
	10550 8550 10650 8550
Text Notes 9900 8300 0    50   ~ 0
MORPH 2
Text Notes 13600 8650 0    50   ~ 0
+/-0.5V
Text Notes 11300 7700 0    50   ~ 0
+/-5V
Text Label 13600 8500 0    50   ~ 0
MORPH_2
$Comp
L Device:C_Small C?
U 1 1 60198F35
P 10150 10050
F 0 "C?" H 10242 10096 50  0000 L CNN
F 1 "100n" H 10242 10005 50  0000 L CNN
F 2 "" H 10150 10050 50  0001 C CNN
F 3 "~" H 10150 10050 50  0001 C CNN
	1    10150 10050
	1    0    0    -1  
$EndComp
$Comp
L Device:C_Small C?
U 1 1 60199A06
P 10150 10450
F 0 "C?" H 10242 10496 50  0000 L CNN
F 1 "100n" H 10242 10405 50  0000 L CNN
F 2 "" H 10150 10450 50  0001 C CNN
F 3 "~" H 10150 10450 50  0001 C CNN
	1    10150 10450
	1    0    0    -1  
$EndComp
Wire Wire Line
	10150 10150 10150 10250
Wire Wire Line
	10150 10250 9900 10250
Wire Wire Line
	9900 10250 9900 10650
Connection ~ 10150 10250
Wire Wire Line
	10150 10250 10150 10350
Wire Wire Line
	10150 10550 10150 10600
Wire Wire Line
	10150 10600 10350 10600
Wire Wire Line
	10600 10600 10600 10550
Wire Wire Line
	10150 9950 10150 9900
Wire Wire Line
	10150 9900 10350 9900
Wire Wire Line
	10600 9900 10600 9950
$Comp
L power:+12V #PWR?
U 1 1 601D6FC7
P 10350 9850
F 0 "#PWR?" H 10350 9700 50  0001 C CNN
F 1 "+12V" H 10365 10023 50  0000 C CNN
F 2 "" H 10350 9850 50  0001 C CNN
F 3 "" H 10350 9850 50  0001 C CNN
	1    10350 9850
	1    0    0    -1  
$EndComp
Wire Wire Line
	10350 9850 10350 9900
Connection ~ 10350 9900
Wire Wire Line
	10350 9900 10600 9900
$Comp
L power:-12V #PWR?
U 1 1 601E7C76
P 10350 10650
F 0 "#PWR?" H 10350 10750 50  0001 C CNN
F 1 "-12V" H 10365 10823 50  0000 C CNN
F 2 "" H 10350 10650 50  0001 C CNN
F 3 "" H 10350 10650 50  0001 C CNN
	1    10350 10650
	-1   0    0    1   
$EndComp
Wire Wire Line
	10350 10650 10350 10600
Connection ~ 10350 10600
Wire Wire Line
	10350 10600 10600 10600
$Comp
L power:GND #PWR?
U 1 1 601F8FE5
P 9900 10650
F 0 "#PWR?" H 9900 10400 50  0001 C CNN
F 1 "GND" H 9905 10477 50  0000 C CNN
F 2 "" H 9900 10650 50  0001 C CNN
F 3 "" H 9900 10650 50  0001 C CNN
	1    9900 10650
	1    0    0    -1  
$EndComp
Text Notes 5850 10050 0    50   ~ 0
LM13700s unused Darlington buffers
Text Notes 3050 7400 0    100  ~ 20
MORPHING 1 VC
Text Notes 11050 7400 0    100  ~ 20
MORPHING 2 VC
Text Notes 11450 9500 0    50   ~ 0
Get one voltage reference per channel\nTest the circuit with -10V
Text Notes 7750 650  0    50   Italic 0
Voltage references are shared between the two morph controllers
$Comp
L Reference_Voltage:LM4040DBZ-10 U?
U 1 1 5FF51E07
P 8100 1650
F 0 "U?" V 8146 1562 50  0000 R CNN
F 1 "LM4040DBZ-10" V 8055 1562 50  0000 R CNN
F 2 "Package_TO_SOT_SMD:SOT-23" H 8100 1450 50  0001 C CIN
F 3 "http://www.ti.com/lit/ds/symlink/lm4040-n.pdf" H 8100 1650 50  0001 C CIN
	1    8100 1650
	0    -1   -1   0   
$EndComp
$Comp
L power:+12V #PWR?
U 1 1 5FF51E0D
P 8100 1050
F 0 "#PWR?" H 8100 900 50  0001 C CNN
F 1 "+12V" H 8115 1223 50  0000 C CNN
F 2 "" H 8100 1050 50  0001 C CNN
F 3 "" H 8100 1050 50  0001 C CNN
	1    8100 1050
	1    0    0    -1  
$EndComp
$Comp
L power:GND #PWR?
U 1 1 5FF51E13
P 7950 1900
AR Path="/5FF51E13" Ref="#PWR?"  Part="1" 
AR Path="/600FF970/5FF51E13" Ref="#PWR?"  Part="1" 
AR Path="/5FCB02DC/5FF51E13" Ref="#PWR?"  Part="1" 
AR Path="/5FC156F1/5FF51E13" Ref="#PWR?"  Part="1" 
F 0 "#PWR?" H 7950 1650 50  0001 C CNN
F 1 "GND" H 7955 1727 50  0000 C CNN
F 2 "" H 7950 1900 50  0001 C CNN
F 3 "" H 7950 1900 50  0001 C CNN
	1    7950 1900
	1    0    0    -1  
$EndComp
$Comp
L Device:R R?
U 1 1 5FF51E19
P 8100 1250
AR Path="/5FF51E19" Ref="R?"  Part="1" 
AR Path="/600FF970/5FF51E19" Ref="R?"  Part="1" 
AR Path="/5FCB02DC/5FF51E19" Ref="R?"  Part="1" 
AR Path="/5FC156F1/5FF51E19" Ref="R?"  Part="1" 
F 0 "R?" V 8000 1250 50  0000 C CNN
F 1 "820R" V 8100 1250 50  0000 C CNN
F 2 "" V 8030 1250 50  0001 C CNN
F 3 "~" H 8100 1250 50  0001 C CNN
	1    8100 1250
	-1   0    0    1   
$EndComp
Wire Wire Line
	8100 1500 8100 1450
Wire Wire Line
	8100 1800 8100 1850
$Comp
L Device:C_Small C?
U 1 1 5FF51E21
P 7800 1650
AR Path="/5FF51E21" Ref="C?"  Part="1" 
AR Path="/600FF970/5FF51E21" Ref="C?"  Part="1" 
AR Path="/5FCB02DC/5FF51E21" Ref="C?"  Part="1" 
AR Path="/5FC156F1/5FF51E21" Ref="C?"  Part="1" 
F 0 "C?" H 7600 1700 50  0000 C CNN
F 1 "100n" H 7600 1600 50  0000 C CNN
F 2 "" H 7800 1650 50  0001 C CNN
F 3 "~" H 7800 1650 50  0001 C CNN
	1    7800 1650
	1    0    0    -1  
$EndComp
Wire Wire Line
	8100 1450 7800 1450
Wire Wire Line
	7800 1450 7800 1550
Connection ~ 8100 1450
Wire Wire Line
	8100 1450 8100 1400
Wire Wire Line
	7800 1750 7800 1850
Wire Wire Line
	7800 1850 7950 1850
Wire Wire Line
	7950 1850 7950 1900
Connection ~ 7950 1850
Wire Wire Line
	7950 1850 8100 1850
Wire Wire Line
	8100 1450 8200 1450
Wire Wire Line
	8100 1050 8100 1100
$Comp
L Reference_Voltage:LM4040DBZ-10 U?
U 1 1 5FF51E33
P 9750 1250
F 0 "U?" V 9704 1329 50  0000 L CNN
F 1 "LM4040DBZ-10" V 9795 1329 50  0000 L CNN
F 2 "Package_TO_SOT_SMD:SOT-23" H 9750 1050 50  0001 C CIN
F 3 "http://www.ti.com/lit/ds/symlink/lm4040-n.pdf" H 9750 1250 50  0001 C CIN
	1    9750 1250
	0    -1   -1   0   
$EndComp
$Comp
L Device:R R?
U 1 1 5FF51E39
P 9750 1650
AR Path="/5FF51E39" Ref="R?"  Part="1" 
AR Path="/600FF970/5FF51E39" Ref="R?"  Part="1" 
AR Path="/5FCB02DC/5FF51E39" Ref="R?"  Part="1" 
AR Path="/5FC156F1/5FF51E39" Ref="R?"  Part="1" 
F 0 "R?" V 9650 1650 50  0000 C CNN
F 1 "820R" V 9750 1650 50  0000 C CNN
F 2 "" V 9680 1650 50  0001 C CNN
F 3 "~" H 9750 1650 50  0001 C CNN
	1    9750 1650
	1    0    0    -1  
$EndComp
Wire Wire Line
	9750 1400 9750 1450
Wire Wire Line
	9750 1100 9750 1050
$Comp
L Device:C_Small C?
U 1 1 5FF51E41
P 10050 1250
AR Path="/5FF51E41" Ref="C?"  Part="1" 
AR Path="/600FF970/5FF51E41" Ref="C?"  Part="1" 
AR Path="/5FCB02DC/5FF51E41" Ref="C?"  Part="1" 
AR Path="/5FC156F1/5FF51E41" Ref="C?"  Part="1" 
F 0 "C?" H 9850 1300 50  0000 C CNN
F 1 "100n" H 9850 1200 50  0000 C CNN
F 2 "" H 10050 1250 50  0001 C CNN
F 3 "~" H 10050 1250 50  0001 C CNN
	1    10050 1250
	-1   0    0    1   
$EndComp
Wire Wire Line
	9750 1450 10050 1450
Wire Wire Line
	10050 1450 10050 1350
Connection ~ 9750 1450
Wire Wire Line
	9750 1450 9750 1500
Wire Wire Line
	10050 1150 10050 1050
Wire Wire Line
	10050 1050 9900 1050
Wire Wire Line
	9900 1050 9900 1000
Connection ~ 9900 1050
Wire Wire Line
	9900 1050 9750 1050
Wire Wire Line
	9750 1450 9650 1450
Wire Wire Line
	9750 1850 9750 1800
$Comp
L power:GND #PWR?
U 1 1 5FF51E52
P 9900 1000
AR Path="/5FF51E52" Ref="#PWR?"  Part="1" 
AR Path="/600FF970/5FF51E52" Ref="#PWR?"  Part="1" 
AR Path="/5FCB02DC/5FF51E52" Ref="#PWR?"  Part="1" 
AR Path="/5FC156F1/5FF51E52" Ref="#PWR?"  Part="1" 
F 0 "#PWR?" H 9900 750 50  0001 C CNN
F 1 "GND" H 9905 827 50  0000 C CNN
F 2 "" H 9900 1000 50  0001 C CNN
F 3 "" H 9900 1000 50  0001 C CNN
	1    9900 1000
	-1   0    0    1   
$EndComp
$Comp
L power:-12V #PWR?
U 1 1 5FF51E58
P 9750 1850
F 0 "#PWR?" H 9750 1950 50  0001 C CNN
F 1 "-12V" H 9765 2023 50  0000 C CNN
F 2 "" H 9750 1850 50  0001 C CNN
F 3 "" H 9750 1850 50  0001 C CNN
	1    9750 1850
	-1   0    0    1   
$EndComp
Text Notes 550  850  0    200  Italic 40
MORPHING STAGE
Text Notes 6950 7500 0    50   Italic 0
Voltage references are shared between the two CV controls
$Comp
L Reference_Voltage:LM4040DBZ-10 U?
U 1 1 5FF7BCB0
P 7300 8500
F 0 "U?" V 7346 8412 50  0000 R CNN
F 1 "LM4040DBZ-10" V 7255 8412 50  0000 R CNN
F 2 "Package_TO_SOT_SMD:SOT-23" H 7300 8300 50  0001 C CIN
F 3 "http://www.ti.com/lit/ds/symlink/lm4040-n.pdf" H 7300 8500 50  0001 C CIN
	1    7300 8500
	0    -1   -1   0   
$EndComp
$Comp
L power:+12V #PWR?
U 1 1 5FF7BCB6
P 7300 7900
F 0 "#PWR?" H 7300 7750 50  0001 C CNN
F 1 "+12V" H 7315 8073 50  0000 C CNN
F 2 "" H 7300 7900 50  0001 C CNN
F 3 "" H 7300 7900 50  0001 C CNN
	1    7300 7900
	1    0    0    -1  
$EndComp
$Comp
L power:GND #PWR?
U 1 1 5FF7BCBC
P 7150 8750
AR Path="/5FF7BCBC" Ref="#PWR?"  Part="1" 
AR Path="/600FF970/5FF7BCBC" Ref="#PWR?"  Part="1" 
AR Path="/5FCB02DC/5FF7BCBC" Ref="#PWR?"  Part="1" 
AR Path="/5FC156F1/5FF7BCBC" Ref="#PWR?"  Part="1" 
F 0 "#PWR?" H 7150 8500 50  0001 C CNN
F 1 "GND" H 7155 8577 50  0000 C CNN
F 2 "" H 7150 8750 50  0001 C CNN
F 3 "" H 7150 8750 50  0001 C CNN
	1    7150 8750
	1    0    0    -1  
$EndComp
$Comp
L Device:R R?
U 1 1 5FF7BCC2
P 7300 8100
AR Path="/5FF7BCC2" Ref="R?"  Part="1" 
AR Path="/600FF970/5FF7BCC2" Ref="R?"  Part="1" 
AR Path="/5FCB02DC/5FF7BCC2" Ref="R?"  Part="1" 
AR Path="/5FC156F1/5FF7BCC2" Ref="R?"  Part="1" 
F 0 "R?" V 7200 8100 50  0000 C CNN
F 1 "820R" V 7300 8100 50  0000 C CNN
F 2 "" V 7230 8100 50  0001 C CNN
F 3 "~" H 7300 8100 50  0001 C CNN
	1    7300 8100
	-1   0    0    1   
$EndComp
Wire Wire Line
	7300 8350 7300 8300
Wire Wire Line
	7300 8650 7300 8700
$Comp
L Device:C_Small C?
U 1 1 5FF7BCCA
P 7000 8500
AR Path="/5FF7BCCA" Ref="C?"  Part="1" 
AR Path="/600FF970/5FF7BCCA" Ref="C?"  Part="1" 
AR Path="/5FCB02DC/5FF7BCCA" Ref="C?"  Part="1" 
AR Path="/5FC156F1/5FF7BCCA" Ref="C?"  Part="1" 
F 0 "C?" H 6800 8550 50  0000 C CNN
F 1 "100n" H 6800 8450 50  0000 C CNN
F 2 "" H 7000 8500 50  0001 C CNN
F 3 "~" H 7000 8500 50  0001 C CNN
	1    7000 8500
	1    0    0    -1  
$EndComp
Wire Wire Line
	7300 8300 7000 8300
Wire Wire Line
	7000 8300 7000 8400
Connection ~ 7300 8300
Wire Wire Line
	7300 8300 7300 8250
Wire Wire Line
	7000 8600 7000 8700
Wire Wire Line
	7000 8700 7150 8700
Wire Wire Line
	7150 8700 7150 8750
Connection ~ 7150 8700
Wire Wire Line
	7150 8700 7300 8700
Wire Wire Line
	7300 8300 7400 8300
Wire Wire Line
	7300 7900 7300 7950
$Comp
L Reference_Voltage:LM4040DBZ-10 U?
U 1 1 5FF7BCDC
P 8600 8100
F 0 "U?" V 8554 8179 50  0000 L CNN
F 1 "LM4040DBZ-10" V 8645 8179 50  0000 L CNN
F 2 "Package_TO_SOT_SMD:SOT-23" H 8600 7900 50  0001 C CIN
F 3 "http://www.ti.com/lit/ds/symlink/lm4040-n.pdf" H 8600 8100 50  0001 C CIN
	1    8600 8100
	0    -1   -1   0   
$EndComp
$Comp
L Device:R R?
U 1 1 5FF7BCE2
P 8600 8500
AR Path="/5FF7BCE2" Ref="R?"  Part="1" 
AR Path="/600FF970/5FF7BCE2" Ref="R?"  Part="1" 
AR Path="/5FCB02DC/5FF7BCE2" Ref="R?"  Part="1" 
AR Path="/5FC156F1/5FF7BCE2" Ref="R?"  Part="1" 
F 0 "R?" V 8500 8500 50  0000 C CNN
F 1 "820R" V 8600 8500 50  0000 C CNN
F 2 "" V 8530 8500 50  0001 C CNN
F 3 "~" H 8600 8500 50  0001 C CNN
	1    8600 8500
	1    0    0    -1  
$EndComp
Wire Wire Line
	8600 8250 8600 8300
Wire Wire Line
	8600 7950 8600 7900
$Comp
L Device:C_Small C?
U 1 1 5FF7BCEA
P 8900 8100
AR Path="/5FF7BCEA" Ref="C?"  Part="1" 
AR Path="/600FF970/5FF7BCEA" Ref="C?"  Part="1" 
AR Path="/5FCB02DC/5FF7BCEA" Ref="C?"  Part="1" 
AR Path="/5FC156F1/5FF7BCEA" Ref="C?"  Part="1" 
F 0 "C?" H 8700 8150 50  0000 C CNN
F 1 "100n" H 8700 8050 50  0000 C CNN
F 2 "" H 8900 8100 50  0001 C CNN
F 3 "~" H 8900 8100 50  0001 C CNN
	1    8900 8100
	-1   0    0    1   
$EndComp
Wire Wire Line
	8600 8300 8900 8300
Wire Wire Line
	8900 8300 8900 8200
Connection ~ 8600 8300
Wire Wire Line
	8600 8300 8600 8350
Wire Wire Line
	8900 8000 8900 7900
Wire Wire Line
	8900 7900 8750 7900
Wire Wire Line
	8750 7900 8750 7850
Connection ~ 8750 7900
Wire Wire Line
	8750 7900 8600 7900
Wire Wire Line
	8600 8300 8500 8300
Wire Wire Line
	8600 8700 8600 8650
$Comp
L power:GND #PWR?
U 1 1 5FF7BCFB
P 8750 7850
AR Path="/5FF7BCFB" Ref="#PWR?"  Part="1" 
AR Path="/600FF970/5FF7BCFB" Ref="#PWR?"  Part="1" 
AR Path="/5FCB02DC/5FF7BCFB" Ref="#PWR?"  Part="1" 
AR Path="/5FC156F1/5FF7BCFB" Ref="#PWR?"  Part="1" 
F 0 "#PWR?" H 8750 7600 50  0001 C CNN
F 1 "GND" H 8755 7677 50  0000 C CNN
F 2 "" H 8750 7850 50  0001 C CNN
F 3 "" H 8750 7850 50  0001 C CNN
	1    8750 7850
	-1   0    0    1   
$EndComp
$Comp
L power:-12V #PWR?
U 1 1 5FF7BD01
P 8600 8700
F 0 "#PWR?" H 8600 8800 50  0001 C CNN
F 1 "-12V" H 8615 8873 50  0000 C CNN
F 2 "" H 8600 8700 50  0001 C CNN
F 3 "" H 8600 8700 50  0001 C CNN
	1    8600 8700
	-1   0    0    1   
$EndComp
Text Label 8200 1450 0    50   ~ 0
VREF_POS_MORPH
Text Label 9650 1450 2    50   ~ 0
VREF_NEG_MORPH
Text Label 12400 2150 2    50   ~ 0
VREF_NEG_MORPH
Text Label 4500 2150 2    50   ~ 0
VREF_NEG_MORPH
Text Label 6750 2150 2    50   ~ 0
VREF_POS_MORPH
Text Label 14650 2150 2    50   ~ 0
VREF_POS_MORPH
NoConn ~ 8250 10650
NoConn ~ 7850 10550
NoConn ~ 7650 10650
NoConn ~ 7250 10550
NoConn ~ 7050 10650
NoConn ~ 6650 10550
NoConn ~ 6450 10650
NoConn ~ 6050 10550
NoConn ~ 5800 10650
NoConn ~ 5400 10550
NoConn ~ 5150 10650
NoConn ~ 4750 10550
$Comp
L Device:C_Small C?
U 1 1 6014A111
P 1000 10250
F 0 "C?" H 1092 10296 50  0000 L CNN
F 1 "100n" H 1092 10205 50  0000 L CNN
F 2 "" H 1000 10250 50  0001 C CNN
F 3 "~" H 1000 10250 50  0001 C CNN
	1    1000 10250
	1    0    0    -1  
$EndComp
$Comp
L Device:C_Small C?
U 1 1 6014A117
P 1000 10650
F 0 "C?" H 1092 10696 50  0000 L CNN
F 1 "100n" H 1092 10605 50  0000 L CNN
F 2 "" H 1000 10650 50  0001 C CNN
F 3 "~" H 1000 10650 50  0001 C CNN
	1    1000 10650
	1    0    0    -1  
$EndComp
Wire Wire Line
	1000 10350 1000 10450
Wire Wire Line
	1000 10450 750  10450
Wire Wire Line
	750  10450 750  10850
Connection ~ 1000 10450
Wire Wire Line
	1000 10450 1000 10550
Wire Wire Line
	1000 10750 1000 10800
Wire Wire Line
	1000 10800 1200 10800
Wire Wire Line
	1450 10800 1450 10750
Wire Wire Line
	1000 10150 1000 10100
Wire Wire Line
	1000 10100 1200 10100
Wire Wire Line
	1450 10100 1450 10150
$Comp
L power:+12V #PWR?
U 1 1 6014A128
P 1200 10050
F 0 "#PWR?" H 1200 9900 50  0001 C CNN
F 1 "+12V" H 1215 10223 50  0000 C CNN
F 2 "" H 1200 10050 50  0001 C CNN
F 3 "" H 1200 10050 50  0001 C CNN
	1    1200 10050
	1    0    0    -1  
$EndComp
Wire Wire Line
	1200 10050 1200 10100
Connection ~ 1200 10100
Wire Wire Line
	1200 10100 1450 10100
$Comp
L power:-12V #PWR?
U 1 1 6014A131
P 1200 10850
F 0 "#PWR?" H 1200 10950 50  0001 C CNN
F 1 "-12V" H 1215 11023 50  0000 C CNN
F 2 "" H 1200 10850 50  0001 C CNN
F 3 "" H 1200 10850 50  0001 C CNN
	1    1200 10850
	-1   0    0    1   
$EndComp
Wire Wire Line
	1200 10850 1200 10800
Connection ~ 1200 10800
Wire Wire Line
	1200 10800 1450 10800
$Comp
L power:GND #PWR?
U 1 1 6014A13A
P 750 10850
F 0 "#PWR?" H 750 10600 50  0001 C CNN
F 1 "GND" H 755 10677 50  0000 C CNN
F 2 "" H 750 10850 50  0001 C CNN
F 3 "" H 750 10850 50  0001 C CNN
	1    750  10850
	1    0    0    -1  
$EndComp
$Comp
L Amplifier_Operational:LM13700 U?
U 5 1 6016798F
P 2800 10450
F 0 "U?" H 2758 10496 50  0000 L CNN
F 1 "LM13700" H 2758 10405 50  0000 L CNN
F 2 "" H 2500 10475 50  0001 C CNN
F 3 "http://www.ti.com/lit/ds/symlink/lm13700.pdf" H 2500 10475 50  0001 C CNN
	5    2800 10450
	1    0    0    -1  
$EndComp
$Comp
L Device:C_Small C?
U 1 1 60167995
P 2250 10250
F 0 "C?" H 2342 10296 50  0000 L CNN
F 1 "100n" H 2342 10205 50  0000 L CNN
F 2 "" H 2250 10250 50  0001 C CNN
F 3 "~" H 2250 10250 50  0001 C CNN
	1    2250 10250
	1    0    0    -1  
$EndComp
$Comp
L Device:C_Small C?
U 1 1 6016799B
P 2250 10650
F 0 "C?" H 2342 10696 50  0000 L CNN
F 1 "100n" H 2342 10605 50  0000 L CNN
F 2 "" H 2250 10650 50  0001 C CNN
F 3 "~" H 2250 10650 50  0001 C CNN
	1    2250 10650
	1    0    0    -1  
$EndComp
Wire Wire Line
	2250 10350 2250 10450
Wire Wire Line
	2250 10450 2000 10450
Wire Wire Line
	2000 10450 2000 10850
Connection ~ 2250 10450
Wire Wire Line
	2250 10450 2250 10550
Wire Wire Line
	2250 10750 2250 10800
Wire Wire Line
	2250 10800 2450 10800
Wire Wire Line
	2700 10800 2700 10750
Wire Wire Line
	2250 10150 2250 10100
Wire Wire Line
	2250 10100 2450 10100
Wire Wire Line
	2700 10100 2700 10150
$Comp
L power:+12V #PWR?
U 1 1 601679AC
P 2450 10050
F 0 "#PWR?" H 2450 9900 50  0001 C CNN
F 1 "+12V" H 2465 10223 50  0000 C CNN
F 2 "" H 2450 10050 50  0001 C CNN
F 3 "" H 2450 10050 50  0001 C CNN
	1    2450 10050
	1    0    0    -1  
$EndComp
Wire Wire Line
	2450 10050 2450 10100
Connection ~ 2450 10100
Wire Wire Line
	2450 10100 2700 10100
$Comp
L power:-12V #PWR?
U 1 1 601679B5
P 2450 10850
F 0 "#PWR?" H 2450 10950 50  0001 C CNN
F 1 "-12V" H 2465 11023 50  0000 C CNN
F 2 "" H 2450 10850 50  0001 C CNN
F 3 "" H 2450 10850 50  0001 C CNN
	1    2450 10850
	-1   0    0    1   
$EndComp
Wire Wire Line
	2450 10850 2450 10800
Connection ~ 2450 10800
Wire Wire Line
	2450 10800 2700 10800
$Comp
L power:GND #PWR?
U 1 1 601679BE
P 2000 10850
F 0 "#PWR?" H 2000 10600 50  0001 C CNN
F 1 "GND" H 2005 10677 50  0000 C CNN
F 2 "" H 2000 10850 50  0001 C CNN
F 3 "" H 2000 10850 50  0001 C CNN
	1    2000 10850
	1    0    0    -1  
$EndComp
$Comp
L Amplifier_Operational:LM13700 U?
U 5 1 60183F82
P 4050 10450
F 0 "U?" H 4008 10496 50  0000 L CNN
F 1 "LM13700" H 4008 10405 50  0000 L CNN
F 2 "" H 3750 10475 50  0001 C CNN
F 3 "http://www.ti.com/lit/ds/symlink/lm13700.pdf" H 3750 10475 50  0001 C CNN
	5    4050 10450
	1    0    0    -1  
$EndComp
$Comp
L Device:C_Small C?
U 1 1 60184E74
P 3500 10250
F 0 "C?" H 3592 10296 50  0000 L CNN
F 1 "100n" H 3592 10205 50  0000 L CNN
F 2 "" H 3500 10250 50  0001 C CNN
F 3 "~" H 3500 10250 50  0001 C CNN
	1    3500 10250
	1    0    0    -1  
$EndComp
$Comp
L Device:C_Small C?
U 1 1 60184E7E
P 3500 10650
F 0 "C?" H 3592 10696 50  0000 L CNN
F 1 "100n" H 3592 10605 50  0000 L CNN
F 2 "" H 3500 10650 50  0001 C CNN
F 3 "~" H 3500 10650 50  0001 C CNN
	1    3500 10650
	1    0    0    -1  
$EndComp
Wire Wire Line
	3500 10350 3500 10450
Wire Wire Line
	3500 10450 3250 10450
Wire Wire Line
	3250 10450 3250 10850
Connection ~ 3500 10450
Wire Wire Line
	3500 10450 3500 10550
Wire Wire Line
	3500 10750 3500 10800
Wire Wire Line
	3500 10800 3700 10800
Wire Wire Line
	3950 10800 3950 10750
Wire Wire Line
	3500 10150 3500 10100
Wire Wire Line
	3500 10100 3700 10100
Wire Wire Line
	3950 10100 3950 10150
$Comp
L power:+12V #PWR?
U 1 1 60184E93
P 3700 10050
F 0 "#PWR?" H 3700 9900 50  0001 C CNN
F 1 "+12V" H 3715 10223 50  0000 C CNN
F 2 "" H 3700 10050 50  0001 C CNN
F 3 "" H 3700 10050 50  0001 C CNN
	1    3700 10050
	1    0    0    -1  
$EndComp
Wire Wire Line
	3700 10050 3700 10100
Connection ~ 3700 10100
Wire Wire Line
	3700 10100 3950 10100
$Comp
L power:-12V #PWR?
U 1 1 60184EA0
P 3700 10850
F 0 "#PWR?" H 3700 10950 50  0001 C CNN
F 1 "-12V" H 3715 11023 50  0000 C CNN
F 2 "" H 3700 10850 50  0001 C CNN
F 3 "" H 3700 10850 50  0001 C CNN
	1    3700 10850
	-1   0    0    1   
$EndComp
Wire Wire Line
	3700 10850 3700 10800
Connection ~ 3700 10800
Wire Wire Line
	3700 10800 3950 10800
$Comp
L power:GND #PWR?
U 1 1 60184EAD
P 3250 10850
F 0 "#PWR?" H 3250 10600 50  0001 C CNN
F 1 "GND" H 3255 10677 50  0000 C CNN
F 2 "" H 3250 10850 50  0001 C CNN
F 3 "" H 3250 10850 50  0001 C CNN
	1    3250 10850
	1    0    0    -1  
$EndComp
Text Label 7400 8300 0    50   ~ 0
VREF_+10
Text Label 8500 8300 2    50   ~ 0
VREF_-10
Text Label 10150 8650 2    50   ~ 0
VREF_-10
Text Label 10150 7950 2    50   ~ 0
VREF_+10
Text Label 2150 8650 2    50   ~ 0
VREF_-10
Text Label 2150 7950 2    50   ~ 0
VREF_+10
$EndSCHEMATC
