(module logo (layer F.Cu) (tedit 5EFDE972)
  (fp_text reference REF** (at 0.4572 2.9972) (layer F.SilkS)
    (effects (font (size 1 1) (thickness 0.15)))
  )
  (fp_text value logo (at 0.1524 -2.7432) (layer F.Fab)
    (effects (font (size 1 1) (thickness 0.15)))
  )
  (fp_curve (pts (xy 0.4064 0.254) (xy 0.64891 0.518926) (xy 0.656781 0.52726) (xy 0.67933 0.54336)) (layer F.SilkS) (width 0.175))
  (fp_curve (pts (xy 0.67933 0.54336) (xy 0.709306 0.564762) (xy 0.729602 0.564762) (xy 0.73975 0.543332)) (layer F.SilkS) (width 0.175))
  (fp_curve (pts (xy 0.73975 0.543332) (xy 0.752222 0.517112) (xy 0.751797 0.537663) (xy 0.75364 -0.274038)) (layer F.SilkS) (width 0.175))
  (fp_curve (pts (xy 0.75364 -0.274038) (xy 0.755341 -1.002641) (xy 0.755766 -1.055989) (xy 0.760726 -1.074188)) (layer F.SilkS) (width 0.175))
  (fp_curve (pts (xy -1.894089 0.412585) (xy -1.961185 0.690309) (xy -2.118102 0.933634) (xy -2.349186 1.118312)) (layer F.SilkS) (width 0.175))
  (fp_curve (pts (xy -2.349186 1.118312) (xy -2.608117 1.325227) (xy -2.937661 1.431398) (xy -3.269751 1.414872)) (layer F.SilkS) (width 0.175))
  (fp_curve (pts (xy -0.802201 1.346855) (xy -0.835338 1.353942) (xy -0.926387 1.351107) (xy -0.953643 1.342603)) (layer F.SilkS) (width 0.175))
  (fp_curve (pts (xy -0.953643 1.342603) (xy -1.002272 1.326871) (xy -1.029087 1.293847) (xy -1.038328 1.238571)) (layer F.SilkS) (width 0.175))
  (fp_curve (pts (xy -2.48677 0.080505) (xy -2.48677 -0.308224) (xy -2.805412 -0.626866) (xy -3.194142 -0.626866)) (layer F.SilkS) (width 0.175))
  (fp_curve (pts (xy -3.309305 1.063461) (xy -3.262972 1.067713) (xy -3.161611 1.069131) (xy -3.116068 1.064879)) (layer F.SilkS) (width 0.175))
  (fp_line (start -3.269751 1.414872) (end -3.269756 1.414929) (layer F.SilkS) (width 0.175))
  (fp_curve (pts (xy 10.209824 1.407318) (xy 9.929274 1.375428) (xy 9.721676 1.23568) (xy 9.602573 0.998321)) (layer F.SilkS) (width 0.175))
  (fp_curve (pts (xy -0.654133 -0.362465) (xy -0.66961 -0.362465) (xy -0.67681 -0.355378) (xy -0.685059 -0.330858)) (layer F.SilkS) (width 0.175))
  (fp_curve (pts (xy -0.685059 -0.330858) (xy -0.69002 -0.316402) (xy -0.690445 -0.266087) (xy -0.692004 0.45774)) (layer F.SilkS) (width 0.175))
  (fp_curve (pts (xy -3.954107 -1.005462) (xy -3.89801 -1.042029) (xy -3.87108 -1.057336) (xy -3.807186 -1.0888)) (layer F.SilkS) (width 0.175))
  (fp_curve (pts (xy -3.807186 -1.0888) (xy -3.486316 -1.246633) (xy -3.110634 -1.272358) (xy -2.770434 -1.159808)) (layer F.SilkS) (width 0.175))
  (fp_curve (pts (xy -3.194142 0.788175) (xy -2.805412 0.788175) (xy -2.48677 0.46922) (xy -2.48677 0.080505)) (layer F.SilkS) (width 0.175))
  (fp_curve (pts (xy 9.602573 0.998321) (xy 9.540636 0.874872) (xy 9.544108 0.805806) (xy 9.614904 0.752175)) (layer F.SilkS) (width 0.175))
  (fp_curve (pts (xy 9.614904 0.752175) (xy 9.639919 0.733183) (xy 9.708716 0.698033) (xy 9.741116 0.687686)) (layer F.SilkS) (width 0.175))
  (fp_curve (pts (xy 9.741116 0.687686) (xy 9.773006 0.677765) (xy 9.809516 0.677765) (xy 9.830904 0.687715)) (layer F.SilkS) (width 0.175))
  (fp_curve (pts (xy 9.830904 0.687715) (xy 9.857039 0.700471) (xy 9.875804 0.722723) (xy 9.896767 0.766234)) (layer F.SilkS) (width 0.175))
  (fp_curve (pts (xy -3.901811 0.080505) (xy -3.901811 0.46922) (xy -3.582871 0.788175) (xy -3.194142 0.788175)) (layer F.SilkS) (width 0.175))
  (fp_curve (pts (xy -3.194142 -0.626866) (xy -3.582871 -0.626866) (xy -3.901811 -0.308224) (xy -3.901811 0.080505)) (layer F.SilkS) (width 0.175))
  (fp_curve (pts (xy -3.909796 -0.576721) (xy -4.061576 -0.410753) (xy -4.147884 -0.216594) (xy -4.167883 0.003871)) (layer F.SilkS) (width 0.175))
  (fp_curve (pts (xy -4.167883 0.003871) (xy -4.173127 0.061697) (xy -4.169868 0.18516) (xy -4.161647 0.238934)) (layer F.SilkS) (width 0.175))
  (fp_curve (pts (xy -0.969102 -1.193101) (xy -0.931444 -1.193101) (xy -0.896464 -1.168014) (xy -0.824137 -1.089495)) (layer F.SilkS) (width 0.175))
  (fp_curve (pts (xy -0.824137 -1.089495) (xy -0.730721 -0.987873) (xy -0.273831 -0.489088) (xy 0.4064 0.254)) (layer F.SilkS) (width 0.175))
  (fp_line (start -3.194142 -0.277043) (end -3.194142 -0.277043) (layer F.SilkS) (width 0.175))
  (fp_curve (pts (xy -3.116061 1.064907) (xy -2.926143 1.04719) (xy -2.752939 0.976891) (xy -2.601712 0.856234)) (layer F.SilkS) (width 0.175))
  (fp_curve (pts (xy 0.760726 -1.074188) (xy 0.771781 -1.115006) (xy 0.792361 -1.142361) (xy 0.822607 -1.156534)) (layer F.SilkS) (width 0.175))
  (fp_curve (pts (xy 0.822607 -1.156534) (xy 0.855092 -1.171841) (xy 0.918233 -1.178361) (xy 0.97211 -1.172125)) (layer F.SilkS) (width 0.175))
  (fp_curve (pts (xy 9.896767 0.766234) (xy 9.906971 0.787494) (xy 9.922704 0.819951) (xy 9.931718 0.83866)) (layer F.SilkS) (width 0.175))
  (fp_curve (pts (xy 9.931718 0.83866) (xy 9.995809 0.970754) (xy 10.094293 1.052548) (xy 10.223061 1.080682)) (layer F.SilkS) (width 0.175))
  (fp_curve (pts (xy 1.014302 1.36905) (xy 0.981066 1.360546) (xy 0.945463 1.332625) (xy 0.880791 1.262751)) (layer F.SilkS) (width 0.175))
  (fp_curve (pts (xy 0.880791 1.262751) (xy 0.858326 1.238515) (xy 0.777751 1.151491) (xy 0.701726 1.069442)) (layer F.SilkS) (width 0.175))
  (fp_curve (pts (xy 10.445689 0.231068) (xy 10.42226 0.219729) (xy 10.340084 0.183304) (xy 10.263079 0.150422)) (layer F.SilkS) (width 0.175))
  (fp_curve (pts (xy 10.263079 0.150422) (xy 10.106879 0.083524) (xy 10.059443 0.061981) (xy 10.01047 0.035477)) (layer F.SilkS) (width 0.175))
  (fp_curve (pts (xy -2.445037 -0.517633) (xy -2.476969 -0.55831) (xy -2.561796 -0.643208) (xy -2.602803 -0.675593)) (layer F.SilkS) (width 0.175))
  (fp_curve (pts (xy -2.602803 -0.675593) (xy -2.736854 -0.78161) (xy -2.888433 -0.847132) (xy -3.062761 -0.874614)) (layer F.SilkS) (width 0.175))
  (fp_curve (pts (xy 4.448575 0.855483) (xy 4.414998 1.037099) (xy 4.384073 1.200091) (xy 4.379863 1.217666)) (layer F.SilkS) (width 0.175))
  (fp_curve (pts (xy 4.379863 1.217666) (xy 4.362019 1.292075) (xy 4.332184 1.327934) (xy 4.274258 1.344516)) (layer F.SilkS) (width 0.175))
  (fp_curve (pts (xy 4.274258 1.344516) (xy 4.249569 1.351603) (xy 4.155387 1.354438) (xy 4.123869 1.347351)) (layer F.SilkS) (width 0.175))
  (fp_curve (pts (xy 4.123869 1.347351) (xy 4.04929 1.333178) (xy 4.019143 1.28839) (xy 4.028483 1.205264)) (layer F.SilkS) (width 0.175))
  (fp_curve (pts (xy 1.103666 0.110595) (xy 1.103626 0.854973) (xy 1.102542 1.262751) (xy 1.100548 1.276612)) (layer F.SilkS) (width 0.175))
  (fp_curve (pts (xy 1.100548 1.276612) (xy 1.090485 1.347195) (xy 1.059743 1.380219) (xy 1.01429 1.369164)) (layer F.SilkS) (width 0.175))
  (fp_line (start 10.20976 1.407474) (end 10.209824 1.407318) (layer F.SilkS) (width 0.175))
  (fp_curve (pts (xy 5.374469 1.364798) (xy 5.336924 1.348499) (xy 5.318868 1.319727) (xy 5.258773 1.18066)) (layer F.SilkS) (width 0.175))
  (fp_curve (pts (xy 5.258773 1.18066) (xy 5.240334 1.137998) (xy 5.14346 0.914033) (xy 5.043492 0.683038)) (layer F.SilkS) (width 0.175))
  (fp_curve (pts (xy -0.692004 0.45774) (xy -0.693563 1.161852) (xy -0.69413 1.232406) (xy -0.698665 1.24906)) (layer F.SilkS) (width 0.175))
  (fp_curve (pts (xy -0.698665 1.24906) (xy -0.714795 1.308162) (xy -0.742404 1.334099) (xy -0.802201 1.346855)) (layer F.SilkS) (width 0.175))
  (fp_curve (pts (xy 10.223061 1.080682) (xy 10.283283 1.093438) (xy 10.366249 1.093438) (xy 10.433987 1.080653)) (layer F.SilkS) (width 0.175))
  (fp_curve (pts (xy 10.433987 1.080653) (xy 10.610651 1.046212) (xy 10.733836 0.925783) (xy 10.765635 0.756157)) (layer F.SilkS) (width 0.175))
  (fp_line (start -3.194142 -0.626866) (end -3.194142 -0.626866) (layer F.SilkS) (width 0.175))
  (fp_curve (pts (xy -3.269756 1.414929) (xy -3.610722 1.397921) (xy -3.924256 1.259094) (xy -4.166262 1.017852)) (layer F.SilkS) (width 0.175))
  (fp_curve (pts (xy -4.166262 1.017852) (xy -4.23547 0.94897) (xy -4.284722 0.889159) (xy -4.337107 0.810838)) (layer F.SilkS) (width 0.175))
  (fp_curve (pts (xy 4.326789 -0.336258) (xy 4.475359 -1.099983) (xy 4.471309 -1.080679) (xy 4.491715 -1.122192)) (layer F.SilkS) (width 0.175))
  (fp_curve (pts (xy 4.491715 -1.122192) (xy 4.503337 -1.14572) (xy 4.525618 -1.167405) (xy 4.541293 -1.170381)) (layer F.SilkS) (width 0.175))
  (fp_curve (pts (xy 0.701726 1.069442) (xy 0.240526 0.571622) (xy -0.434404 -0.157279) (xy -0.484583 -0.211732)) (layer F.SilkS) (width 0.175))
  (fp_curve (pts (xy -0.484583 -0.211732) (xy -0.603199 -0.340425) (xy -0.627947 -0.362465) (xy -0.654133 -0.362465)) (layer F.SilkS) (width 0.175))
  (fp_curve (pts (xy 4.719301 -0.06144) (xy 4.675477 -0.149172) (xy 4.646975 -0.152857) (xy 4.624028 -0.072778)) (layer F.SilkS) (width 0.175))
  (fp_curve (pts (xy 4.624028 -0.072778) (xy 4.612831 -0.034227) (xy 4.620485 -0.074195) (xy 4.448575 0.855483)) (layer F.SilkS) (width 0.175))
  (fp_curve (pts (xy 10.471498 -0.153806) (xy 10.753509 -0.030358) (xy 10.828741 0.012644) (xy 10.925448 0.105875)) (layer F.SilkS) (width 0.175))
  (fp_curve (pts (xy 10.925448 0.105875) (xy 11.04113 0.217419) (xy 11.109176 0.34957) (xy 11.134138 0.51123)) (layer F.SilkS) (width 0.175))
  (fp_curve (pts (xy 4.541293 -1.170381) (xy 4.565444 -1.174633) (xy 4.591665 -1.159043) (xy 4.614484 -1.12772)) (layer F.SilkS) (width 0.175))
  (fp_curve (pts (xy 4.614484 -1.12772) (xy 4.63529 -1.098523) (xy 4.654396 -1.057988) (xy 4.714122 -0.916156)) (layer F.SilkS) (width 0.175))
  (fp_curve (pts (xy 10.07438 -1.193002) (xy 10.210698 -1.236655) (xy 10.384397 -1.243458) (xy 10.534926 -1.211002)) (layer F.SilkS) (width 0.175))
  (fp_curve (pts (xy 10.534926 -1.211002) (xy 10.611476 -1.194561) (xy 10.702461 -1.156718) (xy 10.766773 -1.114624)) (layer F.SilkS) (width 0.175))
  (fp_curve (pts (xy -1.038328 1.238571) (xy -1.043289 1.209091) (xy -1.044139 -1.074117) (xy -1.039189 -1.103384)) (layer F.SilkS) (width 0.175))
  (fp_curve (pts (xy -1.039189 -1.103384) (xy -1.028842 -1.165038) (xy -1.006916 -1.193101) (xy -0.969102 -1.193101)) (layer F.SilkS) (width 0.175))
  (fp_curve (pts (xy 10.966906 -0.808595) (xy 10.954717 -0.782375) (xy 10.92664 -0.755021) (xy 10.88028 -0.724265)) (layer F.SilkS) (width 0.175))
  (fp_curve (pts (xy 10.88028 -0.724265) (xy 10.814615 -0.680753) (xy 10.772067 -0.667005) (xy 10.733173 -0.676926)) (layer F.SilkS) (width 0.175))
  (fp_curve (pts (xy -2.770434 -1.159808) (xy -2.300226 -1.004243) (xy -1.96363 -0.623337) (xy -1.877592 -0.149441)) (layer F.SilkS) (width 0.175))
  (fp_curve (pts (xy -1.877592 -0.149441) (xy -1.847941 0.045101) (xy -1.852562 0.238579) (xy -1.894089 0.412585)) (layer F.SilkS) (width 0.175))
  (fp_curve (pts (xy 10.765635 0.756157) (xy 10.773572 0.714205) (xy 10.773572 0.63696) (xy 10.765648 0.594852)) (layer F.SilkS) (width 0.175))
  (fp_curve (pts (xy 10.765648 0.594852) (xy 10.736876 0.441072) (xy 10.632009 0.321833) (xy 10.445689 0.231068)) (layer F.SilkS) (width 0.175))
  (fp_curve (pts (xy 5.043492 0.683038) (xy 4.943528 0.452042) (xy 4.833238 0.197137) (xy 4.798401 0.116605)) (layer F.SilkS) (width 0.175))
  (fp_curve (pts (xy 4.798401 0.116605) (xy 4.763564 0.036101) (xy 4.72796 -0.044063) (xy 4.719301 -0.06144)) (layer F.SilkS) (width 0.175))
  (fp_curve (pts (xy 5.735908 -0.096688) (xy 5.811607 -0.275795) (xy 5.922527 -0.538071) (xy 5.982407 -0.67952)) (layer F.SilkS) (width 0.175))
  (fp_curve (pts (xy 5.982407 -0.67952) (xy 6.042289 -0.820969) (xy 6.102525 -0.963339) (xy 6.116273 -0.995909)) (layer F.SilkS) (width 0.175))
  (fp_curve (pts (xy 0.97211 -1.172125) (xy 1.052203 -1.162203) (xy 1.086531 -1.132581) (xy 1.099131 -1.060298)) (layer F.SilkS) (width 0.175))
  (fp_curve (pts (xy 1.099131 -1.060298) (xy 1.103099 -1.037337) (xy 1.103666 -0.893536) (xy 1.103666 0.110595)) (layer F.SilkS) (width 0.175))
  (fp_line (start 2.391229 0.019801) (end 2.391251 0.087124) (layer F.SilkS) (width 0.175))
  (fp_curve (pts (xy 3.298006 0.174998) (xy 3.343814 0.186337) (xy 3.373791 0.221061) (xy 3.384789 0.27336)) (layer F.SilkS) (width 0.175))
  (fp_curve (pts (xy 3.384789 0.27336) (xy 3.3906 0.30114) (xy 3.390742 0.377109) (xy 3.385004 0.404038)) (layer F.SilkS) (width 0.175))
  (fp_curve (pts (xy 3.385004 0.404038) (xy 3.373382 0.458888) (xy 3.346595 0.48766) (xy 3.292737 0.503675)) (layer F.SilkS) (width 0.175))
  (fp_curve (pts (xy 3.292737 0.503675) (xy 3.276721 0.507927) (xy 3.239644 0.509345) (xy 2.870403 0.510762)) (layer F.SilkS) (width 0.175))
  (fp_curve (pts (xy 6.32496 -1.068178) (xy 6.332188 -1.041391) (xy 6.3757 -0.820983) (xy 6.530334 -0.028232)) (layer F.SilkS) (width 0.175))
  (fp_curve (pts (xy 6.530334 -0.028232) (xy 6.569027 0.170137) (xy 6.637583 0.52142) (xy 6.68268 0.75243)) (layer F.SilkS) (width 0.175))
  (fp_curve (pts (xy 6.740265 1.3142) (xy 6.710955 1.343964) (xy 6.676571 1.352043) (xy 6.591142 1.349633)) (layer F.SilkS) (width 0.175))
  (fp_curve (pts (xy 6.591142 1.349633) (xy 6.535186 1.348216) (xy 6.518915 1.345381) (xy 6.490384 1.330499)) (layer F.SilkS) (width 0.175))
  (fp_curve (pts (xy -5.380261 1.290771) (xy -5.39649 1.318551) (xy -5.426211 1.33726) (xy -5.467739 1.345905)) (layer F.SilkS) (width 0.175))
  (fp_curve (pts (xy -5.467739 1.345905) (xy -5.501556 1.352992) (xy -5.610456 1.350157) (xy -5.636781 1.341653)) (layer F.SilkS) (width 0.175))
  (fp_curve (pts (xy -5.636781 1.341653) (xy -5.687309 1.325071) (xy -5.711956 1.295307) (xy -5.723394 1.236771)) (layer F.SilkS) (width 0.175))
  (fp_curve (pts (xy -5.723394 1.236771) (xy -5.726228 1.222315) (xy -5.727646 1.091269) (xy -5.728921 0.703291)) (layer F.SilkS) (width 0.175))
  (fp_curve (pts (xy -5.728921 0.703291) (xy -5.730234 0.307816) (xy -5.731614 0.186394) (xy -5.734449 0.177946)) (layer F.SilkS) (width 0.175))
  (fp_curve (pts (xy -5.734449 0.177946) (xy -5.739693 0.162497) (xy -5.753965 0.143789) (xy -5.766254 0.136135)) (layer F.SilkS) (width 0.175))
  (fp_curve (pts (xy -5.766254 0.136135) (xy -5.792942 0.119694) (xy -5.76838 0.120261) (xy -6.351641 0.121112)) (layer F.SilkS) (width 0.175))
  (fp_curve (pts (xy -6.351641 0.121112) (xy -6.779328 0.121778) (xy -6.892433 0.122529) (xy -6.901437 0.125364)) (layer F.SilkS) (width 0.175))
  (fp_curve (pts (xy -6.901437 0.125364) (xy -6.916602 0.131033) (xy -6.937168 0.146623) (xy -6.94424 0.158671)) (layer F.SilkS) (width 0.175))
  (fp_curve (pts (xy -6.94424 0.158671) (xy -6.960539 0.186592) (xy -6.959661 0.158458) (xy -6.961631 0.719406)) (layer F.SilkS) (width 0.175))
  (fp_curve (pts (xy 10.460847 1.404639) (xy 10.413069 1.411726) (xy 10.260374 1.413143) (xy 10.20976 1.407474)) (layer F.SilkS) (width 0.175))
  (fp_line (start -3.116068 1.064879) (end -3.116068 1.064879) (layer F.SilkS) (width 0.175))
  (fp_curve (pts (xy 9.991683 -0.52652) (xy 10.005998 -0.462173) (xy 10.044961 -0.399103) (xy 10.100194 -0.350673)) (layer F.SilkS) (width 0.175))
  (fp_curve (pts (xy 10.100194 -0.350673) (xy 10.164313 -0.294405) (xy 10.231792 -0.258688) (xy 10.471498 -0.153806)) (layer F.SilkS) (width 0.175))
  (fp_curve (pts (xy 10.544187 -0.837084) (xy 10.478834 -0.885556) (xy 10.414077 -0.908658) (xy 10.333948 -0.912202)) (layer F.SilkS) (width 0.175))
  (fp_curve (pts (xy 10.333948 -0.912202) (xy 10.264131 -0.915036) (xy 10.210287 -0.905115) (xy 10.153379 -0.876485)) (layer F.SilkS) (width 0.175))
  (fp_curve (pts (xy -4.161647 0.238934) (xy -4.128425 0.456649) (xy -4.035222 0.636748) (xy -3.874879 0.793135)) (layer F.SilkS) (width 0.175))
  (fp_curve (pts (xy -3.874879 0.793135) (xy -3.715463 0.948601) (xy -3.524107 1.040061) (xy -3.309305 1.063461)) (layer F.SilkS) (width 0.175))
  (fp_curve (pts (xy 10.153379 -0.876485) (xy 10.064768 -0.832832) (xy 10.006273 -0.753603) (xy 9.988849 -0.653795)) (layer F.SilkS) (width 0.175))
  (fp_curve (pts (xy 9.988849 -0.653795) (xy 9.983179 -0.620772) (xy 9.984597 -0.558977) (xy 9.991683 -0.52652)) (layer F.SilkS) (width 0.175))
  (fp_curve (pts (xy 4.028483 1.205264) (xy 4.031885 1.174934) (xy 4.035428 1.156792) (xy 4.194396 0.342441)) (layer F.SilkS) (width 0.175))
  (fp_curve (pts (xy 4.194396 0.342441) (xy 4.248652 0.064575) (xy 4.308236 -0.240844) (xy 4.326789 -0.336258)) (layer F.SilkS) (width 0.175))
  (fp_curve (pts (xy -4.337107 0.810838) (xy -4.501739 0.564634) (xy -4.573717 0.266175) (xy -4.54319 -0.043695)) (layer F.SilkS) (width 0.175))
  (fp_curve (pts (xy -4.54319 -0.043695) (xy -4.504498 -0.436463) (xy -4.290234 -0.786287) (xy -3.954107 -1.005462)) (layer F.SilkS) (width 0.175))
  (fp_curve (pts (xy 10.766773 -1.114624) (xy 10.854633 -1.057222) (xy 10.941485 -0.963509) (xy 10.966572 -0.899162)) (layer F.SilkS) (width 0.175))
  (fp_curve (pts (xy 10.966572 -0.899162) (xy 10.978336 -0.868832) (xy 10.978477 -0.83354) (xy 10.966906 -0.808595)) (layer F.SilkS) (width 0.175))
  (fp_curve (pts (xy 10.01047 0.035477) (xy 9.881876 -0.034255) (xy 9.784088 -0.119677) (xy 9.719105 -0.219188)) (layer F.SilkS) (width 0.175))
  (fp_curve (pts (xy 9.719105 -0.219188) (xy 9.599101 -0.402972) (xy 9.580052 -0.664638) (xy 9.672631 -0.857635)) (layer F.SilkS) (width 0.175))
  (fp_curve (pts (xy -2.242045 0.218879) (xy -2.234391 0.164595) (xy -2.234533 0.023302) (xy -2.242209 -0.0322)) (layer F.SilkS) (width 0.175))
  (fp_curve (pts (xy -2.242209 -0.0322) (xy -2.26748 -0.21529) (xy -2.335682 -0.378509) (xy -2.445037 -0.517633)) (layer F.SilkS) (width 0.175))
  (fp_curve (pts (xy -2.601712 0.856234) (xy -2.557137 0.82066) (xy -2.474323 0.737038) (xy -2.44068 0.693653)) (layer F.SilkS) (width 0.175))
  (fp_curve (pts (xy -2.44068 0.693653) (xy -2.329619 0.550405) (xy -2.267646 0.402266) (xy -2.242045 0.218879)) (layer F.SilkS) (width 0.175))
  (fp_curve (pts (xy 4.714122 -0.916156) (xy 4.743375 -0.846707) (xy 4.805015 -0.700836) (xy 4.851092 -0.592042)) (layer F.SilkS) (width 0.175))
  (fp_curve (pts (xy 4.851092 -0.592042) (xy 4.897169 -0.483192) (xy 4.991322 -0.260673) (xy 5.060304 -0.097468)) (layer F.SilkS) (width 0.175))
  (fp_curve (pts (xy 5.060304 -0.097468) (xy 5.370125 0.635486) (xy 5.350692 0.591195) (xy 5.372464 0.613929)) (layer F.SilkS) (width 0.175))
  (fp_curve (pts (xy 5.372464 0.613929) (xy 5.383235 0.625268) (xy 5.386637 0.626685) (xy 5.397565 0.626685)) (layer F.SilkS) (width 0.175))
  (fp_curve (pts (xy -3.062761 -0.874614) (xy -3.11961 -0.884536) (xy -3.281684 -0.884536) (xy -3.338235 -0.87555)) (layer F.SilkS) (width 0.175))
  (fp_curve (pts (xy -3.338235 -0.87555) (xy -3.566394 -0.841392) (xy -3.760617 -0.73977) (xy -3.909796 -0.576721)) (layer F.SilkS) (width 0.175))
  (fp_curve (pts (xy 7.925482 1.005946) (xy 7.932001 1.007364) (xy 8.059405 1.005436) (xy 8.33653 1.00674)) (layer F.SilkS) (width 0.175))
  (fp_curve (pts (xy 8.33653 1.00674) (xy 8.701507 1.008157) (xy 8.740295 1.009575) (xy 8.760415 1.013827)) (layer F.SilkS) (width 0.175))
  (fp_curve (pts (xy 8.760415 1.013827) (xy 8.79154 1.020913) (xy 8.807456 1.028567) (xy 8.823614 1.04359)) (layer F.SilkS) (width 0.175))
  (fp_curve (pts (xy 8.823614 1.04359) (xy 8.855064 1.072504) (xy 8.865212 1.105953) (xy 8.865155 1.180079)) (layer F.SilkS) (width 0.175))
  (fp_line (start 3.276704 0.170746) (end 3.298006 0.174998) (layer F.SilkS) (width 0.175))
  (fp_curve (pts (xy 2.394805 0.954994) (xy 2.393681 0.98008) (xy 2.415852 0.993545) (xy 2.433299 0.998505)) (layer F.SilkS) (width 0.175))
  (fp_curve (pts (xy 2.433299 0.998505) (xy 2.458414 1.004175) (xy 2.455905 1.005592) (xy 2.859477 1.008427)) (layer F.SilkS) (width 0.175))
  (fp_curve (pts (xy 2.859477 1.008427) (xy 3.229433 1.009844) (xy 3.264936 1.009844) (xy 3.285707 1.015513)) (layer F.SilkS) (width 0.175))
  (fp_curve (pts (xy -2.836591 0.080505) (xy -2.836591 0.280079) (xy -2.994567 0.438337) (xy -3.194142 0.438337)) (layer F.SilkS) (width 0.175))
  (fp_curve (pts (xy 5.397565 0.626685) (xy 5.407769 0.626685) (xy 5.412532 0.625268) (xy 5.422198 0.615346)) (layer F.SilkS) (width 0.175))
  (fp_curve (pts (xy 5.422198 0.615346) (xy 5.443769 0.595787) (xy 5.430418 0.626685) (xy 5.735908 -0.096688)) (layer F.SilkS) (width 0.175))
  (fp_curve (pts (xy 11.134138 0.51123) (xy 11.141791 0.560978) (xy 11.141791 0.701038) (xy 11.133958 0.753195)) (layer F.SilkS) (width 0.175))
  (fp_curve (pts (xy 11.133958 0.753195) (xy 11.107666 0.929921) (xy 11.04529 1.061349) (xy 10.932688 1.177258)) (layer F.SilkS) (width 0.175))
  (fp_curve (pts (xy 10.733173 -0.676926) (xy 10.702814 -0.684013) (xy 10.684247 -0.697761) (xy 10.648544 -0.736454)) (layer F.SilkS) (width 0.175))
  (fp_curve (pts (xy 10.648544 -0.736454) (xy 10.599533 -0.789603) (xy 10.571074 -0.817099) (xy 10.544187 -0.837084)) (layer F.SilkS) (width 0.175))
  (fp_curve (pts (xy -9.047111 -0.091954) (xy -9.030925 -0.087703) (xy -8.913925 -0.087703) (xy -8.856033 -0.091799)) (layer F.SilkS) (width 0.175))
  (fp_line (start -9.36701 1.345423) (end -9.367063 1.346061) (layer F.SilkS) (width 0.175))
  (fp_curve (pts (xy -7.217265 1.346515) (xy -7.270372 1.335176) (xy -7.299767 1.309381) (xy -7.315117 1.259491)) (layer F.SilkS) (width 0.175))
  (fp_curve (pts (xy -7.315117 1.259491) (xy -7.322203 1.236672) (xy -7.322203 1.236672) (xy -7.322203 0.089279)) (layer F.SilkS) (width 0.175))
  (fp_curve (pts (xy -7.322203 0.089279) (xy -7.322203 -1.012619) (xy -7.321982 -1.058895) (xy -7.316676 -1.077717)) (layer F.SilkS) (width 0.175))
  (fp_curve (pts (xy -7.316676 -1.077717) (xy -7.309589 -1.102945) (xy -7.301836 -1.117827) (xy -7.288117 -1.132992)) (layer F.SilkS) (width 0.175))
  (fp_curve (pts (xy -7.288117 -1.132992) (xy -7.273263 -1.149433) (xy -7.256425 -1.158788) (xy -7.227625 -1.166583)) (layer F.SilkS) (width 0.175))
  (fp_curve (pts (xy -7.227625 -1.166583) (xy -7.195084 -1.175087) (xy -7.096835 -1.176504) (xy -7.063833 -1.168)) (layer F.SilkS) (width 0.175))
  (fp_curve (pts (xy 6.288288 0.539364) (xy 6.230419 0.229693) (xy 6.17965 -0.037373) (xy 6.175469 -0.054112)) (layer F.SilkS) (width 0.175))
  (fp_curve (pts (xy 6.175469 -0.054112) (xy 6.161863 -0.108679) (xy 6.145238 -0.135041) (xy 6.127337 -0.130506)) (layer F.SilkS) (width 0.175))
  (fp_curve (pts (xy 6.127337 -0.130506) (xy 6.114156 -0.126254) (xy 6.092953 -0.099466) (xy 6.073989 -0.060632)) (layer F.SilkS) (width 0.175))
  (fp_line (start 7.650218 1.350342) (end 7.650218 1.350342) (layer F.SilkS) (width 0.175))
  (fp_curve (pts (xy -8.856015 -0.091827) (xy -8.694345 -0.101748) (xy -8.593947 -0.126126) (xy -8.528895 -0.169354)) (layer F.SilkS) (width 0.175))
  (fp_curve (pts (xy -8.528895 -0.169354) (xy -8.503185 -0.186362) (xy -8.466873 -0.224488) (xy -8.451991 -0.250142)) (layer F.SilkS) (width 0.175))
  (fp_curve (pts (xy -8.451991 -0.250142) (xy -8.43616 -0.277354) (xy -8.423971 -0.310236) (xy -8.415793 -0.347654)) (layer F.SilkS) (width 0.175))
  (fp_curve (pts (xy -8.415793 -0.347654) (xy -8.409698 -0.375433) (xy -8.408848 -0.388047) (xy -8.408848 -0.449417)) (layer F.SilkS) (width 0.175))
  (fp_curve (pts (xy -8.408848 -0.449417) (xy -8.408805 -0.504835) (xy -8.409973 -0.524961) (xy -8.414234 -0.546362)) (layer F.SilkS) (width 0.175))
  (fp_curve (pts (xy -6.961631 0.719406) (xy -6.962942 1.096272) (xy -6.964465 1.241661) (xy -6.967017 1.25052)) (layer F.SilkS) (width 0.175))
  (fp_curve (pts (xy -6.967017 1.25052) (xy -6.977788 1.309197) (xy -7.00571 1.326346) (xy -7.04993 1.340803)) (layer F.SilkS) (width 0.175))
  (fp_curve (pts (xy -7.04993 1.340803) (xy -7.067023 1.346472) (xy -7.078376 1.34789) (xy -7.133623 1.34789)) (layer F.SilkS) (width 0.175))
  (fp_curve (pts (xy -7.133623 1.34789) (xy -7.178991 1.34857) (xy -7.203313 1.347649) (xy -7.217429 1.345055)) (layer F.SilkS) (width 0.175))
  (fp_line (start -8.856033 -0.091799) (end -8.856033 -0.091799) (layer F.SilkS) (width 0.175))
  (fp_line (start -7.217429 1.345055) (end -7.217265 1.346515) (layer F.SilkS) (width 0.175))
  (fp_curve (pts (xy 3.266706 -1.223247) (xy 3.334142 -1.223247) (xy 3.38844 -1.168964) (xy 3.38844 -1.101499)) (layer F.SilkS) (width 0.175))
  (fp_line (start 2.137521 -1.223247) (end 3.266706 -1.223247) (layer F.SilkS) (width 0.175))
  (fp_curve (pts (xy 3.38844 -1.014617) (xy 3.38844 -0.947153) (xy 3.334142 -0.892869) (xy 3.266706 -0.892869)) (layer F.SilkS) (width 0.175))
  (fp_line (start 3.38844 -1.101499) (end 3.38844 -1.014617) (layer F.SilkS) (width 0.175))
  (fp_curve (pts (xy 2.137521 -0.892869) (xy 2.070085 -0.892869) (xy 2.015787 -0.947153) (xy 2.015787 -1.014617)) (layer F.SilkS) (width 0.175))
  (fp_line (start 3.266706 -0.892869) (end 2.137521 -0.892869) (layer F.SilkS) (width 0.175))
  (fp_curve (pts (xy 2.015787 -1.101499) (xy 2.015787 -1.168964) (xy 2.070085 -1.223247) (xy 2.137521 -1.223247)) (layer F.SilkS) (width 0.175))
  (fp_curve (pts (xy 7.866421 -0.7504) (xy 7.862452 -0.722621) (xy 7.862452 -0.316331) (xy 7.866395 -0.288622)) (layer F.SilkS) (width 0.175))
  (fp_curve (pts (xy 7.866395 -0.288622) (xy 7.87249 -0.246669) (xy 7.885486 -0.223425) (xy 7.918751 -0.209961)) (layer F.SilkS) (width 0.175))
  (fp_curve (pts (xy 7.918751 -0.209961) (xy 7.936496 -0.202874) (xy 7.937842 -0.205709) (xy 8.342618 -0.204291)) (layer F.SilkS) (width 0.175))
  (fp_curve (pts (xy 8.342618 -0.204291) (xy 8.712347 -0.202874) (xy 8.74909 -0.202874) (xy 8.766901 -0.197205)) (layer F.SilkS) (width 0.175))
  (fp_curve (pts (xy 2.736525 1.353828) (xy 2.448612 1.354154) (xy 2.16034 1.353488) (xy 2.139416 1.352411)) (layer F.SilkS) (width 0.175))
  (fp_line (start 2.391198 0.590983) (end 2.390836 0.64314) (layer F.SilkS) (width 0.175))
  (fp_line (start 2.390836 0.64314) (end 2.394805 0.954994) (layer F.SilkS) (width 0.175))
  (fp_curve (pts (xy 7.650255 1.350313) (xy 7.557831 1.344644) (xy 7.519691 1.316014) (xy 7.503671 1.238628)) (layer F.SilkS) (width 0.175))
  (fp_curve (pts (xy -7.063833 -1.168) (xy -7.009691 -1.155244) (xy -6.983867 -1.130299) (xy -6.968503 -1.078567)) (layer F.SilkS) (width 0.175))
  (fp_curve (pts (xy -6.968503 -1.078567) (xy -6.963685 -1.062551) (xy -6.963118 -1.027827) (xy -6.961417 -0.688194)) (layer F.SilkS) (width 0.175))
  (fp_curve (pts (xy -6.961417 -0.688194) (xy -6.959433 -0.292208) (xy -6.959858 -0.299833) (xy -6.945373 -0.272266)) (layer F.SilkS) (width 0.175))
  (fp_curve (pts (xy -6.945373 -0.272266) (xy -6.938003 -0.258093) (xy -6.920839 -0.245337) (xy -6.901096 -0.238817)) (layer F.SilkS) (width 0.175))
  (fp_curve (pts (xy -6.901096 -0.238817) (xy -6.884612 -0.233148) (xy -6.861666 -0.233148) (xy -6.343682 -0.233148)) (layer F.SilkS) (width 0.175))
  (fp_curve (pts (xy -6.343682 -0.233148) (xy -5.825699 -0.233148) (xy -5.802757 -0.233375) (xy -5.786268 -0.238817)) (layer F.SilkS) (width 0.175))
  (fp_curve (pts (xy -5.786268 -0.238817) (xy -5.756504 -0.248739) (xy -5.739453 -0.268298) (xy -5.732069 -0.301747)) (layer F.SilkS) (width 0.175))
  (fp_curve (pts (xy 8.345657 0.139551) (xy 7.974707 0.140968) (xy 7.94084 0.138134) (xy 7.926653 0.142386)) (layer F.SilkS) (width 0.175))
  (fp_curve (pts (xy 7.926653 0.142386) (xy 7.890213 0.155142) (xy 7.872667 0.18037) (xy 7.866515 0.225441)) (layer F.SilkS) (width 0.175))
  (fp_curve (pts (xy 7.866515 0.225441) (xy 7.862264 0.256905) (xy 7.862122 0.893014) (xy 7.866422 0.922608)) (layer F.SilkS) (width 0.175))
  (fp_curve (pts (xy 7.866422 0.922608) (xy 7.8728 0.966403) (xy 7.889496 0.99319) (xy 7.925482 1.005946)) (layer F.SilkS) (width 0.175))
  (fp_curve (pts (xy 8.18739 -1.174463) (xy 8.710251 -1.174463) (xy 8.745633 -1.174123) (xy 8.765339 -1.168794)) (layer F.SilkS) (width 0.175))
  (fp_curve (pts (xy 8.765339 -1.168794) (xy 8.838586 -1.149943) (xy 8.864963 -1.107282) (xy 8.865161 -1.006794)) (layer F.SilkS) (width 0.175))
  (fp_curve (pts (xy 8.865161 -1.006794) (xy 8.865292 -0.94018) (xy 8.856232 -0.906589) (xy 8.83072 -0.878951)) (layer F.SilkS) (width 0.175))
  (fp_curve (pts (xy -9.087699 0.278548) (xy -9.113409 0.304201) (xy -9.111425 0.265792) (xy -9.113395 0.771479)) (layer F.SilkS) (width 0.175))
  (fp_curve (pts (xy -9.113395 0.771479) (xy -9.114707 1.104748) (xy -9.116088 1.223746) (xy -9.118781 1.23799)) (layer F.SilkS) (width 0.175))
  (fp_curve (pts (xy -9.118781 1.23799) (xy -9.129977 1.295959) (xy -9.155036 1.326573) (xy -9.204033 1.342589)) (layer F.SilkS) (width 0.175))
  (fp_curve (pts (xy -9.204033 1.342589) (xy -9.221409 1.348258) (xy -9.232932 1.349675) (xy -9.285146 1.349675)) (layer F.SilkS) (width 0.175))
  (fp_curve (pts (xy -9.285146 1.349675) (xy -9.331733 1.350455) (xy -9.350938 1.349605) (xy -9.36701 1.345423)) (layer F.SilkS) (width 0.175))
  (fp_curve (pts (xy 8.766901 -0.197205) (xy 8.819852 -0.183032) (xy 8.847433 -0.154827) (xy 8.860161 -0.102103)) (layer F.SilkS) (width 0.175))
  (fp_curve (pts (xy 8.860161 -0.102103) (xy 8.867106 -0.073189) (xy 8.867247 0.008165) (xy 8.86046 0.036653)) (layer F.SilkS) (width 0.175))
  (fp_curve (pts (xy 8.86046 0.036653) (xy 8.847704 0.090086) (xy 8.82215 0.116732) (xy 8.768702 0.132464)) (layer F.SilkS) (width 0.175))
  (fp_curve (pts (xy 8.768702 0.132464) (xy 8.751822 0.136716) (xy 8.719961 0.138134) (xy 8.345657 0.139551)) (layer F.SilkS) (width 0.175))
  (fp_curve (pts (xy 6.073989 -0.060632) (xy 6.064068 -0.040364) (xy 6.021704 0.055731) (xy 5.97995 0.152902)) (layer F.SilkS) (width 0.175))
  (fp_curve (pts (xy 5.97995 0.152902) (xy 5.893011 0.355069) (xy 5.669804 0.87337) (xy 5.571027 1.102466)) (layer F.SilkS) (width 0.175))
  (fp_curve (pts (xy 2.446887 -0.285419) (xy 2.417648 -0.27408) (xy 2.403219 -0.255514) (xy 2.395764 -0.220222)) (layer F.SilkS) (width 0.175))
  (fp_curve (pts (xy 2.395764 -0.220222) (xy 2.392079 -0.203073) (xy 2.391229 -0.160269) (xy 2.391229 0.019801)) (layer F.SilkS) (width 0.175))
  (fp_line (start 2.021935 1.244751) (end 2.016833 0.461751) (layer F.SilkS) (width 0.175))
  (fp_curve (pts (xy -3.194142 -0.277043) (xy -2.994567 -0.277043) (xy -2.836591 -0.119082) (xy -2.836591 0.080505)) (layer F.SilkS) (width 0.175))
  (fp_curve (pts (xy 9.672631 -0.857635) (xy 9.700567 -0.915745) (xy 9.733264 -0.962517) (xy 9.780603 -1.011712)) (layer F.SilkS) (width 0.175))
  (fp_curve (pts (xy 9.780603 -1.011712) (xy 9.862779 -1.097035) (xy 9.957676 -1.155655) (xy 10.07438 -1.193002)) (layer F.SilkS) (width 0.175))
  (fp_curve (pts (xy 2.391251 0.087124) (xy 2.391266 0.125109) (xy 2.415913 0.152038) (xy 2.446414 0.162242)) (layer F.SilkS) (width 0.175))
  (fp_curve (pts (xy 2.446414 0.162242) (xy 2.461508 0.166494) (xy 2.489245 0.165077) (xy 2.865835 0.166494)) (layer F.SilkS) (width 0.175))
  (fp_curve (pts (xy 2.865835 0.166494) (xy 3.087629 0.16743) (xy 3.27252 0.169329) (xy 3.276704 0.170746)) (layer F.SilkS) (width 0.175))
  (fp_curve (pts (xy 10.932688 1.177258) (xy 10.869801 1.24203) (xy 10.812584 1.283841) (xy 10.733011 1.323568)) (layer F.SilkS) (width 0.175))
  (fp_curve (pts (xy 10.733011 1.323568) (xy 10.647731 1.366088) (xy 10.570521 1.389049) (xy 10.460847 1.404639)) (layer F.SilkS) (width 0.175))
  (fp_curve (pts (xy 8.865155 1.180079) (xy 8.865097 1.253071) (xy 8.854667 1.288362) (xy 8.825315 1.314866)) (layer F.SilkS) (width 0.175))
  (fp_curve (pts (xy 8.825315 1.314866) (xy 8.799122 1.338535) (xy 8.772349 1.346756) (xy 8.709349 1.350583)) (layer F.SilkS) (width 0.175))
  (fp_curve (pts (xy 8.709349 1.350583) (xy 8.653407 1.354834) (xy 7.709767 1.353418) (xy 7.650218 1.350342)) (layer F.SilkS) (width 0.175))
  (fp_line (start 2.139416 1.352411) (end 2.139446 1.350625) (layer F.SilkS) (width 0.175))
  (fp_curve (pts (xy -3.551987 0.080505) (xy -3.551987 -0.119082) (xy -3.393716 -0.277043) (xy -3.194142 -0.277043)) (layer F.SilkS) (width 0.175))
  (fp_curve (pts (xy 6.490384 1.330499) (xy 6.444747 1.307397) (xy 6.425769 1.269554) (xy 6.404381 1.15872)) (layer F.SilkS) (width 0.175))
  (fp_curve (pts (xy 6.404381 1.15872) (xy 6.398428 1.12768) (xy 6.346158 0.849034) (xy 6.288288 0.539364)) (layer F.SilkS) (width 0.175))
  (fp_curve (pts (xy 2.128702 -0.626214) (xy 2.147879 -0.630466) (xy 2.187224 -0.631883) (xy 2.70623 -0.631883)) (layer F.SilkS) (width 0.175))
  (fp_curve (pts (xy 2.70623 -0.631883) (xy 3.309533 -0.631883) (xy 3.288673 -0.632436) (xy 3.324522 -0.615301)) (layer F.SilkS) (width 0.175))
  (fp_curve (pts (xy 3.285707 1.015513) (xy 3.342272 1.028269) (xy 3.372107 1.058458) (xy 3.384452 1.113734)) (layer F.SilkS) (width 0.175))
  (fp_curve (pts (xy 3.384452 1.113734) (xy 3.391113 1.143639) (xy 3.391113 1.219608) (xy 3.384452 1.249513)) (layer F.SilkS) (width 0.175))
  (fp_curve (pts (xy 3.384452 1.249513) (xy 3.371979 1.305497) (xy 3.341493 1.334978) (xy 3.282334 1.348159)) (layer F.SilkS) (width 0.175))
  (fp_curve (pts (xy 3.282334 1.348159) (xy 3.262222 1.352411) (xy 3.208052 1.352411) (xy 2.736525 1.353828)) (layer F.SilkS) (width 0.175))
  (fp_line (start 2.015787 -1.014617) (end 2.015787 -1.101499) (layer F.SilkS) (width 0.175))
  (fp_line (start 2.137521 -1.223247) (end 2.137521 -1.223247) (layer F.SilkS) (width 0.175))
  (fp_curve (pts (xy 8.83072 -0.878951) (xy 8.816519 -0.863503) (xy 8.795698 -0.851597) (xy 8.771745 -0.845077)) (layer F.SilkS) (width 0.175))
  (fp_curve (pts (xy 8.771745 -0.845077) (xy 8.742053 -0.836573) (xy 8.657977 -0.835156) (xy 8.307004 -0.835156)) (layer F.SilkS) (width 0.175))
  (fp_curve (pts (xy 8.307004 -0.835156) (xy 8.056186 -0.835099) (xy 7.947089 -0.834221) (xy 7.935699 -0.830904)) (layer F.SilkS) (width 0.175))
  (fp_curve (pts (xy 7.935699 -0.830904) (xy 7.89369 -0.820983) (xy 7.873365 -0.798447) (xy 7.866421 -0.7504)) (layer F.SilkS) (width 0.175))
  (fp_curve (pts (xy -9.367063 1.346061) (xy -9.410617 1.33614) (xy -9.444109 1.310486) (xy -9.456723 1.276896)) (layer F.SilkS) (width 0.175))
  (fp_curve (pts (xy -9.456723 1.276896) (xy -9.471562 1.237211) (xy -9.470896 1.296597) (xy -9.470896 0.084899)) (layer F.SilkS) (width 0.175))
  (fp_curve (pts (xy -9.470896 0.084899) (xy -9.470896 -0.992606) (xy -9.470615 -1.052942) (xy -9.46551 -1.072841)) (layer F.SilkS) (width 0.175))
  (fp_curve (pts (xy -9.46551 -1.072841) (xy -9.45488 -1.11451) (xy -9.436526 -1.139597) (xy -9.405373 -1.155329)) (layer F.SilkS) (width 0.175))
  (fp_curve (pts (xy -9.405373 -1.155329) (xy -9.368537 -1.173896) (xy -9.376885 -1.173471) (xy -9.061545 -1.173471)) (layer F.SilkS) (width 0.175))
  (fp_curve (pts (xy -8.414234 -0.546362) (xy -8.440908 -0.678599) (xy -8.504248 -0.750797) (xy -8.629393 -0.791885)) (layer F.SilkS) (width 0.175))
  (fp_curve (pts (xy -8.629393 -0.791885) (xy -8.713894 -0.819665) (xy -8.862751 -0.836814) (xy -8.991523 -0.833696)) (layer F.SilkS) (width 0.175))
  (fp_curve (pts (xy -8.991523 -0.833696) (xy -9.054764 -0.832279) (xy -9.072282 -0.82661) (xy -9.090254 -0.806342)) (layer F.SilkS) (width 0.175))
  (fp_curve (pts (xy -9.090254 -0.806342) (xy -9.112889 -0.77998) (xy -9.111741 -0.797838) (xy -9.111741 -0.461536)) (layer F.SilkS) (width 0.175))
  (fp_curve (pts (xy -9.111741 -0.461536) (xy -9.111741 -0.175605) (xy -9.11145 -0.159405) (xy -9.106071 -0.14397)) (layer F.SilkS) (width 0.175))
  (fp_curve (pts (xy -9.106071 -0.14397) (xy -9.096575 -0.116758) (xy -9.076364 -0.098899) (xy -9.047111 -0.091954)) (layer F.SilkS) (width 0.175))
  (fp_curve (pts (xy -8.019353 -0.462556) (xy -8.019353 -0.378367) (xy -8.022613 -0.342934) (xy -8.036234 -0.281479)) (layer F.SilkS) (width 0.175))
  (fp_curve (pts (xy -8.036234 -0.281479) (xy -8.076117 -0.101025) (xy -8.169207 0.043556) (xy -8.30115 0.130012)) (layer F.SilkS) (width 0.175))
  (fp_curve (pts (xy -8.30115 0.130012) (xy -8.436164 0.218453) (xy -8.588872 0.249351) (xy -8.892631 0.249634)) (layer F.SilkS) (width 0.175))
  (fp_curve (pts (xy -8.892631 0.249634) (xy -9.03493 0.24979) (xy -9.063053 0.253886) (xy -9.087699 0.278548)) (layer F.SilkS) (width 0.175))
  (fp_curve (pts (xy -5.732069 -0.301747) (xy -5.730227 -0.310251) (xy -5.728951 -0.440219) (xy -5.728951 -0.651754)) (layer F.SilkS) (width 0.175))
  (fp_curve (pts (xy -5.728951 -0.651754) (xy -5.728814 -0.974493) (xy -5.72725 -1.044806) (xy -5.719455 -1.076895)) (layer F.SilkS) (width 0.175))
  (fp_curve (pts (xy -5.719455 -1.076895) (xy -5.711518 -1.109635) (xy -5.692087 -1.137273) (xy -5.666249 -1.15258)) (layer F.SilkS) (width 0.175))
  (fp_curve (pts (xy -5.666249 -1.15258) (xy -5.639476 -1.168454) (xy -5.611455 -1.173131) (xy -5.543253 -1.173131)) (layer F.SilkS) (width 0.175))
  (fp_curve (pts (xy -5.543253 -1.173131) (xy -5.494795 -1.173188) (xy -5.476271 -1.172195) (xy -5.460283 -1.168879)) (layer F.SilkS) (width 0.175))
  (fp_curve (pts (xy -5.460283 -1.168879) (xy -5.406085 -1.154706) (xy -5.37788 -1.126784) (xy -5.364557 -1.071934)) (layer F.SilkS) (width 0.175))
  (fp_curve (pts (xy -5.364557 -1.071934) (xy -5.359455 -1.050674) (xy -5.359172 -0.993556) (xy -5.359172 0.088697)) (layer F.SilkS) (width 0.175))
  (fp_curve (pts (xy -5.359172 0.088697) (xy -5.359172 1.226964) (xy -5.359172 1.226964) (xy -5.365975 1.252504)) (layer F.SilkS) (width 0.175))
  (fp_curve (pts (xy -5.365975 1.252504) (xy -5.36966 1.266677) (xy -5.376179 1.283827) (xy -5.380261 1.290771)) (layer F.SilkS) (width 0.175))
  (fp_curve (pts (xy 3.392539 -0.462584) (xy 3.392539 -0.360537) (xy 3.363753 -0.316728) (xy 3.285517 -0.299592)) (layer F.SilkS) (width 0.175))
  (fp_curve (pts (xy 3.285517 -0.299592) (xy 3.265901 -0.29534) (xy 3.214467 -0.29534) (xy 2.861447 -0.292506)) (layer F.SilkS) (width 0.175))
  (fp_curve (pts (xy 2.861447 -0.292506) (xy 2.495657 -0.291088) (xy 2.45856 -0.289671) (xy 2.446887 -0.285419)) (layer F.SilkS) (width 0.175))
  (fp_curve (pts (xy -9.061545 -1.173471) (xy -8.769932 -1.173443) (xy -8.720273 -1.172054) (xy -8.623283 -1.160715)) (layer F.SilkS) (width 0.175))
  (fp_curve (pts (xy -8.623283 -1.160715) (xy -8.498389 -1.146542) (xy -8.396236 -1.114085) (xy -8.31154 -1.061503)) (layer F.SilkS) (width 0.175))
  (fp_curve (pts (xy -8.31154 -1.061503) (xy -8.174499 -0.976463) (xy -8.077152 -0.82875) (xy -8.036234 -0.643647)) (layer F.SilkS) (width 0.175))
  (fp_curve (pts (xy -8.036234 -0.643647) (xy -8.022627 -0.582277) (xy -8.019353 -0.546703) (xy -8.019353 -0.462556)) (layer F.SilkS) (width 0.175))
  (fp_curve (pts (xy 5.571027 1.102466) (xy 5.497482 1.273055) (xy 5.477384 1.314568) (xy 5.45723 1.337628)) (layer F.SilkS) (width 0.175))
  (fp_curve (pts (xy 5.45723 1.337628) (xy 5.433475 1.364841) (xy 5.400296 1.375471) (xy 5.374501 1.364274)) (layer F.SilkS) (width 0.175))
  (fp_line (start 1.01429 1.369164) (end 1.014302 1.36905) (layer F.SilkS) (width 0.175))
  (fp_curve (pts (xy 2.139446 1.350625) (xy 2.050197 1.346373) (xy 2.022417 1.317885) (xy 2.021935 1.244751)) (layer F.SilkS) (width 0.175))
  (fp_curve (pts (xy 2.870403 0.510762) (xy 2.444744 0.512179) (xy 2.459359 0.503675) (xy 2.432399 0.517849)) (layer F.SilkS) (width 0.175))
  (fp_curve (pts (xy 2.432399 0.517849) (xy 2.411579 0.529187) (xy 2.393139 0.558951) (xy 2.391198 0.590983)) (layer F.SilkS) (width 0.175))
  (fp_line (start 5.374501 1.364274) (end 5.374469 1.364798) (layer F.SilkS) (width 0.175))
  (fp_curve (pts (xy 2.016833 0.461751) (xy 2.010597 -0.483362) (xy 2.028172 -0.501291) (xy 2.031701 -0.52034)) (layer F.SilkS) (width 0.175))
  (fp_curve (pts (xy 2.031701 -0.52034) (xy 2.042472 -0.579584) (xy 2.071797 -0.611474) (xy 2.128702 -0.626214)) (layer F.SilkS) (width 0.175))
  (fp_curve (pts (xy 3.324522 -0.615301) (xy 3.372739 -0.592199) (xy 3.392539 -0.547836) (xy 3.392539 -0.462584)) (layer F.SilkS) (width 0.175))
  (fp_curve (pts (xy 6.116273 -0.995909) (xy 6.164718 -1.110712) (xy 6.190286 -1.151106) (xy 6.224401 -1.166824)) (layer F.SilkS) (width 0.175))
  (fp_curve (pts (xy 6.224401 -1.166824) (xy 6.266552 -1.186241) (xy 6.302736 -1.150666) (xy 6.32496 -1.068178)) (layer F.SilkS) (width 0.175))
  (fp_curve (pts (xy 6.68268 0.75243) (xy 6.727778 0.983425) (xy 6.766188 1.184756) (xy 6.768031 1.199822)) (layer F.SilkS) (width 0.175))
  (fp_curve (pts (xy 6.768031 1.199822) (xy 6.774692 1.254389) (xy 6.76672 1.287412) (xy 6.740265 1.3142)) (layer F.SilkS) (width 0.175))
  (fp_curve (pts (xy 7.503671 1.238628) (xy 7.498852 1.214959) (xy 7.496159 -0.954211) (xy 7.500978 -1.0204)) (layer F.SilkS) (width 0.175))
  (fp_curve (pts (xy 7.500978 -1.0204) (xy 7.502821 -1.044636) (xy 7.50608 -1.071566) (xy 7.508348 -1.080211)) (layer F.SilkS) (width 0.175))
  (fp_curve (pts (xy 7.508348 -1.080211) (xy 7.521813 -1.130243) (xy 7.555106 -1.159723) (xy 7.609701 -1.170211)) (layer F.SilkS) (width 0.175))
  (fp_curve (pts (xy 7.609701 -1.170211) (xy 7.626156 -1.173046) (xy 7.745339 -1.174463) (xy 8.18739 -1.174463)) (layer F.SilkS) (width 0.175))
  (fp_curve (pts (xy -3.194142 0.438337) (xy -3.393716 0.438337) (xy -3.551987 0.280079) (xy -3.551987 0.080505)) (layer F.SilkS) (width 0.175))
)
