(module mousebite_0.5 (layer F.Cu) (tedit 5E58EF07)
  (fp_text reference REF** (at 0 1.8288) (layer F.SilkS)
    (effects (font (size 1 1) (thickness 0.15)))
  )
  (fp_text value mousebite_0.5 (at 0.0508 -1.8288) (layer F.Fab)
    (effects (font (size 1 1) (thickness 0.15)))
  )
  (pad "" np_thru_hole circle (at 0 0) (size 0.5 0.5) (drill 0.5) (layers *.Cu *.Mask))
)
