%TF.GenerationSoftware,KiCad,Pcbnew,6.0.5-a6ca702e91~116~ubuntu20.04.1*%
%TF.CreationDate,2022-06-08T18:51:39+02:00*%
%TF.ProjectId,dripples,64726970-706c-4657-932e-6b696361645f,1*%
%TF.SameCoordinates,Original*%
%TF.FileFunction,Legend,Bot*%
%TF.FilePolarity,Positive*%
%FSLAX46Y46*%
G04 Gerber Fmt 4.6, Leading zero omitted, Abs format (unit mm)*
G04 Created by KiCad (PCBNEW 6.0.5-a6ca702e91~116~ubuntu20.04.1) date 2022-06-08 18:51:39*
%MOMM*%
%LPD*%
G01*
G04 APERTURE LIST*
%ADD10C,0.120000*%
%ADD11C,0.150000*%
G04 APERTURE END LIST*
D10*
X96139000Y-136779000D02*
X96139000Y-150241000D01*
X100711000Y-131318000D02*
X94742000Y-131318000D01*
X96266000Y-103124000D02*
X96266000Y-87376000D01*
X99441000Y-147574000D02*
X99441000Y-150241000D01*
X100711000Y-122682000D02*
X100711000Y-122809000D01*
X94742000Y-122682000D02*
X100711000Y-122682000D01*
X100711000Y-122809000D02*
X100711000Y-131318000D01*
X94742000Y-131318000D02*
X94742000Y-122682000D01*
X99314000Y-87376000D02*
X99314000Y-103124000D01*
X99441000Y-136779000D02*
X99441000Y-147574000D01*
X99441000Y-150241000D02*
X96139000Y-150241000D01*
X96266000Y-87376000D02*
X99314000Y-87376000D01*
X99314000Y-103124000D02*
X96266000Y-103124000D01*
X99441000Y-136779000D02*
X96139000Y-136779000D01*
D11*
%TO.C,J2*%
X99782380Y-102028666D02*
X100496666Y-102028666D01*
X100639523Y-101981047D01*
X100734761Y-101885809D01*
X100782380Y-101742952D01*
X100782380Y-101647714D01*
X99877619Y-102457238D02*
X99830000Y-102504857D01*
X99782380Y-102600095D01*
X99782380Y-102838190D01*
X99830000Y-102933428D01*
X99877619Y-102981047D01*
X99972857Y-103028666D01*
X100068095Y-103028666D01*
X100210952Y-102981047D01*
X100782380Y-102409619D01*
X100782380Y-103028666D01*
X100258571Y-87820952D02*
X100258571Y-87487619D01*
X100782380Y-87487619D02*
X99782380Y-87487619D01*
X99782380Y-87963809D01*
X100782380Y-88344761D02*
X99782380Y-88344761D01*
X100782380Y-89297142D02*
X100782380Y-88820952D01*
X99782380Y-88820952D01*
X99782380Y-89487619D02*
X99782380Y-90059047D01*
X100782380Y-89773333D02*
X99782380Y-89773333D01*
X100258571Y-90392380D02*
X100258571Y-90725714D01*
X100782380Y-90868571D02*
X100782380Y-90392380D01*
X99782380Y-90392380D01*
X99782380Y-90868571D01*
X100782380Y-91868571D02*
X100306190Y-91535238D01*
X100782380Y-91297142D02*
X99782380Y-91297142D01*
X99782380Y-91678095D01*
X99830000Y-91773333D01*
X99877619Y-91820952D01*
X99972857Y-91868571D01*
X100115714Y-91868571D01*
X100210952Y-91820952D01*
X100258571Y-91773333D01*
X100306190Y-91678095D01*
X100306190Y-91297142D01*
X100877619Y-92059047D02*
X100877619Y-92820952D01*
X99782380Y-92916190D02*
X99782380Y-93487619D01*
X100782380Y-93201904D02*
X99782380Y-93201904D01*
X99782380Y-94011428D02*
X99782380Y-94201904D01*
X99830000Y-94297142D01*
X99925238Y-94392380D01*
X100115714Y-94440000D01*
X100449047Y-94440000D01*
X100639523Y-94392380D01*
X100734761Y-94297142D01*
X100782380Y-94201904D01*
X100782380Y-94011428D01*
X100734761Y-93916190D01*
X100639523Y-93820952D01*
X100449047Y-93773333D01*
X100115714Y-93773333D01*
X99925238Y-93820952D01*
X99830000Y-93916190D01*
X99782380Y-94011428D01*
X100782380Y-94868571D02*
X99782380Y-94868571D01*
X99782380Y-95249523D01*
X99830000Y-95344761D01*
X99877619Y-95392380D01*
X99972857Y-95440000D01*
X100115714Y-95440000D01*
X100210952Y-95392380D01*
X100258571Y-95344761D01*
X100306190Y-95249523D01*
X100306190Y-94868571D01*
%TO.C,J1*%
X93305380Y-123110666D02*
X94019666Y-123110666D01*
X94162523Y-123063047D01*
X94257761Y-122967809D01*
X94305380Y-122824952D01*
X94305380Y-122729714D01*
X94305380Y-124110666D02*
X94305380Y-123539238D01*
X94305380Y-123824952D02*
X93305380Y-123824952D01*
X93448238Y-123729714D01*
X93543476Y-123634476D01*
X93591095Y-123539238D01*
X102052380Y-122650761D02*
X101052380Y-122650761D01*
X101052380Y-123031714D01*
X101100000Y-123126952D01*
X101147619Y-123174571D01*
X101242857Y-123222190D01*
X101385714Y-123222190D01*
X101480952Y-123174571D01*
X101528571Y-123126952D01*
X101576190Y-123031714D01*
X101576190Y-122650761D01*
X101052380Y-123841238D02*
X101052380Y-124031714D01*
X101100000Y-124126952D01*
X101195238Y-124222190D01*
X101385714Y-124269809D01*
X101719047Y-124269809D01*
X101909523Y-124222190D01*
X102004761Y-124126952D01*
X102052380Y-124031714D01*
X102052380Y-123841238D01*
X102004761Y-123746000D01*
X101909523Y-123650761D01*
X101719047Y-123603142D01*
X101385714Y-123603142D01*
X101195238Y-123650761D01*
X101100000Y-123746000D01*
X101052380Y-123841238D01*
X101052380Y-124603142D02*
X102052380Y-124841238D01*
X101338095Y-125031714D01*
X102052380Y-125222190D01*
X101052380Y-125460285D01*
X101528571Y-125841238D02*
X101528571Y-126174571D01*
X102052380Y-126317428D02*
X102052380Y-125841238D01*
X101052380Y-125841238D01*
X101052380Y-126317428D01*
X102052380Y-127317428D02*
X101576190Y-126984095D01*
X102052380Y-126746000D02*
X101052380Y-126746000D01*
X101052380Y-127126952D01*
X101100000Y-127222190D01*
X101147619Y-127269809D01*
X101242857Y-127317428D01*
X101385714Y-127317428D01*
X101480952Y-127269809D01*
X101528571Y-127222190D01*
X101576190Y-127126952D01*
X101576190Y-126746000D01*
X102147619Y-127507904D02*
X102147619Y-128269809D01*
X101052380Y-128365047D02*
X101052380Y-128936476D01*
X102052380Y-128650761D02*
X101052380Y-128650761D01*
X101052380Y-129460285D02*
X101052380Y-129650761D01*
X101100000Y-129746000D01*
X101195238Y-129841238D01*
X101385714Y-129888857D01*
X101719047Y-129888857D01*
X101909523Y-129841238D01*
X102004761Y-129746000D01*
X102052380Y-129650761D01*
X102052380Y-129460285D01*
X102004761Y-129365047D01*
X101909523Y-129269809D01*
X101719047Y-129222190D01*
X101385714Y-129222190D01*
X101195238Y-129269809D01*
X101100000Y-129365047D01*
X101052380Y-129460285D01*
X102052380Y-130317428D02*
X101052380Y-130317428D01*
X101052380Y-130698380D01*
X101100000Y-130793619D01*
X101147619Y-130841238D01*
X101242857Y-130888857D01*
X101385714Y-130888857D01*
X101480952Y-130841238D01*
X101528571Y-130793619D01*
X101576190Y-130698380D01*
X101576190Y-130317428D01*
%TO.C,J3*%
X99909380Y-149145666D02*
X100623666Y-149145666D01*
X100766523Y-149098047D01*
X100861761Y-149002809D01*
X100909380Y-148859952D01*
X100909380Y-148764714D01*
X99909380Y-149526619D02*
X99909380Y-150145666D01*
X100290333Y-149812333D01*
X100290333Y-149955190D01*
X100337952Y-150050428D01*
X100385571Y-150098047D01*
X100480809Y-150145666D01*
X100718904Y-150145666D01*
X100814142Y-150098047D01*
X100861761Y-150050428D01*
X100909380Y-149955190D01*
X100909380Y-149669476D01*
X100861761Y-149574238D01*
X100814142Y-149526619D01*
X100814142Y-137382714D02*
X100861761Y-137335095D01*
X100909380Y-137192238D01*
X100909380Y-137097000D01*
X100861761Y-136954142D01*
X100766523Y-136858904D01*
X100671285Y-136811285D01*
X100480809Y-136763666D01*
X100337952Y-136763666D01*
X100147476Y-136811285D01*
X100052238Y-136858904D01*
X99957000Y-136954142D01*
X99909380Y-137097000D01*
X99909380Y-137192238D01*
X99957000Y-137335095D01*
X100004619Y-137382714D01*
X99909380Y-137668428D02*
X100909380Y-138001761D01*
X99909380Y-138335095D01*
X101004619Y-138430333D02*
X101004619Y-139192238D01*
X99909380Y-139620809D02*
X99909380Y-139811285D01*
X99957000Y-139906523D01*
X100052238Y-140001761D01*
X100242714Y-140049380D01*
X100576047Y-140049380D01*
X100766523Y-140001761D01*
X100861761Y-139906523D01*
X100909380Y-139811285D01*
X100909380Y-139620809D01*
X100861761Y-139525571D01*
X100766523Y-139430333D01*
X100576047Y-139382714D01*
X100242714Y-139382714D01*
X100052238Y-139430333D01*
X99957000Y-139525571D01*
X99909380Y-139620809D01*
X99909380Y-140477952D02*
X100718904Y-140477952D01*
X100814142Y-140525571D01*
X100861761Y-140573190D01*
X100909380Y-140668428D01*
X100909380Y-140858904D01*
X100861761Y-140954142D01*
X100814142Y-141001761D01*
X100718904Y-141049380D01*
X99909380Y-141049380D01*
X99909380Y-141382714D02*
X99909380Y-141954142D01*
X100909380Y-141668428D02*
X99909380Y-141668428D01*
X101004619Y-142049380D02*
X101004619Y-142811285D01*
X99909380Y-142906523D02*
X99909380Y-143477952D01*
X100909380Y-143192238D02*
X99909380Y-143192238D01*
X99909380Y-144001761D02*
X99909380Y-144192238D01*
X99957000Y-144287476D01*
X100052238Y-144382714D01*
X100242714Y-144430333D01*
X100576047Y-144430333D01*
X100766523Y-144382714D01*
X100861761Y-144287476D01*
X100909380Y-144192238D01*
X100909380Y-144001761D01*
X100861761Y-143906523D01*
X100766523Y-143811285D01*
X100576047Y-143763666D01*
X100242714Y-143763666D01*
X100052238Y-143811285D01*
X99957000Y-143906523D01*
X99909380Y-144001761D01*
X100909380Y-144858904D02*
X99909380Y-144858904D01*
X99909380Y-145239857D01*
X99957000Y-145335095D01*
X100004619Y-145382714D01*
X100099857Y-145430333D01*
X100242714Y-145430333D01*
X100337952Y-145382714D01*
X100385571Y-145335095D01*
X100433190Y-145239857D01*
X100433190Y-144858904D01*
%TO.C,J5*%
X90939714Y-148042380D02*
X90749238Y-148042380D01*
X90654000Y-148090000D01*
X90558761Y-148185238D01*
X90511142Y-148375714D01*
X90511142Y-148709047D01*
X90558761Y-148899523D01*
X90654000Y-148994761D01*
X90749238Y-149042380D01*
X90939714Y-149042380D01*
X91034952Y-148994761D01*
X91130190Y-148899523D01*
X91177809Y-148709047D01*
X91177809Y-148375714D01*
X91130190Y-148185238D01*
X91034952Y-148090000D01*
X90939714Y-148042380D01*
X90082571Y-148042380D02*
X90082571Y-148851904D01*
X90034952Y-148947142D01*
X89987333Y-148994761D01*
X89892095Y-149042380D01*
X89701619Y-149042380D01*
X89606380Y-148994761D01*
X89558761Y-148947142D01*
X89511142Y-148851904D01*
X89511142Y-148042380D01*
X89177809Y-148042380D02*
X88606380Y-148042380D01*
X88892095Y-149042380D02*
X88892095Y-148042380D01*
X88511142Y-149137619D02*
X87749238Y-149137619D01*
X87034952Y-149042380D02*
X87511142Y-149042380D01*
X87511142Y-148042380D01*
%TO.C,J17*%
X133841714Y-142692380D02*
X133841714Y-141692380D01*
X133365523Y-142692380D02*
X133365523Y-141692380D01*
X132794095Y-142692380D01*
X132794095Y-141692380D01*
X132317904Y-142692380D02*
X132317904Y-141692380D01*
X131936952Y-141692380D01*
X131841714Y-141740000D01*
X131794095Y-141787619D01*
X131746476Y-141882857D01*
X131746476Y-142025714D01*
X131794095Y-142120952D01*
X131841714Y-142168571D01*
X131936952Y-142216190D01*
X132317904Y-142216190D01*
X131317904Y-141692380D02*
X131317904Y-142501904D01*
X131270285Y-142597142D01*
X131222666Y-142644761D01*
X131127428Y-142692380D01*
X130936952Y-142692380D01*
X130841714Y-142644761D01*
X130794095Y-142597142D01*
X130746476Y-142501904D01*
X130746476Y-141692380D01*
X130413142Y-141692380D02*
X129841714Y-141692380D01*
X130127428Y-142692380D02*
X130127428Y-141692380D01*
X129556000Y-141787619D02*
X129508380Y-141740000D01*
X129413142Y-141692380D01*
X129175047Y-141692380D01*
X129079809Y-141740000D01*
X129032190Y-141787619D01*
X128984571Y-141882857D01*
X128984571Y-141978095D01*
X129032190Y-142120952D01*
X129603619Y-142692380D01*
X128984571Y-142692380D01*
X128794095Y-142787619D02*
X128032190Y-142787619D01*
X127460761Y-142168571D02*
X127317904Y-142216190D01*
X127270285Y-142263809D01*
X127222666Y-142359047D01*
X127222666Y-142501904D01*
X127270285Y-142597142D01*
X127317904Y-142644761D01*
X127413142Y-142692380D01*
X127794095Y-142692380D01*
X127794095Y-141692380D01*
X127460761Y-141692380D01*
X127365523Y-141740000D01*
X127317904Y-141787619D01*
X127270285Y-141882857D01*
X127270285Y-141978095D01*
X127317904Y-142073333D01*
X127365523Y-142120952D01*
X127460761Y-142168571D01*
X127794095Y-142168571D01*
%TO.C,J15*%
X127333047Y-116768571D02*
X127666380Y-116768571D01*
X127666380Y-117292380D02*
X127666380Y-116292380D01*
X127190190Y-116292380D01*
X126809238Y-117292380D02*
X126809238Y-116292380D01*
X126475904Y-117006666D01*
X126142571Y-116292380D01*
X126142571Y-117292380D01*
X125904476Y-117387619D02*
X125142571Y-117387619D01*
X124333047Y-117197142D02*
X124380666Y-117244761D01*
X124523523Y-117292380D01*
X124618761Y-117292380D01*
X124761619Y-117244761D01*
X124856857Y-117149523D01*
X124904476Y-117054285D01*
X124952095Y-116863809D01*
X124952095Y-116720952D01*
X124904476Y-116530476D01*
X124856857Y-116435238D01*
X124761619Y-116340000D01*
X124618761Y-116292380D01*
X124523523Y-116292380D01*
X124380666Y-116340000D01*
X124333047Y-116387619D01*
X124047333Y-116292380D02*
X123714000Y-117292380D01*
X123380666Y-116292380D01*
X123285428Y-117387619D02*
X122523523Y-117387619D01*
X121952095Y-116768571D02*
X121809238Y-116816190D01*
X121761619Y-116863809D01*
X121714000Y-116959047D01*
X121714000Y-117101904D01*
X121761619Y-117197142D01*
X121809238Y-117244761D01*
X121904476Y-117292380D01*
X122285428Y-117292380D01*
X122285428Y-116292380D01*
X121952095Y-116292380D01*
X121856857Y-116340000D01*
X121809238Y-116387619D01*
X121761619Y-116482857D01*
X121761619Y-116578095D01*
X121809238Y-116673333D01*
X121856857Y-116720952D01*
X121952095Y-116768571D01*
X122285428Y-116768571D01*
%TO.C,J16*%
X106457380Y-72842380D02*
X107028809Y-72842380D01*
X106743095Y-72842380D02*
X106743095Y-71842380D01*
X106838333Y-71985238D01*
X106933571Y-72080476D01*
X107028809Y-72128095D01*
X106171666Y-71842380D02*
X105838333Y-72842380D01*
X105505000Y-71842380D01*
X104457380Y-71794761D02*
X105314523Y-73080476D01*
X103933571Y-71842380D02*
X103743095Y-71842380D01*
X103647857Y-71890000D01*
X103552619Y-71985238D01*
X103505000Y-72175714D01*
X103505000Y-72509047D01*
X103552619Y-72699523D01*
X103647857Y-72794761D01*
X103743095Y-72842380D01*
X103933571Y-72842380D01*
X104028809Y-72794761D01*
X104124047Y-72699523D01*
X104171666Y-72509047D01*
X104171666Y-72175714D01*
X104124047Y-71985238D01*
X104028809Y-71890000D01*
X103933571Y-71842380D01*
X102505000Y-72747142D02*
X102552619Y-72794761D01*
X102695476Y-72842380D01*
X102790714Y-72842380D01*
X102933571Y-72794761D01*
X103028809Y-72699523D01*
X103076428Y-72604285D01*
X103124047Y-72413809D01*
X103124047Y-72270952D01*
X103076428Y-72080476D01*
X103028809Y-71985238D01*
X102933571Y-71890000D01*
X102790714Y-71842380D01*
X102695476Y-71842380D01*
X102552619Y-71890000D01*
X102505000Y-71937619D01*
X102219285Y-71842380D02*
X101647857Y-71842380D01*
X101933571Y-72842380D02*
X101933571Y-71842380D01*
X101552619Y-72937619D02*
X100790714Y-72937619D01*
X100219285Y-72318571D02*
X100076428Y-72366190D01*
X100028809Y-72413809D01*
X99981190Y-72509047D01*
X99981190Y-72651904D01*
X100028809Y-72747142D01*
X100076428Y-72794761D01*
X100171666Y-72842380D01*
X100552619Y-72842380D01*
X100552619Y-71842380D01*
X100219285Y-71842380D01*
X100124047Y-71890000D01*
X100076428Y-71937619D01*
X100028809Y-72032857D01*
X100028809Y-72128095D01*
X100076428Y-72223333D01*
X100124047Y-72270952D01*
X100219285Y-72318571D01*
X100552619Y-72318571D01*
%TO.C,J18*%
X133841714Y-149042380D02*
X133841714Y-148042380D01*
X133365523Y-149042380D02*
X133365523Y-148042380D01*
X132794095Y-149042380D01*
X132794095Y-148042380D01*
X132317904Y-149042380D02*
X132317904Y-148042380D01*
X131936952Y-148042380D01*
X131841714Y-148090000D01*
X131794095Y-148137619D01*
X131746476Y-148232857D01*
X131746476Y-148375714D01*
X131794095Y-148470952D01*
X131841714Y-148518571D01*
X131936952Y-148566190D01*
X132317904Y-148566190D01*
X131317904Y-148042380D02*
X131317904Y-148851904D01*
X131270285Y-148947142D01*
X131222666Y-148994761D01*
X131127428Y-149042380D01*
X130936952Y-149042380D01*
X130841714Y-148994761D01*
X130794095Y-148947142D01*
X130746476Y-148851904D01*
X130746476Y-148042380D01*
X130413142Y-148042380D02*
X129841714Y-148042380D01*
X130127428Y-149042380D02*
X130127428Y-148042380D01*
X128984571Y-149042380D02*
X129556000Y-149042380D01*
X129270285Y-149042380D02*
X129270285Y-148042380D01*
X129365523Y-148185238D01*
X129460761Y-148280476D01*
X129556000Y-148328095D01*
X128794095Y-149137619D02*
X128032190Y-149137619D01*
X127460761Y-148518571D02*
X127317904Y-148566190D01*
X127270285Y-148613809D01*
X127222666Y-148709047D01*
X127222666Y-148851904D01*
X127270285Y-148947142D01*
X127317904Y-148994761D01*
X127413142Y-149042380D01*
X127794095Y-149042380D01*
X127794095Y-148042380D01*
X127460761Y-148042380D01*
X127365523Y-148090000D01*
X127317904Y-148137619D01*
X127270285Y-148232857D01*
X127270285Y-148328095D01*
X127317904Y-148423333D01*
X127365523Y-148470952D01*
X127460761Y-148518571D01*
X127794095Y-148518571D01*
%TO.C,J10*%
X73667619Y-116768571D02*
X74000952Y-116768571D01*
X74000952Y-117292380D02*
X74000952Y-116292380D01*
X73524761Y-116292380D01*
X73143809Y-117292380D02*
X73143809Y-116292380D01*
X72810476Y-117006666D01*
X72477142Y-116292380D01*
X72477142Y-117292380D01*
X72239047Y-117387619D02*
X71477142Y-117387619D01*
X70667619Y-117197142D02*
X70715238Y-117244761D01*
X70858095Y-117292380D01*
X70953333Y-117292380D01*
X71096190Y-117244761D01*
X71191428Y-117149523D01*
X71239047Y-117054285D01*
X71286666Y-116863809D01*
X71286666Y-116720952D01*
X71239047Y-116530476D01*
X71191428Y-116435238D01*
X71096190Y-116340000D01*
X70953333Y-116292380D01*
X70858095Y-116292380D01*
X70715238Y-116340000D01*
X70667619Y-116387619D01*
X70381904Y-116292380D02*
X70048571Y-117292380D01*
X69715238Y-116292380D01*
X69620000Y-117387619D02*
X68858095Y-117387619D01*
X68667619Y-117006666D02*
X68191428Y-117006666D01*
X68762857Y-117292380D02*
X68429523Y-116292380D01*
X68096190Y-117292380D01*
%TO.C,J11*%
X94955952Y-66492380D02*
X95527380Y-66492380D01*
X95241666Y-66492380D02*
X95241666Y-65492380D01*
X95336904Y-65635238D01*
X95432142Y-65730476D01*
X95527380Y-65778095D01*
X94670238Y-65492380D02*
X94336904Y-66492380D01*
X94003571Y-65492380D01*
X92955952Y-65444761D02*
X93813095Y-66730476D01*
X92432142Y-65492380D02*
X92241666Y-65492380D01*
X92146428Y-65540000D01*
X92051190Y-65635238D01*
X92003571Y-65825714D01*
X92003571Y-66159047D01*
X92051190Y-66349523D01*
X92146428Y-66444761D01*
X92241666Y-66492380D01*
X92432142Y-66492380D01*
X92527380Y-66444761D01*
X92622619Y-66349523D01*
X92670238Y-66159047D01*
X92670238Y-65825714D01*
X92622619Y-65635238D01*
X92527380Y-65540000D01*
X92432142Y-65492380D01*
X91003571Y-66397142D02*
X91051190Y-66444761D01*
X91194047Y-66492380D01*
X91289285Y-66492380D01*
X91432142Y-66444761D01*
X91527380Y-66349523D01*
X91575000Y-66254285D01*
X91622619Y-66063809D01*
X91622619Y-65920952D01*
X91575000Y-65730476D01*
X91527380Y-65635238D01*
X91432142Y-65540000D01*
X91289285Y-65492380D01*
X91194047Y-65492380D01*
X91051190Y-65540000D01*
X91003571Y-65587619D01*
X90717857Y-65492380D02*
X90146428Y-65492380D01*
X90432142Y-66492380D02*
X90432142Y-65492380D01*
X90051190Y-66587619D02*
X89289285Y-66587619D01*
X89098809Y-66206666D02*
X88622619Y-66206666D01*
X89194047Y-66492380D02*
X88860714Y-65492380D01*
X88527380Y-66492380D01*
%TO.C,J12*%
X68238285Y-142692380D02*
X68238285Y-141692380D01*
X67762095Y-142692380D02*
X67762095Y-141692380D01*
X67190666Y-142692380D01*
X67190666Y-141692380D01*
X66714476Y-142692380D02*
X66714476Y-141692380D01*
X66333523Y-141692380D01*
X66238285Y-141740000D01*
X66190666Y-141787619D01*
X66143047Y-141882857D01*
X66143047Y-142025714D01*
X66190666Y-142120952D01*
X66238285Y-142168571D01*
X66333523Y-142216190D01*
X66714476Y-142216190D01*
X65714476Y-141692380D02*
X65714476Y-142501904D01*
X65666857Y-142597142D01*
X65619238Y-142644761D01*
X65524000Y-142692380D01*
X65333523Y-142692380D01*
X65238285Y-142644761D01*
X65190666Y-142597142D01*
X65143047Y-142501904D01*
X65143047Y-141692380D01*
X64809714Y-141692380D02*
X64238285Y-141692380D01*
X64524000Y-142692380D02*
X64524000Y-141692380D01*
X63952571Y-141787619D02*
X63904952Y-141740000D01*
X63809714Y-141692380D01*
X63571619Y-141692380D01*
X63476380Y-141740000D01*
X63428761Y-141787619D01*
X63381142Y-141882857D01*
X63381142Y-141978095D01*
X63428761Y-142120952D01*
X64000190Y-142692380D01*
X63381142Y-142692380D01*
X63190666Y-142787619D02*
X62428761Y-142787619D01*
X62238285Y-142406666D02*
X61762095Y-142406666D01*
X62333523Y-142692380D02*
X62000190Y-141692380D01*
X61666857Y-142692380D01*
%TO.C,J13*%
X68238285Y-149042380D02*
X68238285Y-148042380D01*
X67762095Y-149042380D02*
X67762095Y-148042380D01*
X67190666Y-149042380D01*
X67190666Y-148042380D01*
X66714476Y-149042380D02*
X66714476Y-148042380D01*
X66333523Y-148042380D01*
X66238285Y-148090000D01*
X66190666Y-148137619D01*
X66143047Y-148232857D01*
X66143047Y-148375714D01*
X66190666Y-148470952D01*
X66238285Y-148518571D01*
X66333523Y-148566190D01*
X66714476Y-148566190D01*
X65714476Y-148042380D02*
X65714476Y-148851904D01*
X65666857Y-148947142D01*
X65619238Y-148994761D01*
X65524000Y-149042380D01*
X65333523Y-149042380D01*
X65238285Y-148994761D01*
X65190666Y-148947142D01*
X65143047Y-148851904D01*
X65143047Y-148042380D01*
X64809714Y-148042380D02*
X64238285Y-148042380D01*
X64524000Y-149042380D02*
X64524000Y-148042380D01*
X63381142Y-149042380D02*
X63952571Y-149042380D01*
X63666857Y-149042380D02*
X63666857Y-148042380D01*
X63762095Y-148185238D01*
X63857333Y-148280476D01*
X63952571Y-148328095D01*
X63190666Y-149137619D02*
X62428761Y-149137619D01*
X62238285Y-148756666D02*
X61762095Y-148756666D01*
X62333523Y-149042380D02*
X62000190Y-148042380D01*
X61666857Y-149042380D01*
%TO.C,J14*%
X82494095Y-110942380D02*
X82827428Y-110466190D01*
X83065523Y-110942380D02*
X83065523Y-109942380D01*
X82684571Y-109942380D01*
X82589333Y-109990000D01*
X82541714Y-110037619D01*
X82494095Y-110132857D01*
X82494095Y-110275714D01*
X82541714Y-110370952D01*
X82589333Y-110418571D01*
X82684571Y-110466190D01*
X83065523Y-110466190D01*
X82065523Y-110418571D02*
X81732190Y-110418571D01*
X81589333Y-110942380D02*
X82065523Y-110942380D01*
X82065523Y-109942380D01*
X81589333Y-109942380D01*
X81208380Y-110894761D02*
X81065523Y-110942380D01*
X80827428Y-110942380D01*
X80732190Y-110894761D01*
X80684571Y-110847142D01*
X80636952Y-110751904D01*
X80636952Y-110656666D01*
X80684571Y-110561428D01*
X80732190Y-110513809D01*
X80827428Y-110466190D01*
X81017904Y-110418571D01*
X81113142Y-110370952D01*
X81160761Y-110323333D01*
X81208380Y-110228095D01*
X81208380Y-110132857D01*
X81160761Y-110037619D01*
X81113142Y-109990000D01*
X81017904Y-109942380D01*
X80779809Y-109942380D01*
X80636952Y-109990000D01*
X80446476Y-111037619D02*
X79684571Y-111037619D01*
X78875047Y-110847142D02*
X78922666Y-110894761D01*
X79065523Y-110942380D01*
X79160761Y-110942380D01*
X79303619Y-110894761D01*
X79398857Y-110799523D01*
X79446476Y-110704285D01*
X79494095Y-110513809D01*
X79494095Y-110370952D01*
X79446476Y-110180476D01*
X79398857Y-110085238D01*
X79303619Y-109990000D01*
X79160761Y-109942380D01*
X79065523Y-109942380D01*
X78922666Y-109990000D01*
X78875047Y-110037619D01*
X78589333Y-109942380D02*
X78256000Y-110942380D01*
X77922666Y-109942380D01*
X77827428Y-111037619D02*
X77065523Y-111037619D01*
X76875047Y-110656666D02*
X76398857Y-110656666D01*
X76970285Y-110942380D02*
X76636952Y-109942380D01*
X76303619Y-110942380D01*
%TO.C,J21*%
X68801809Y-168044761D02*
X68658952Y-168092380D01*
X68420857Y-168092380D01*
X68325619Y-168044761D01*
X68278000Y-167997142D01*
X68230380Y-167901904D01*
X68230380Y-167806666D01*
X68278000Y-167711428D01*
X68325619Y-167663809D01*
X68420857Y-167616190D01*
X68611333Y-167568571D01*
X68706571Y-167520952D01*
X68754190Y-167473333D01*
X68801809Y-167378095D01*
X68801809Y-167282857D01*
X68754190Y-167187619D01*
X68706571Y-167140000D01*
X68611333Y-167092380D01*
X68373238Y-167092380D01*
X68230380Y-167140000D01*
X67230380Y-167997142D02*
X67278000Y-168044761D01*
X67420857Y-168092380D01*
X67516095Y-168092380D01*
X67658952Y-168044761D01*
X67754190Y-167949523D01*
X67801809Y-167854285D01*
X67849428Y-167663809D01*
X67849428Y-167520952D01*
X67801809Y-167330476D01*
X67754190Y-167235238D01*
X67658952Y-167140000D01*
X67516095Y-167092380D01*
X67420857Y-167092380D01*
X67278000Y-167140000D01*
X67230380Y-167187619D01*
X66849428Y-167806666D02*
X66373238Y-167806666D01*
X66944666Y-168092380D02*
X66611333Y-167092380D01*
X66278000Y-168092380D01*
X65944666Y-168092380D02*
X65944666Y-167092380D01*
X65373238Y-168092380D01*
X65373238Y-167092380D01*
X64373238Y-168092380D02*
X64944666Y-168092380D01*
X64658952Y-168092380D02*
X64658952Y-167092380D01*
X64754190Y-167235238D01*
X64849428Y-167330476D01*
X64944666Y-167378095D01*
X64182761Y-168187619D02*
X63420857Y-168187619D01*
X62611333Y-167997142D02*
X62658952Y-168044761D01*
X62801809Y-168092380D01*
X62897047Y-168092380D01*
X63039904Y-168044761D01*
X63135142Y-167949523D01*
X63182761Y-167854285D01*
X63230380Y-167663809D01*
X63230380Y-167520952D01*
X63182761Y-167330476D01*
X63135142Y-167235238D01*
X63039904Y-167140000D01*
X62897047Y-167092380D01*
X62801809Y-167092380D01*
X62658952Y-167140000D01*
X62611333Y-167187619D01*
X62325619Y-167092380D02*
X61992285Y-168092380D01*
X61658952Y-167092380D01*
%TO.C,J22*%
X98535809Y-174442380D02*
X98535809Y-173442380D01*
X98154857Y-173442380D01*
X98059619Y-173490000D01*
X98012000Y-173537619D01*
X97964380Y-173632857D01*
X97964380Y-173775714D01*
X98012000Y-173870952D01*
X98059619Y-173918571D01*
X98154857Y-173966190D01*
X98535809Y-173966190D01*
X97583428Y-174156666D02*
X97107238Y-174156666D01*
X97678666Y-174442380D02*
X97345333Y-173442380D01*
X97012000Y-174442380D01*
X96678666Y-174442380D02*
X96678666Y-173442380D01*
X96107238Y-174442380D01*
X96107238Y-173442380D01*
X95869142Y-174537619D02*
X95107238Y-174537619D01*
X94297714Y-174347142D02*
X94345333Y-174394761D01*
X94488190Y-174442380D01*
X94583428Y-174442380D01*
X94726285Y-174394761D01*
X94821523Y-174299523D01*
X94869142Y-174204285D01*
X94916761Y-174013809D01*
X94916761Y-173870952D01*
X94869142Y-173680476D01*
X94821523Y-173585238D01*
X94726285Y-173490000D01*
X94583428Y-173442380D01*
X94488190Y-173442380D01*
X94345333Y-173490000D01*
X94297714Y-173537619D01*
X94012000Y-173442380D02*
X93678666Y-174442380D01*
X93345333Y-173442380D01*
%TO.C,J23*%
X134079809Y-168044761D02*
X133936952Y-168092380D01*
X133698857Y-168092380D01*
X133603619Y-168044761D01*
X133556000Y-167997142D01*
X133508380Y-167901904D01*
X133508380Y-167806666D01*
X133556000Y-167711428D01*
X133603619Y-167663809D01*
X133698857Y-167616190D01*
X133889333Y-167568571D01*
X133984571Y-167520952D01*
X134032190Y-167473333D01*
X134079809Y-167378095D01*
X134079809Y-167282857D01*
X134032190Y-167187619D01*
X133984571Y-167140000D01*
X133889333Y-167092380D01*
X133651238Y-167092380D01*
X133508380Y-167140000D01*
X132508380Y-167997142D02*
X132556000Y-168044761D01*
X132698857Y-168092380D01*
X132794095Y-168092380D01*
X132936952Y-168044761D01*
X133032190Y-167949523D01*
X133079809Y-167854285D01*
X133127428Y-167663809D01*
X133127428Y-167520952D01*
X133079809Y-167330476D01*
X133032190Y-167235238D01*
X132936952Y-167140000D01*
X132794095Y-167092380D01*
X132698857Y-167092380D01*
X132556000Y-167140000D01*
X132508380Y-167187619D01*
X132127428Y-167806666D02*
X131651238Y-167806666D01*
X132222666Y-168092380D02*
X131889333Y-167092380D01*
X131556000Y-168092380D01*
X131222666Y-168092380D02*
X131222666Y-167092380D01*
X130651238Y-168092380D01*
X130651238Y-167092380D01*
X130222666Y-167187619D02*
X130175047Y-167140000D01*
X130079809Y-167092380D01*
X129841714Y-167092380D01*
X129746476Y-167140000D01*
X129698857Y-167187619D01*
X129651238Y-167282857D01*
X129651238Y-167378095D01*
X129698857Y-167520952D01*
X130270285Y-168092380D01*
X129651238Y-168092380D01*
X129460761Y-168187619D02*
X128698857Y-168187619D01*
X127889333Y-167997142D02*
X127936952Y-168044761D01*
X128079809Y-168092380D01*
X128175047Y-168092380D01*
X128317904Y-168044761D01*
X128413142Y-167949523D01*
X128460761Y-167854285D01*
X128508380Y-167663809D01*
X128508380Y-167520952D01*
X128460761Y-167330476D01*
X128413142Y-167235238D01*
X128317904Y-167140000D01*
X128175047Y-167092380D01*
X128079809Y-167092380D01*
X127936952Y-167140000D01*
X127889333Y-167187619D01*
X127603619Y-167092380D02*
X127270285Y-168092380D01*
X126936952Y-167092380D01*
%TO.C,J4*%
X108306952Y-148042380D02*
X108116476Y-148042380D01*
X108021238Y-148090000D01*
X107926000Y-148185238D01*
X107878380Y-148375714D01*
X107878380Y-148709047D01*
X107926000Y-148899523D01*
X108021238Y-148994761D01*
X108116476Y-149042380D01*
X108306952Y-149042380D01*
X108402190Y-148994761D01*
X108497428Y-148899523D01*
X108545047Y-148709047D01*
X108545047Y-148375714D01*
X108497428Y-148185238D01*
X108402190Y-148090000D01*
X108306952Y-148042380D01*
X107449809Y-148042380D02*
X107449809Y-148851904D01*
X107402190Y-148947142D01*
X107354571Y-148994761D01*
X107259333Y-149042380D01*
X107068857Y-149042380D01*
X106973619Y-148994761D01*
X106926000Y-148947142D01*
X106878380Y-148851904D01*
X106878380Y-148042380D01*
X106545047Y-148042380D02*
X105973619Y-148042380D01*
X106259333Y-149042380D02*
X106259333Y-148042380D01*
X105878380Y-149137619D02*
X105116476Y-149137619D01*
X104306952Y-149042380D02*
X104640285Y-148566190D01*
X104878380Y-149042380D02*
X104878380Y-148042380D01*
X104497428Y-148042380D01*
X104402190Y-148090000D01*
X104354571Y-148137619D01*
X104306952Y-148232857D01*
X104306952Y-148375714D01*
X104354571Y-148470952D01*
X104402190Y-148518571D01*
X104497428Y-148566190D01*
X104878380Y-148566190D01*
%TO.C,J19*%
X118760523Y-110942380D02*
X119093857Y-110466190D01*
X119331952Y-110942380D02*
X119331952Y-109942380D01*
X118951000Y-109942380D01*
X118855761Y-109990000D01*
X118808142Y-110037619D01*
X118760523Y-110132857D01*
X118760523Y-110275714D01*
X118808142Y-110370952D01*
X118855761Y-110418571D01*
X118951000Y-110466190D01*
X119331952Y-110466190D01*
X118331952Y-110418571D02*
X117998619Y-110418571D01*
X117855761Y-110942380D02*
X118331952Y-110942380D01*
X118331952Y-109942380D01*
X117855761Y-109942380D01*
X117474809Y-110894761D02*
X117331952Y-110942380D01*
X117093857Y-110942380D01*
X116998619Y-110894761D01*
X116951000Y-110847142D01*
X116903380Y-110751904D01*
X116903380Y-110656666D01*
X116951000Y-110561428D01*
X116998619Y-110513809D01*
X117093857Y-110466190D01*
X117284333Y-110418571D01*
X117379571Y-110370952D01*
X117427190Y-110323333D01*
X117474809Y-110228095D01*
X117474809Y-110132857D01*
X117427190Y-110037619D01*
X117379571Y-109990000D01*
X117284333Y-109942380D01*
X117046238Y-109942380D01*
X116903380Y-109990000D01*
X116712904Y-111037619D02*
X115951000Y-111037619D01*
X115141476Y-110847142D02*
X115189095Y-110894761D01*
X115331952Y-110942380D01*
X115427190Y-110942380D01*
X115570047Y-110894761D01*
X115665285Y-110799523D01*
X115712904Y-110704285D01*
X115760523Y-110513809D01*
X115760523Y-110370952D01*
X115712904Y-110180476D01*
X115665285Y-110085238D01*
X115570047Y-109990000D01*
X115427190Y-109942380D01*
X115331952Y-109942380D01*
X115189095Y-109990000D01*
X115141476Y-110037619D01*
X114855761Y-109942380D02*
X114522428Y-110942380D01*
X114189095Y-109942380D01*
X114093857Y-111037619D02*
X113331952Y-111037619D01*
X112760523Y-110418571D02*
X112617666Y-110466190D01*
X112570047Y-110513809D01*
X112522428Y-110609047D01*
X112522428Y-110751904D01*
X112570047Y-110847142D01*
X112617666Y-110894761D01*
X112712904Y-110942380D01*
X113093857Y-110942380D01*
X113093857Y-109942380D01*
X112760523Y-109942380D01*
X112665285Y-109990000D01*
X112617666Y-110037619D01*
X112570047Y-110132857D01*
X112570047Y-110228095D01*
X112617666Y-110323333D01*
X112665285Y-110370952D01*
X112760523Y-110418571D01*
X113093857Y-110418571D01*
%TO.C,RV9*%
X131913238Y-84780380D02*
X132246571Y-84304190D01*
X132484666Y-84780380D02*
X132484666Y-83780380D01*
X132103714Y-83780380D01*
X132008476Y-83828000D01*
X131960857Y-83875619D01*
X131913238Y-83970857D01*
X131913238Y-84113714D01*
X131960857Y-84208952D01*
X132008476Y-84256571D01*
X132103714Y-84304190D01*
X132484666Y-84304190D01*
X131627523Y-83780380D02*
X131294190Y-84780380D01*
X130960857Y-83780380D01*
X130579904Y-84780380D02*
X130389428Y-84780380D01*
X130294190Y-84732761D01*
X130246571Y-84685142D01*
X130151333Y-84542285D01*
X130103714Y-84351809D01*
X130103714Y-83970857D01*
X130151333Y-83875619D01*
X130198952Y-83828000D01*
X130294190Y-83780380D01*
X130484666Y-83780380D01*
X130579904Y-83828000D01*
X130627523Y-83875619D01*
X130675142Y-83970857D01*
X130675142Y-84208952D01*
X130627523Y-84304190D01*
X130579904Y-84351809D01*
X130484666Y-84399428D01*
X130294190Y-84399428D01*
X130198952Y-84351809D01*
X130151333Y-84304190D01*
X130103714Y-84208952D01*
%TO.C,RV4*%
X64855238Y-84780380D02*
X65188571Y-84304190D01*
X65426666Y-84780380D02*
X65426666Y-83780380D01*
X65045714Y-83780380D01*
X64950476Y-83828000D01*
X64902857Y-83875619D01*
X64855238Y-83970857D01*
X64855238Y-84113714D01*
X64902857Y-84208952D01*
X64950476Y-84256571D01*
X65045714Y-84304190D01*
X65426666Y-84304190D01*
X64569523Y-83780380D02*
X64236190Y-84780380D01*
X63902857Y-83780380D01*
X63140952Y-84113714D02*
X63140952Y-84780380D01*
X63379047Y-83732761D02*
X63617142Y-84447047D01*
X62998095Y-84447047D01*
%TO.C,J7*%
X190460380Y-88439666D02*
X191174666Y-88439666D01*
X191317523Y-88392047D01*
X191412761Y-88296809D01*
X191460380Y-88153952D01*
X191460380Y-88058714D01*
X190460380Y-88820619D02*
X190460380Y-89487285D01*
X191460380Y-89058714D01*
X195508571Y-87868761D02*
X195508571Y-87535428D01*
X196032380Y-87535428D02*
X195032380Y-87535428D01*
X195032380Y-88011619D01*
X196032380Y-88392571D02*
X195032380Y-88392571D01*
X196032380Y-89344952D02*
X196032380Y-88868761D01*
X195032380Y-88868761D01*
X195032380Y-89535428D02*
X195032380Y-90106857D01*
X196032380Y-89821142D02*
X195032380Y-89821142D01*
X195508571Y-90440190D02*
X195508571Y-90773523D01*
X196032380Y-90916380D02*
X196032380Y-90440190D01*
X195032380Y-90440190D01*
X195032380Y-90916380D01*
X196032380Y-91916380D02*
X195556190Y-91583047D01*
X196032380Y-91344952D02*
X195032380Y-91344952D01*
X195032380Y-91725904D01*
X195080000Y-91821142D01*
X195127619Y-91868761D01*
X195222857Y-91916380D01*
X195365714Y-91916380D01*
X195460952Y-91868761D01*
X195508571Y-91821142D01*
X195556190Y-91725904D01*
X195556190Y-91344952D01*
X196127619Y-92106857D02*
X196127619Y-92868761D01*
X195508571Y-93440190D02*
X195556190Y-93583047D01*
X195603809Y-93630666D01*
X195699047Y-93678285D01*
X195841904Y-93678285D01*
X195937142Y-93630666D01*
X195984761Y-93583047D01*
X196032380Y-93487809D01*
X196032380Y-93106857D01*
X195032380Y-93106857D01*
X195032380Y-93440190D01*
X195080000Y-93535428D01*
X195127619Y-93583047D01*
X195222857Y-93630666D01*
X195318095Y-93630666D01*
X195413333Y-93583047D01*
X195460952Y-93535428D01*
X195508571Y-93440190D01*
X195508571Y-93106857D01*
X195032380Y-94297333D02*
X195032380Y-94487809D01*
X195080000Y-94583047D01*
X195175238Y-94678285D01*
X195365714Y-94725904D01*
X195699047Y-94725904D01*
X195889523Y-94678285D01*
X195984761Y-94583047D01*
X196032380Y-94487809D01*
X196032380Y-94297333D01*
X195984761Y-94202095D01*
X195889523Y-94106857D01*
X195699047Y-94059238D01*
X195365714Y-94059238D01*
X195175238Y-94106857D01*
X195080000Y-94202095D01*
X195032380Y-94297333D01*
X195032380Y-95011619D02*
X195032380Y-95583047D01*
X196032380Y-95297333D02*
X195032380Y-95297333D01*
X195032380Y-95773523D02*
X195032380Y-96344952D01*
X196032380Y-96059238D02*
X195032380Y-96059238D01*
X195032380Y-96868761D02*
X195032380Y-97059238D01*
X195080000Y-97154476D01*
X195175238Y-97249714D01*
X195365714Y-97297333D01*
X195699047Y-97297333D01*
X195889523Y-97249714D01*
X195984761Y-97154476D01*
X196032380Y-97059238D01*
X196032380Y-96868761D01*
X195984761Y-96773523D01*
X195889523Y-96678285D01*
X195699047Y-96630666D01*
X195365714Y-96630666D01*
X195175238Y-96678285D01*
X195080000Y-96773523D01*
X195032380Y-96868761D01*
X196032380Y-97725904D02*
X195032380Y-97725904D01*
X195746666Y-98059238D01*
X195032380Y-98392571D01*
X196032380Y-98392571D01*
%TO.C,J8*%
X189190380Y-124126666D02*
X189904666Y-124126666D01*
X190047523Y-124079047D01*
X190142761Y-123983809D01*
X190190380Y-123840952D01*
X190190380Y-123745714D01*
X189618952Y-124745714D02*
X189571333Y-124650476D01*
X189523714Y-124602857D01*
X189428476Y-124555238D01*
X189380857Y-124555238D01*
X189285619Y-124602857D01*
X189238000Y-124650476D01*
X189190380Y-124745714D01*
X189190380Y-124936190D01*
X189238000Y-125031428D01*
X189285619Y-125079047D01*
X189380857Y-125126666D01*
X189428476Y-125126666D01*
X189523714Y-125079047D01*
X189571333Y-125031428D01*
X189618952Y-124936190D01*
X189618952Y-124745714D01*
X189666571Y-124650476D01*
X189714190Y-124602857D01*
X189809428Y-124555238D01*
X189999904Y-124555238D01*
X190095142Y-124602857D01*
X190142761Y-124650476D01*
X190190380Y-124745714D01*
X190190380Y-124936190D01*
X190142761Y-125031428D01*
X190095142Y-125079047D01*
X189999904Y-125126666D01*
X189809428Y-125126666D01*
X189714190Y-125079047D01*
X189666571Y-125031428D01*
X189618952Y-124936190D01*
X197556380Y-123206571D02*
X196556380Y-123206571D01*
X196556380Y-123587523D01*
X196604000Y-123682761D01*
X196651619Y-123730380D01*
X196746857Y-123778000D01*
X196889714Y-123778000D01*
X196984952Y-123730380D01*
X197032571Y-123682761D01*
X197080190Y-123587523D01*
X197080190Y-123206571D01*
X196556380Y-124397047D02*
X196556380Y-124587523D01*
X196604000Y-124682761D01*
X196699238Y-124778000D01*
X196889714Y-124825619D01*
X197223047Y-124825619D01*
X197413523Y-124778000D01*
X197508761Y-124682761D01*
X197556380Y-124587523D01*
X197556380Y-124397047D01*
X197508761Y-124301809D01*
X197413523Y-124206571D01*
X197223047Y-124158952D01*
X196889714Y-124158952D01*
X196699238Y-124206571D01*
X196604000Y-124301809D01*
X196556380Y-124397047D01*
X196556380Y-125158952D02*
X197556380Y-125397047D01*
X196842095Y-125587523D01*
X197556380Y-125778000D01*
X196556380Y-126016095D01*
X197032571Y-126397047D02*
X197032571Y-126730380D01*
X197556380Y-126873238D02*
X197556380Y-126397047D01*
X196556380Y-126397047D01*
X196556380Y-126873238D01*
X197556380Y-127873238D02*
X197080190Y-127539904D01*
X197556380Y-127301809D02*
X196556380Y-127301809D01*
X196556380Y-127682761D01*
X196604000Y-127778000D01*
X196651619Y-127825619D01*
X196746857Y-127873238D01*
X196889714Y-127873238D01*
X196984952Y-127825619D01*
X197032571Y-127778000D01*
X197080190Y-127682761D01*
X197080190Y-127301809D01*
X197651619Y-128063714D02*
X197651619Y-128825619D01*
X197032571Y-129397047D02*
X197080190Y-129539904D01*
X197127809Y-129587523D01*
X197223047Y-129635142D01*
X197365904Y-129635142D01*
X197461142Y-129587523D01*
X197508761Y-129539904D01*
X197556380Y-129444666D01*
X197556380Y-129063714D01*
X196556380Y-129063714D01*
X196556380Y-129397047D01*
X196604000Y-129492285D01*
X196651619Y-129539904D01*
X196746857Y-129587523D01*
X196842095Y-129587523D01*
X196937333Y-129539904D01*
X196984952Y-129492285D01*
X197032571Y-129397047D01*
X197032571Y-129063714D01*
X196556380Y-130254190D02*
X196556380Y-130444666D01*
X196604000Y-130539904D01*
X196699238Y-130635142D01*
X196889714Y-130682761D01*
X197223047Y-130682761D01*
X197413523Y-130635142D01*
X197508761Y-130539904D01*
X197556380Y-130444666D01*
X197556380Y-130254190D01*
X197508761Y-130158952D01*
X197413523Y-130063714D01*
X197223047Y-130016095D01*
X196889714Y-130016095D01*
X196699238Y-130063714D01*
X196604000Y-130158952D01*
X196556380Y-130254190D01*
X196556380Y-130968476D02*
X196556380Y-131539904D01*
X197556380Y-131254190D02*
X196556380Y-131254190D01*
X196556380Y-131730380D02*
X196556380Y-132301809D01*
X197556380Y-132016095D02*
X196556380Y-132016095D01*
X196556380Y-132825619D02*
X196556380Y-133016095D01*
X196604000Y-133111333D01*
X196699238Y-133206571D01*
X196889714Y-133254190D01*
X197223047Y-133254190D01*
X197413523Y-133206571D01*
X197508761Y-133111333D01*
X197556380Y-133016095D01*
X197556380Y-132825619D01*
X197508761Y-132730380D01*
X197413523Y-132635142D01*
X197223047Y-132587523D01*
X196889714Y-132587523D01*
X196699238Y-132635142D01*
X196604000Y-132730380D01*
X196556380Y-132825619D01*
X197556380Y-133682761D02*
X196556380Y-133682761D01*
X197270666Y-134016095D01*
X196556380Y-134349428D01*
X197556380Y-134349428D01*
%TO.C,J9*%
X190460380Y-137969666D02*
X191174666Y-137969666D01*
X191317523Y-137922047D01*
X191412761Y-137826809D01*
X191460380Y-137683952D01*
X191460380Y-137588714D01*
X191460380Y-138493476D02*
X191460380Y-138683952D01*
X191412761Y-138779190D01*
X191365142Y-138826809D01*
X191222285Y-138922047D01*
X191031809Y-138969666D01*
X190650857Y-138969666D01*
X190555619Y-138922047D01*
X190508000Y-138874428D01*
X190460380Y-138779190D01*
X190460380Y-138588714D01*
X190508000Y-138493476D01*
X190555619Y-138445857D01*
X190650857Y-138398238D01*
X190888952Y-138398238D01*
X190984190Y-138445857D01*
X191031809Y-138493476D01*
X191079428Y-138588714D01*
X191079428Y-138779190D01*
X191031809Y-138874428D01*
X190984190Y-138922047D01*
X190888952Y-138969666D01*
X196064142Y-137636714D02*
X196111761Y-137589095D01*
X196159380Y-137446238D01*
X196159380Y-137351000D01*
X196111761Y-137208142D01*
X196016523Y-137112904D01*
X195921285Y-137065285D01*
X195730809Y-137017666D01*
X195587952Y-137017666D01*
X195397476Y-137065285D01*
X195302238Y-137112904D01*
X195207000Y-137208142D01*
X195159380Y-137351000D01*
X195159380Y-137446238D01*
X195207000Y-137589095D01*
X195254619Y-137636714D01*
X195159380Y-137922428D02*
X196159380Y-138255761D01*
X195159380Y-138589095D01*
X196254619Y-138684333D02*
X196254619Y-139446238D01*
X195159380Y-139874809D02*
X195159380Y-140065285D01*
X195207000Y-140160523D01*
X195302238Y-140255761D01*
X195492714Y-140303380D01*
X195826047Y-140303380D01*
X196016523Y-140255761D01*
X196111761Y-140160523D01*
X196159380Y-140065285D01*
X196159380Y-139874809D01*
X196111761Y-139779571D01*
X196016523Y-139684333D01*
X195826047Y-139636714D01*
X195492714Y-139636714D01*
X195302238Y-139684333D01*
X195207000Y-139779571D01*
X195159380Y-139874809D01*
X195159380Y-140731952D02*
X195968904Y-140731952D01*
X196064142Y-140779571D01*
X196111761Y-140827190D01*
X196159380Y-140922428D01*
X196159380Y-141112904D01*
X196111761Y-141208142D01*
X196064142Y-141255761D01*
X195968904Y-141303380D01*
X195159380Y-141303380D01*
X195159380Y-141636714D02*
X195159380Y-142208142D01*
X196159380Y-141922428D02*
X195159380Y-141922428D01*
X196254619Y-142303380D02*
X196254619Y-143065285D01*
X195635571Y-143636714D02*
X195683190Y-143779571D01*
X195730809Y-143827190D01*
X195826047Y-143874809D01*
X195968904Y-143874809D01*
X196064142Y-143827190D01*
X196111761Y-143779571D01*
X196159380Y-143684333D01*
X196159380Y-143303380D01*
X195159380Y-143303380D01*
X195159380Y-143636714D01*
X195207000Y-143731952D01*
X195254619Y-143779571D01*
X195349857Y-143827190D01*
X195445095Y-143827190D01*
X195540333Y-143779571D01*
X195587952Y-143731952D01*
X195635571Y-143636714D01*
X195635571Y-143303380D01*
X195159380Y-144493857D02*
X195159380Y-144684333D01*
X195207000Y-144779571D01*
X195302238Y-144874809D01*
X195492714Y-144922428D01*
X195826047Y-144922428D01*
X196016523Y-144874809D01*
X196111761Y-144779571D01*
X196159380Y-144684333D01*
X196159380Y-144493857D01*
X196111761Y-144398619D01*
X196016523Y-144303380D01*
X195826047Y-144255761D01*
X195492714Y-144255761D01*
X195302238Y-144303380D01*
X195207000Y-144398619D01*
X195159380Y-144493857D01*
X195159380Y-145208142D02*
X195159380Y-145779571D01*
X196159380Y-145493857D02*
X195159380Y-145493857D01*
D10*
%TO.C,J5*%
X86341000Y-148590000D02*
G75*
G03*
X86341000Y-148590000I-1251000J0D01*
G01*
%TO.C,J17*%
X137141000Y-142240000D02*
G75*
G03*
X137141000Y-142240000I-1251000J0D01*
G01*
%TO.C,J15*%
X130664000Y-116840000D02*
G75*
G03*
X130664000Y-116840000I-1251000J0D01*
G01*
%TO.C,J16*%
X99041000Y-72390000D02*
G75*
G03*
X99041000Y-72390000I-1251000J0D01*
G01*
%TO.C,J18*%
X137141000Y-148590000D02*
G75*
G03*
X137141000Y-148590000I-1251000J0D01*
G01*
%TO.C,J10*%
X67418000Y-116840000D02*
G75*
G03*
X67418000Y-116840000I-1251000J0D01*
G01*
%TO.C,J11*%
X99041000Y-66040000D02*
G75*
G03*
X99041000Y-66040000I-1251000J0D01*
G01*
%TO.C,J12*%
X60941000Y-142240000D02*
G75*
G03*
X60941000Y-142240000I-1251000J0D01*
G01*
%TO.C,J13*%
X60941000Y-148590000D02*
G75*
G03*
X60941000Y-148590000I-1251000J0D01*
G01*
%TO.C,J14*%
X86341000Y-110490000D02*
G75*
G03*
X86341000Y-110490000I-1251000J0D01*
G01*
%TO.C,J21*%
X60941000Y-167640000D02*
G75*
G03*
X60941000Y-167640000I-1251000J0D01*
G01*
%TO.C,J22*%
X92691000Y-173990000D02*
G75*
G03*
X92691000Y-173990000I-1251000J0D01*
G01*
%TO.C,J23*%
X137141000Y-167640000D02*
G75*
G03*
X137141000Y-167640000I-1251000J0D01*
G01*
%TO.C,J4*%
X111741000Y-148590000D02*
G75*
G03*
X111741000Y-148590000I-1251000J0D01*
G01*
%TO.C,J19*%
X111741000Y-110490000D02*
G75*
G03*
X111741000Y-110490000I-1251000J0D01*
G01*
%TO.C,RV9*%
X142808000Y-86295000D02*
X142808000Y-88725000D01*
X133037000Y-83830000D02*
X133037000Y-88900000D01*
X144327000Y-87510000D02*
X143568000Y-87510000D01*
X144327000Y-88725000D02*
X142808000Y-88725000D01*
X144327000Y-86295000D02*
X144327000Y-88725000D01*
X144327000Y-86295000D02*
X142808000Y-86295000D01*
X142807000Y-83830000D02*
X133037000Y-83830000D01*
X142807000Y-83830000D02*
X142807000Y-88900000D01*
X142807000Y-88900000D02*
X133037000Y-88900000D01*
%TO.C,RV4*%
X51251000Y-86425000D02*
X52770000Y-86425000D01*
X52770000Y-86425000D02*
X52770000Y-83995000D01*
X52771000Y-88890000D02*
X62541000Y-88890000D01*
X52771000Y-88890000D02*
X52771000Y-83820000D01*
X51251000Y-85210000D02*
X52010000Y-85210000D01*
X52771000Y-83820000D02*
X62541000Y-83820000D01*
X51251000Y-83995000D02*
X52770000Y-83995000D01*
X51251000Y-86425000D02*
X51251000Y-83995000D01*
X62541000Y-88890000D02*
X62541000Y-83820000D01*
%TO.C,J7*%
X194624000Y-90170000D02*
X194624000Y-102930000D01*
X194624000Y-87570000D02*
X193294000Y-87570000D01*
X191964000Y-90170000D02*
X191964000Y-102930000D01*
X194624000Y-88900000D02*
X194624000Y-87570000D01*
X194624000Y-90170000D02*
X191964000Y-90170000D01*
X194624000Y-102930000D02*
X191964000Y-102930000D01*
%TO.C,J8*%
X195894000Y-130870000D02*
X190694000Y-130870000D01*
X193294000Y-125730000D02*
X193294000Y-123130000D01*
X190694000Y-123130000D02*
X190694000Y-130870000D01*
X193294000Y-123130000D02*
X190694000Y-123130000D01*
X195894000Y-125730000D02*
X195894000Y-130870000D01*
X195894000Y-123130000D02*
X194564000Y-123130000D01*
X195894000Y-125730000D02*
X193294000Y-125730000D01*
X195894000Y-124460000D02*
X195894000Y-123130000D01*
%TO.C,J9*%
X191964000Y-147320000D02*
X191964000Y-137100000D01*
X191964000Y-147320000D02*
X194624000Y-147320000D01*
X191964000Y-137100000D02*
X194624000Y-137100000D01*
X194624000Y-149920000D02*
X194624000Y-148590000D01*
X194624000Y-147320000D02*
X194624000Y-137100000D01*
X193294000Y-149920000D02*
X194624000Y-149920000D01*
%TD*%
M02*
