%TF.GenerationSoftware,KiCad,Pcbnew,6.0.5-a6ca702e91~116~ubuntu20.04.1*%
%TF.CreationDate,2022-06-08T18:51:39+02:00*%
%TF.ProjectId,dripples,64726970-706c-4657-932e-6b696361645f,1*%
%TF.SameCoordinates,Original*%
%TF.FileFunction,Soldermask,Bot*%
%TF.FilePolarity,Negative*%
%FSLAX46Y46*%
G04 Gerber Fmt 4.6, Leading zero omitted, Abs format (unit mm)*
G04 Created by KiCad (PCBNEW 6.0.5-a6ca702e91~116~ubuntu20.04.1) date 2022-06-08 18:51:39*
%MOMM*%
%LPD*%
G01*
G04 APERTURE LIST*
%ADD10C,8.000000*%
%ADD11R,1.700000X1.700000*%
%ADD12O,1.700000X1.700000*%
%ADD13O,2.720000X3.240000*%
%ADD14R,1.800000X1.800000*%
%ADD15C,1.800000*%
%ADD16C,3.200000*%
%ADD17O,2.794000X3.810000*%
%ADD18C,1.524000*%
%ADD19C,0.500000*%
%ADD20R,1.600000X1.600000*%
%ADD21C,1.600000*%
%ADD22C,2.000000*%
%ADD23C,1.440000*%
G04 APERTURE END LIST*
D10*
%TO.C,H4*%
X110490000Y-154940000D03*
%TD*%
%TO.C,H16*%
X135890000Y-135890000D03*
%TD*%
%TO.C,H10*%
X97790000Y-59690000D03*
%TD*%
%TO.C,H11*%
X59690000Y-135890000D03*
%TD*%
D11*
%TO.C,J2*%
X97790000Y-88900000D03*
D12*
X97790000Y-91440000D03*
X97790000Y-93980000D03*
X97790000Y-96520000D03*
X97790000Y-99060000D03*
X97790000Y-101600000D03*
%TD*%
D11*
%TO.C,J1*%
X96520000Y-124460000D03*
D12*
X99060000Y-124460000D03*
X96520000Y-127000000D03*
X99060000Y-127000000D03*
X96520000Y-129540000D03*
X99060000Y-129540000D03*
%TD*%
D13*
%TO.C,RV7*%
X131090000Y-97793000D03*
X140690000Y-97793000D03*
D14*
X133390000Y-105293000D03*
D15*
X135890000Y-105293000D03*
X138390000Y-105293000D03*
%TD*%
D13*
%TO.C,RV8*%
X105690000Y-135893000D03*
X115290000Y-135893000D03*
D14*
X107990000Y-143393000D03*
D15*
X110490000Y-143393000D03*
X112990000Y-143393000D03*
%TD*%
D13*
%TO.C,RV10*%
X115290000Y-97793000D03*
X105690000Y-97793000D03*
D14*
X107990000Y-105293000D03*
D15*
X110490000Y-105293000D03*
X112990000Y-105293000D03*
%TD*%
D13*
%TO.C,RV1*%
X77190000Y-69212000D03*
X67590000Y-69212000D03*
D14*
X74890000Y-61712000D03*
D15*
X72390000Y-61712000D03*
X69890000Y-61712000D03*
%TD*%
D13*
%TO.C,RV2*%
X54890000Y-97793000D03*
X64490000Y-97793000D03*
D14*
X57190000Y-105293000D03*
D15*
X59690000Y-105293000D03*
X62190000Y-105293000D03*
%TD*%
D13*
%TO.C,RV5*%
X80290000Y-97793000D03*
X89890000Y-97793000D03*
D14*
X82590000Y-105293000D03*
D15*
X85090000Y-105293000D03*
X87590000Y-105293000D03*
%TD*%
D13*
%TO.C,RV13*%
X54890000Y-193037000D03*
X64490000Y-193037000D03*
D14*
X62190000Y-185537000D03*
D15*
X59690000Y-185537000D03*
X57190000Y-185537000D03*
%TD*%
D10*
%TO.C,H17*%
X135890000Y-154940000D03*
%TD*%
%TO.C,H9*%
X59690000Y-116840000D03*
%TD*%
%TO.C,H13*%
X85090000Y-116840000D03*
%TD*%
%TO.C,H18*%
X110490000Y-116840000D03*
%TD*%
D13*
%TO.C,RV15*%
X115290000Y-173993000D03*
X105690000Y-173993000D03*
D14*
X107990000Y-181493000D03*
D15*
X110490000Y-181493000D03*
X112990000Y-181493000D03*
%TD*%
D13*
%TO.C,RV14*%
X92990000Y-193043000D03*
X102590000Y-193043000D03*
D14*
X95290000Y-200543000D03*
D15*
X97790000Y-200543000D03*
X100290000Y-200543000D03*
%TD*%
D10*
%TO.C,H12*%
X59690000Y-154940000D03*
%TD*%
%TO.C,H5*%
X85090000Y-154940000D03*
%TD*%
%TO.C,H20*%
X85090000Y-173990000D03*
%TD*%
%TO.C,H19*%
X59690000Y-173990000D03*
%TD*%
%TO.C,H15*%
X97790000Y-78740000D03*
%TD*%
%TO.C,H14*%
X135890000Y-116840000D03*
%TD*%
D13*
%TO.C,RV6*%
X118390000Y-69212000D03*
X127990000Y-69212000D03*
D14*
X125690000Y-61712000D03*
D15*
X123190000Y-61712000D03*
X120690000Y-61712000D03*
%TD*%
D13*
%TO.C,RV3*%
X89890000Y-135893000D03*
X80290000Y-135893000D03*
D14*
X82590000Y-143393000D03*
D15*
X85090000Y-143393000D03*
X87590000Y-143393000D03*
%TD*%
D16*
%TO.C,H2*%
X151384000Y-55880000D03*
%TD*%
%TO.C,H3*%
X55753000Y-55753000D03*
%TD*%
%TO.C,H8*%
X139700000Y-55880000D03*
%TD*%
%TO.C,H1*%
X235204000Y-163830000D03*
%TD*%
%TO.C,H6*%
X55880000Y-163830000D03*
%TD*%
D17*
%TO.C,J6*%
X222377000Y-122047000D03*
X218440000Y-122047000D03*
X214503000Y-122047000D03*
X210566000Y-122047000D03*
%TD*%
D18*
%TO.C,SW1*%
X168910000Y-104775000D03*
X171450000Y-104775000D03*
X168910000Y-112395000D03*
X173990000Y-104775000D03*
X171450000Y-112395000D03*
X173990000Y-112395000D03*
%TD*%
%TO.C,SW2*%
X212725000Y-104775000D03*
X215265000Y-104775000D03*
X212725000Y-112395000D03*
X217805000Y-104775000D03*
X215265000Y-112395000D03*
X217805000Y-112395000D03*
%TD*%
D16*
%TO.C,H7*%
X235331000Y-55753000D03*
%TD*%
D19*
%TO.C,REF\u002A\u002A*%
X144780000Y-58039000D03*
%TD*%
%TO.C,REF\u002A\u002A*%
X144780000Y-59182000D03*
%TD*%
%TO.C,REF\u002A\u002A*%
X144780000Y-60325000D03*
%TD*%
%TO.C,REF\u002A\u002A*%
X144780000Y-61468000D03*
%TD*%
%TO.C,REF\u002A\u002A*%
X144780000Y-62611000D03*
%TD*%
%TO.C,REF\u002A\u002A*%
X146304000Y-58039000D03*
%TD*%
%TO.C,REF\u002A\u002A*%
X146304000Y-61468000D03*
%TD*%
%TO.C,REF\u002A\u002A*%
X146304000Y-59182000D03*
%TD*%
%TO.C,REF\u002A\u002A*%
X146304000Y-60325000D03*
%TD*%
%TO.C,REF\u002A\u002A*%
X146304000Y-62611000D03*
%TD*%
%TO.C,REF\u002A\u002A*%
X144780000Y-194818000D03*
%TD*%
%TO.C,REF\u002A\u002A*%
X144780000Y-192532000D03*
%TD*%
%TO.C,REF\u002A\u002A*%
X146304000Y-192532000D03*
%TD*%
%TO.C,REF\u002A\u002A*%
X144780000Y-191389000D03*
%TD*%
%TO.C,REF\u002A\u002A*%
X144780000Y-193675000D03*
%TD*%
%TO.C,REF\u002A\u002A*%
X144780000Y-195961000D03*
%TD*%
%TO.C,REF\u002A\u002A*%
X146304000Y-191389000D03*
%TD*%
%TO.C,REF\u002A\u002A*%
X146304000Y-194818000D03*
%TD*%
%TO.C,REF\u002A\u002A*%
X146304000Y-193675000D03*
%TD*%
%TO.C,REF\u002A\u002A*%
X146304000Y-195961000D03*
%TD*%
%TO.C,REF\u002A\u002A*%
X144780000Y-124714000D03*
%TD*%
%TO.C,REF\u002A\u002A*%
X146304000Y-124714000D03*
%TD*%
%TO.C,REF\u002A\u002A*%
X144780000Y-129286000D03*
%TD*%
%TO.C,REF\u002A\u002A*%
X146304000Y-125857000D03*
%TD*%
%TO.C,REF\u002A\u002A*%
X144780000Y-127000000D03*
%TD*%
%TO.C,REF\u002A\u002A*%
X146304000Y-127000000D03*
%TD*%
%TO.C,REF\u002A\u002A*%
X146304000Y-128143000D03*
%TD*%
%TO.C,REF\u002A\u002A*%
X146304000Y-129286000D03*
%TD*%
%TO.C,REF\u002A\u002A*%
X144780000Y-125857000D03*
%TD*%
%TO.C,REF\u002A\u002A*%
X144780000Y-128143000D03*
%TD*%
D11*
%TO.C,J3*%
X97790000Y-148590000D03*
D12*
X97790000Y-146050000D03*
X97790000Y-143510000D03*
X97790000Y-140970000D03*
X97790000Y-138430000D03*
%TD*%
D20*
%TO.C,C1*%
X188047621Y-118491000D03*
D21*
X190547621Y-118491000D03*
%TD*%
D20*
%TO.C,C2*%
X198540380Y-118491000D03*
D21*
X196040380Y-118491000D03*
%TD*%
D11*
%TO.C,J25*%
X234061000Y-118110000D03*
D12*
X234061000Y-120650000D03*
X234061000Y-123190000D03*
%TD*%
D13*
%TO.C,RV16*%
X140690000Y-193037000D03*
X131090000Y-193037000D03*
D14*
X138390000Y-185537000D03*
D15*
X135890000Y-185537000D03*
X133390000Y-185537000D03*
%TD*%
D11*
%TO.C,J20*%
X154940000Y-118110000D03*
D12*
X154940000Y-120650000D03*
X154940000Y-123190000D03*
%TD*%
D10*
%TO.C,H21*%
X135890000Y-173990000D03*
%TD*%
D11*
%TO.C,J24*%
X191770000Y-191775000D03*
D12*
X191770000Y-189235000D03*
%TD*%
D22*
%TO.C,J5*%
X85090000Y-148590000D03*
%TD*%
%TO.C,J17*%
X135890000Y-142240000D03*
%TD*%
%TO.C,J15*%
X129413000Y-116840000D03*
%TD*%
%TO.C,J16*%
X97790000Y-72390000D03*
%TD*%
%TO.C,J18*%
X135890000Y-148590000D03*
%TD*%
%TO.C,J10*%
X66167000Y-116840000D03*
%TD*%
%TO.C,J11*%
X97790000Y-66040000D03*
%TD*%
%TO.C,J12*%
X59690000Y-142240000D03*
%TD*%
%TO.C,J13*%
X59690000Y-148590000D03*
%TD*%
%TO.C,J14*%
X85090000Y-110490000D03*
%TD*%
%TO.C,J21*%
X59690000Y-167640000D03*
%TD*%
%TO.C,J22*%
X91440000Y-173990000D03*
%TD*%
%TO.C,J23*%
X135890000Y-167640000D03*
%TD*%
%TO.C,J4*%
X110490000Y-148590000D03*
%TD*%
%TO.C,J19*%
X110490000Y-110490000D03*
%TD*%
D23*
%TO.C,RV9*%
X135382000Y-86360000D03*
X137922000Y-86360000D03*
X140462000Y-86360000D03*
%TD*%
%TO.C,RV4*%
X60196000Y-86360000D03*
X57656000Y-86360000D03*
X55116000Y-86360000D03*
%TD*%
D11*
%TO.C,J7*%
X193294000Y-88900000D03*
D12*
X193294000Y-91440000D03*
X193294000Y-93980000D03*
X193294000Y-96520000D03*
X193294000Y-99060000D03*
X193294000Y-101600000D03*
%TD*%
D11*
%TO.C,J8*%
X194564000Y-124460000D03*
D12*
X192024000Y-124460000D03*
X194564000Y-127000000D03*
X192024000Y-127000000D03*
X194564000Y-129540000D03*
X192024000Y-129540000D03*
%TD*%
D11*
%TO.C,J9*%
X193294000Y-148590000D03*
D12*
X193294000Y-146050000D03*
X193294000Y-143510000D03*
X193294000Y-140970000D03*
X193294000Y-138430000D03*
%TD*%
M02*
